gameTick,lap,pieceIndex,inPieceDistance,laneStart,laneEnd,pieceChange,switch,carAngle,angleDelta,length,curve,angle,radius,throttle,velocity
0,0,0,0.0,0,0,False,False,0.0,0,100.0,n,,,0.0,0
1,0,0,0.0,0,0,False,False,0.0,0.0,100.0,n,,,0.88,0.0
2,0,0,0.0,0,0,False,False,0.0,0.0,100.0,n,,,0.88,0.0
3,0,0,0.17,0,0,False,False,0.0,0.0,100.0,n,,,0.88,0.17
4,0,0,0.52,0,0,False,False,0.0,0.0,100.0,n,,,0.88,0.35
5,0,0,1.03,0,0,False,False,0.0,0.0,100.0,n,,,0.88,0.51
6,0,0,1.7,0,0,False,False,0.0,0.0,100.0,n,,,0.88,0.67
7,0,0,2.53,0,0,False,False,0.0,0.0,100.0,n,,,0.88,0.83
8,0,0,3.52,0,0,False,False,0.0,0.0,100.0,n,,,0.88,0.99
9,0,0,4.67,0,0,False,False,0.0,0.0,100.0,n,,,0.88,1.15
10,0,0,5.96,0,0,False,False,0.0,0.0,100.0,n,,,0.88,1.29
11,0,0,7.4,0,0,False,False,0.0,0.0,100.0,n,,,0.88,1.44
12,0,0,8.99,0,0,False,False,0.0,0.0,100.0,n,,,0.88,1.59
13,0,0,10.71,0,0,False,False,0.0,0.0,100.0,n,,,0.88,1.72
14,0,0,12.58,0,0,False,False,0.0,0.0,100.0,n,,,0.88,1.87
15,0,0,14.58,0,0,False,False,0.0,0.0,100.0,n,,,0.88,2.0
16,0,0,16.71,0,0,False,False,0.0,0.0,100.0,n,,,0.88,2.13
17,0,0,18.97,0,0,False,False,0.0,0.0,100.0,n,,,0.88,2.26
18,0,0,21.36,0,0,False,False,0.0,0.0,100.0,n,,,0.88,2.39
19,0,0,23.88,0,0,False,False,0.0,0.0,100.0,n,,,0.88,2.52
20,0,0,26.51,0,0,False,False,0.0,0.0,100.0,n,,,0.88,2.63
21,0,0,29.27,0,0,False,False,0.0,0.0,100.0,n,,,0.88,2.76
22,0,0,32.15,0,0,False,False,0.0,0.0,100.0,n,,,0.88,2.88
23,0,0,35.13,0,0,False,False,0.0,0.0,100.0,n,,,0.88,2.98
24,0,0,38.24,0,0,False,False,0.0,0.0,100.0,n,,,0.88,3.11
25,0,0,41.45,0,0,False,False,0.0,0.0,100.0,n,,,0.88,3.21
26,0,0,44.77,0,0,False,False,0.0,0.0,100.0,n,,,0.88,3.32
27,0,0,48.19,0,0,False,False,0.0,0.0,100.0,n,,,0.88,3.42
28,0,0,51.72,0,0,False,False,0.0,0.0,100.0,n,,,0.88,3.53
29,0,0,55.35,0,0,False,False,0.0,0.0,100.0,n,,,0.88,3.63
30,0,0,59.08,0,0,False,False,0.0,0.0,100.0,n,,,0.88,3.73
31,0,0,62.91,0,0,False,False,0.0,0.0,100.0,n,,,0.88,3.83
32,0,0,66.83,0,0,False,False,0.0,0.0,100.0,n,,,0.88,3.92
33,0,0,70.84,0,0,False,False,0.0,0.0,100.0,n,,,0.88,4.01
34,0,0,74.95,0,0,False,False,0.0,0.0,100.0,n,,,0.88,4.11
35,0,0,79.15,0,0,False,False,0.0,0.0,100.0,n,,,0.88,4.2
36,0,0,83.43,0,0,False,False,0.0,0.0,100.0,n,,,0.88,4.28
37,0,0,87.8,0,0,False,False,0.0,0.0,100.0,n,,,0.88,4.37
38,0,0,92.26,0,0,False,False,0.0,0.0,100.0,n,,,0.88,4.46
39,0,0,96.8,0,0,False,False,0.0,0.0,100.0,n,,,0.88,4.54
40,0,1,1.41,0,0,True,True,0.0,0.0,100.0,n,,,0.88,4.61
41,0,1,6.11,0,0,False,True,0.0,0.0,100.0,n,,,0.88,4.7
42,0,1,10.89,0,0,False,True,0.0,0.0,100.0,n,,,0.88,4.78
43,0,1,15.74,0,0,False,True,0.0,0.0,100.0,n,,,0.88,4.85
44,0,1,20.66,0,0,False,True,0.0,0.0,100.0,n,,,0.88,4.92
45,0,1,25.66,0,0,False,True,0.0,0.0,100.0,n,,,0.88,5.0
46,0,1,30.73,0,0,False,True,0.0,0.0,100.0,n,,,0.88,5.07
47,0,1,35.87,0,0,False,True,0.0,0.0,100.0,n,,,0.88,5.14
48,0,1,41.08,0,0,False,True,0.0,0.0,100.0,n,,,0.88,5.21
49,0,1,46.35,0,0,False,True,0.0,0.0,100.0,n,,,0.88,5.27
50,0,1,51.69,0,0,False,True,0.0,0.0,100.0,n,,,0.88,5.34
51,0,1,57.1,0,0,False,True,0.0,0.0,100.0,n,,,0.88,5.41
52,0,1,62.57,0,0,False,True,0.0,0.0,100.0,n,,,0.88,5.47
53,0,1,68.1,0,0,False,True,0.0,0.0,100.0,n,,,0.88,5.53
54,0,1,73.69,0,0,False,True,0.0,0.0,100.0,n,,,0.88,5.59
55,0,1,79.34,0,0,False,True,0.0,0.0,100.0,n,,,0.88,5.65
56,0,1,85.05,0,0,False,True,0.0,0.0,100.0,n,,,0.88,5.71
57,0,1,90.81,0,0,False,True,0.0,0.0,100.0,n,,,0.88,5.76
58,0,1,96.63,0,0,False,True,0.0,0.0,100.0,n,,,0.88,5.82
59,0,2,2.51,0,0,True,False,0.0,0.0,86.4,r,22.5,220,0.88,5.88
60,0,2,8.44,0,0,False,False,0.0,0.0,86.4,r,22.5,220,0.88,5.93
61,0,2,14.42,0,0,False,False,0.0,0.0,86.4,r,22.5,220,0.88,5.98
62,0,2,20.45,0,0,False,False,0.0,0.0,86.4,r,22.5,220,0.88,6.03
63,0,2,26.53,0,0,False,False,0.0,0.0,86.4,r,22.5,220,0.88,6.08
64,0,2,32.66,0,0,False,False,0.0,0.0,86.4,r,22.5,220,0.88,6.13
65,0,2,38.84,0,0,False,False,0.0,0.0,86.4,r,22.5,220,0.88,6.18
66,0,2,45.07,0,0,False,False,0.0,0.0,86.4,r,22.5,220,0.88,6.23
67,0,2,51.34,0,0,False,False,0.0,0.0,86.4,r,22.5,220,0.88,6.27
68,0,2,57.66,0,0,False,False,0.0,0.0,86.4,r,22.5,220,0.88,6.32
69,0,2,64.03,0,0,False,False,0.0,0.0,86.4,r,22.5,220,0.88,6.37
70,0,2,70.43,0,0,False,False,0.0,0.0,86.4,r,22.5,220,0.88,6.4
71,0,2,76.88,0,0,False,False,0.0,0.0,86.4,r,22.5,220,0.88,6.45
72,0,2,83.37,0,0,False,False,0.0,0.0,86.4,r,22.5,220,0.88,6.49
73,0,3,3.51,0,0,True,False,0.0,0.0,86.4,r,22.5,220,0.88,6.54
74,0,3,10.08,0,0,False,False,0.0,0.0,86.4,r,22.5,220,0.88,6.57
75,0,3,16.69,0,0,False,False,0.0,0.0,86.4,r,22.5,220,0.88,6.61
76,0,3,23.34,0,0,False,False,0.0,0.0,86.4,r,22.5,220,0.88,6.65
77,0,3,30.03,0,0,False,False,0.0,0.0,86.4,r,22.5,220,0.88,6.69
78,0,3,36.76,0,0,False,False,0.0,0.0,86.4,r,22.5,220,0.88,6.73
79,0,3,43.52,0,0,False,False,0.0,0.0,86.4,r,22.5,220,0.88,6.76
80,0,3,50.31,0,0,False,False,0.0,0.0,86.4,r,22.5,220,0.88,6.79
81,0,3,57.14,0,0,False,False,0.0,0.0,86.4,r,22.5,220,0.88,6.83
82,0,3,64.01,0,0,False,False,0.0,0.0,86.4,r,22.5,220,0.88,6.87
83,0,3,70.9,0,0,False,False,0.0,0.0,86.4,r,22.5,220,0.88,6.89
84,0,3,77.83,0,0,False,False,0.0,0.0,86.4,r,22.5,220,0.88,6.93
85,0,3,84.79,0,0,False,False,0.0,0.0,86.4,r,22.5,220,0.88,6.96
86,0,4,5.39,0,0,True,False,0.0,0.0,86.4,r,22.5,220,0.88,7.0
87,0,4,12.42,0,0,False,False,0.0,0.0,86.4,r,22.5,220,1.0,7.03
88,0,4,19.49,0,0,False,False,0.0,0.0,86.4,r,22.5,220,1.0,7.07
89,0,4,26.62,0,0,False,False,0.0,0.0,86.4,r,22.5,220,1.0,7.13
90,0,4,33.81,0,0,False,False,0.0,0.0,86.4,r,22.5,220,1.0,7.19
91,0,4,41.04,0,0,False,False,0.0,0.0,86.4,r,22.5,220,1.0,7.23
92,0,4,48.32,0,0,False,False,0.0,0.0,86.4,r,22.5,220,1.0,7.28
93,0,4,55.65,0,0,False,False,0.0,0.0,86.4,r,22.5,220,1.0,7.33
94,0,4,63.03,0,0,False,False,0.0,0.0,86.4,r,22.5,220,1.0,7.38
95,0,4,70.45,0,0,False,False,0.0,0.0,86.4,r,22.5,220,1.0,7.42
96,0,4,77.92,0,0,False,False,0.0,0.0,86.4,r,22.5,220,1.0,7.47
97,0,4,85.43,0,0,False,False,0.0,0.0,86.4,r,22.5,220,1.0,7.51
98,0,5,6.59,0,0,True,False,0.0,0.0,86.4,r,22.5,220,1.0,7.56
99,0,5,14.19,0,0,False,False,0.0,0.0,86.4,r,22.5,220,1.0,7.6
100,0,5,21.84,0,0,False,False,0.0,0.0,86.4,r,22.5,220,1.0,7.65
101,0,5,29.52,0,0,False,False,0.0,0.0,86.4,r,22.5,220,1.0,7.68
102,0,5,37.24,0,0,False,False,0.0,0.0,86.4,r,22.5,220,1.0,7.72
103,0,5,45.0,0,0,False,False,0.0,0.0,86.4,r,22.5,220,1.0,7.76
104,0,5,52.8,0,0,False,False,0.0,0.0,86.4,r,22.5,220,1.0,7.8
105,0,5,60.64,0,0,False,False,0.0,0.0,86.4,r,22.5,220,1.0,7.84
106,0,5,68.52,0,0,False,False,0.0,0.0,86.4,r,22.5,220,1.0,7.88
107,0,5,76.43,0,0,False,False,0.0,0.0,86.4,r,22.5,220,1.0,7.91
108,0,5,84.38,0,0,False,False,0.0,0.0,86.4,r,22.5,220,1.0,7.95
109,0,6,5.97,0,0,True,False,0.0,0.0,100.0,n,,,1.0,7.99
110,0,6,13.98,0,0,False,False,0.0,0.0,100.0,n,,,1.0,8.01
111,0,6,22.03,0,0,False,False,0.0,0.0,100.0,n,,,0.88,8.05
112,0,6,30.09,0,0,False,False,0.0,0.0,100.0,n,,,0.88,8.06
113,0,6,38.16,0,0,False,False,0.0,0.0,100.0,n,,,0.88,8.07
114,0,6,46.23,0,0,False,False,0.0,0.0,100.0,n,,,0.88,8.07
115,0,6,54.32,0,0,False,False,0.0,0.0,100.0,n,,,0.88,8.09
116,0,6,62.41,0,0,False,False,0.0,0.0,100.0,n,,,0.88,8.09
117,0,6,70.51,0,0,False,False,0.0,0.0,100.0,n,,,0.88,8.1
118,0,6,78.62,0,0,False,False,0.0,0.0,100.0,n,,,0.88,8.11
119,0,6,86.73,0,0,False,False,0.0,0.0,100.0,n,,,0.88,8.11
120,0,6,94.86,0,0,False,False,0.0,0.0,100.0,n,,,0.88,8.13
121,0,7,2.99,0,1,True,True,0.0,0.0,100.0,n,,,0.88,8.13
122,0,7,11.13,0,1,False,True,0.0,0.0,100.0,n,,,0.88,8.14
123,0,7,19.27,0,1,False,True,0.0,0.0,100.0,n,,,0.88,8.14
124,0,7,27.43,0,1,False,True,0.0,0.0,100.0,n,,,0.88,8.16
125,0,7,35.59,0,1,False,True,0.0,0.0,100.0,n,,,0.88,8.16
126,0,7,43.75,0,1,False,True,0.0,0.0,100.0,n,,,0.88,8.16
127,0,7,51.93,0,1,False,True,0.0,0.0,100.0,n,,,0.88,8.18
128,0,7,60.11,0,1,False,True,0.0,0.0,100.0,n,,,0.88,8.18
129,0,7,68.29,0,1,False,True,0.0,0.0,100.0,n,,,0.88,8.18
130,0,7,76.49,0,1,False,True,0.0,0.0,100.0,n,,,0.88,8.2
131,0,7,84.68,0,1,False,True,0.0,0.0,100.0,n,,,0.88,8.19
132,0,7,92.89,0,1,False,True,0.0,0.0,100.0,n,,,0.88,8.21
133,0,7,101.1,0,1,False,True,0.0,0.0,100.0,n,,,0.88,8.21
134,0,8,7.25,1,1,True,False,0.0,0.0,78.5,r,22.5,200,0.88,6.15
135,0,8,15.48,1,1,False,False,0.08,0.08,78.5,r,22.5,200,0.88,8.23
136,0,8,23.7,1,1,False,False,0.23,0.15,78.5,r,22.5,200,0.88,8.22
137,0,8,31.93,1,1,False,False,0.44,0.21,78.5,r,22.5,200,0.88,8.23
138,0,8,40.17,1,1,False,False,0.71,0.27,78.5,r,22.5,200,0.88,8.24
139,0,8,48.41,1,1,False,False,1.03,0.32,78.5,r,22.5,200,0.88,8.24
140,0,8,56.66,1,1,False,False,1.39,0.36,78.5,r,22.5,200,0.88,8.25
141,0,8,64.91,1,1,False,False,1.79,0.4,78.5,r,22.5,200,0.88,8.25
142,0,8,73.17,1,1,False,False,2.22,0.43,78.5,r,22.5,200,0.88,8.26
143,0,9,2.89,1,1,True,False,2.68,0.46,78.5,r,22.5,200,0.88,8.22
144,0,9,11.16,1,1,False,False,3.16,0.48,78.5,r,22.5,200,0.88,8.27
145,0,9,19.43,1,1,False,False,3.64,0.48,78.5,r,22.5,200,0.88,8.27
146,0,9,27.71,1,1,False,False,4.14,0.5,78.5,r,22.5,200,0.88,8.28
147,0,9,35.99,1,1,False,False,4.64,0.5,78.5,r,22.5,200,0.88,8.28
148,0,9,44.27,1,1,False,False,5.15,0.51,78.5,r,22.5,200,0.88,8.28
149,0,9,52.56,1,1,False,False,5.65,0.5,78.5,r,22.5,200,0.88,8.29
150,0,9,60.86,1,1,False,False,6.14,0.49,78.5,r,22.5,200,0.88,8.3
151,0,9,69.15,1,1,False,False,6.62,0.48,78.5,r,22.5,200,0.88,8.29
152,0,9,77.45,1,1,False,False,7.09,0.47,78.5,r,22.5,200,0.88,8.3
153,0,10,7.22,1,1,True,False,7.54,0.45,78.5,r,22.5,200,0.88,8.27
154,0,10,15.53,1,1,False,False,7.97,0.43,78.5,r,22.5,200,1.0,8.31
155,0,10,23.86,1,1,False,False,8.39,0.42,78.5,r,22.5,200,1.0,8.33
156,0,10,32.22,1,1,False,False,8.79,0.4,78.5,r,22.5,200,1.0,8.36
157,0,10,40.61,1,1,False,False,9.19,0.4,78.5,r,22.5,200,1.0,8.39
158,0,10,49.03,1,1,False,False,9.58,0.39,78.5,r,22.5,200,1.0,8.42
159,0,10,57.47,1,1,False,False,9.98,0.4,78.5,r,22.5,200,1.0,8.44
160,0,10,65.93,1,1,False,False,10.38,0.4,78.5,r,22.5,200,1.0,8.46
161,0,10,74.42,1,1,False,False,10.8,0.42,78.5,r,22.5,200,1.0,8.49
162,0,11,4.39,1,1,True,False,11.22,0.42,78.5,r,22.5,200,1.0,8.47
163,0,11,12.93,1,1,False,False,11.66,0.44,78.5,r,22.5,200,1.0,8.54
164,0,11,21.49,1,1,False,False,12.11,0.45,78.5,r,22.5,200,1.0,8.56
165,0,11,30.07,1,1,False,False,12.58,0.47,78.5,r,22.5,200,1.0,8.58
166,0,11,38.67,1,1,False,False,13.06,0.48,78.5,r,22.5,200,1.0,8.6
167,0,11,47.29,1,1,False,False,13.57,0.51,78.5,r,22.5,200,1.0,8.62
168,0,11,55.94,1,1,False,False,14.09,0.52,78.5,r,22.5,200,1.0,8.65
169,0,11,64.6,1,1,False,False,14.63,0.54,78.5,r,22.5,200,1.0,8.66
170,0,11,73.29,1,1,False,False,15.18,0.55,78.5,r,22.5,200,1.0,8.69
171,0,12,3.45,1,1,True,False,15.75,0.57,100.0,n,,,1.0,8.66
172,0,12,12.18,1,1,False,False,16.09,0.34,100.0,n,,,1.0,8.73
173,0,12,20.92,1,1,False,False,16.22,0.13,100.0,n,,,1.0,8.74
174,0,12,29.68,1,1,False,False,16.16,-0.06,100.0,n,,,1.0,8.76
175,0,12,38.46,1,1,False,False,15.93,-0.23,100.0,n,,,1.0,8.78
176,0,12,47.26,1,1,False,False,15.55,-0.38,100.0,n,,,1.0,8.8
177,0,12,56.07,1,1,False,False,15.04,-0.51,100.0,n,,,1.0,8.81
178,0,12,64.91,1,1,False,False,14.41,-0.63,100.0,n,,,1.0,8.84
179,0,12,73.75,1,1,False,False,13.68,-0.73,100.0,n,,,1.0,8.84
180,0,12,82.62,1,1,False,False,12.88,-0.8,100.0,n,,,1.0,8.87
181,0,12,91.5,1,1,False,False,12.01,-0.87,100.0,n,,,1.0,8.88
182,0,13,0.4,1,1,True,False,11.1,-0.91,100.0,n,,,1.0,8.9
183,0,13,9.31,1,1,False,False,10.16,-0.94,100.0,n,,,1.0,8.91
184,0,13,18.23,1,1,False,False,9.19,-0.97,100.0,n,,,1.0,8.92
185,0,13,27.18,1,1,False,False,8.22,-0.97,100.0,n,,,1.0,8.95
186,0,13,36.13,1,1,False,False,7.26,-0.96,100.0,n,,,1.0,8.95
187,0,13,45.1,1,1,False,False,6.31,-0.95,100.0,n,,,1.0,8.97
188,0,13,54.09,1,1,False,False,5.38,-0.93,100.0,n,,,1.0,8.99
189,0,13,63.08,1,1,False,False,4.49,-0.89,100.0,n,,,1.0,8.99
190,0,13,72.09,1,1,False,False,3.63,-0.86,100.0,n,,,1.0,9.01
191,0,13,81.12,1,1,False,False,2.82,-0.81,100.0,n,,,1.0,9.03
192,0,13,90.16,1,1,False,False,2.06,-0.76,100.0,n,,,1.0,9.04
193,0,13,99.2,1,1,False,False,1.36,-0.7,100.0,n,,,1.0,9.04
194,0,14,8.27,1,1,True,False,0.7,-0.66,100.0,n,,,1.0,9.07
195,0,14,17.34,1,1,False,False,0.11,-0.59,100.0,n,,,1.0,9.07
196,0,14,26.42,1,1,False,False,0.43,0.32,100.0,n,,,1.0,9.08
197,0,14,35.52,1,1,False,False,0.91,0.48,100.0,n,,,1.0,9.1
198,0,14,44.63,1,1,False,False,1.33,0.42,100.0,n,,,1.0,9.11
199,0,14,53.75,1,1,False,False,1.69,0.36,100.0,n,,,1.0,9.12
200,0,14,62.88,1,1,False,False,2.0,0.31,100.0,n,,,1.0,9.13
201,0,14,72.02,1,1,False,False,2.25,0.25,100.0,n,,,1.0,9.14
202,0,14,81.17,1,1,False,False,2.46,0.21,100.0,n,,,1.0,9.15
203,0,14,90.33,1,1,False,False,2.61,0.15,100.0,n,,,1.0,9.16
204,0,14,99.5,1,1,False,False,2.72,0.11,100.0,n,,,1.0,9.17
205,0,15,8.68,1,1,True,False,2.79,0.07,100.0,n,,,1.0,9.18
206,0,15,17.87,1,1,False,False,2.81,0.02,100.0,n,,,1.0,9.19
207,0,15,27.07,1,1,False,False,2.81,0.0,100.0,n,,,1.0,9.2
208,0,15,36.28,1,1,False,False,2.77,-0.04,100.0,n,,,1.0,9.21
209,0,15,45.49,1,1,False,False,2.7,-0.07,100.0,n,,,1.0,9.21
210,0,15,54.72,1,1,False,False,2.61,-0.09,100.0,n,,,1.0,9.23
211,0,15,63.95,1,1,False,False,2.5,-0.11,100.0,n,,,1.0,9.23
212,0,15,73.2,1,1,False,False,2.37,-0.13,100.0,n,,,1.0,9.25
213,0,15,82.45,1,1,False,False,2.23,-0.14,100.0,n,,,1.0,9.25
214,0,15,91.71,1,1,False,False,2.07,-0.16,100.0,n,,,1.0,9.26
215,0,16,0.98,1,1,True,False,1.91,-0.16,100.0,n,,,1.0,9.27
216,0,16,10.25,1,1,False,False,1.74,-0.17,100.0,n,,,1.0,9.27
217,0,16,19.53,1,1,False,False,1.56,-0.18,100.0,n,,,0.88,9.28
218,0,16,28.8,1,1,False,False,1.39,-0.17,100.0,n,,,0.88,9.27
219,0,16,38.05,1,1,False,False,1.22,-0.17,100.0,n,,,0.88,9.25
220,0,16,47.29,1,1,False,False,1.05,-0.17,100.0,n,,,0.88,9.24
221,0,16,56.51,1,1,False,False,0.89,-0.16,100.0,n,,,0.88,9.22
222,0,16,65.71,1,1,False,False,0.73,-0.16,100.0,n,,,0.88,9.2
223,0,16,74.9,1,1,False,False,0.58,-0.15,100.0,n,,,0.88,9.19
224,0,16,84.08,1,1,False,False,0.43,-0.15,100.0,n,,,0.88,9.18
225,0,16,93.24,1,1,False,False,0.3,-0.13,100.0,n,,,0.88,9.16
226,0,17,2.39,1,2,True,True,0.18,-0.12,100.0,n,,,0.88,9.15
227,0,17,11.52,1,2,False,True,0.06,-0.12,100.0,n,,,0.88,9.13
228,0,17,20.64,1,2,False,True,0.04,-0.02,100.0,n,,,0.88,9.12
229,0,17,29.75,1,2,False,True,0.13,0.09,100.0,n,,,0.88,9.11
230,0,17,38.85,1,2,False,True,0.21,0.08,100.0,n,,,0.88,9.1
231,0,17,47.93,1,2,False,True,0.28,0.07,100.0,n,,,0.88,9.08
232,0,17,57.0,1,2,False,True,0.34,0.06,100.0,n,,,0.88,9.07
233,0,17,66.06,1,2,False,True,0.39,0.05,100.0,n,,,0.88,9.06
234,0,17,75.11,1,2,False,True,0.43,0.04,100.0,n,,,0.88,9.05
235,0,17,84.15,1,2,False,True,0.46,0.03,100.0,n,,,0.88,9.04
236,0,17,93.17,1,2,False,True,0.49,0.03,100.0,n,,,0.88,9.02
237,0,18,0.13,2,2,True,False,0.5,0.01,70.7,r,22.5,180,0.88,6.96
238,0,18,9.13,2,2,False,False,1.03,0.53,70.7,r,22.5,180,0.88,9.0
239,0,18,18.12,2,2,False,False,2.02,0.99,70.7,r,22.5,180,0.88,8.99
240,0,18,27.1,2,2,False,False,3.39,1.37,70.7,r,22.5,180,0.88,8.98
241,0,18,36.08,2,2,False,False,5.1,1.71,70.7,r,22.5,180,0.88,8.98
242,0,18,45.04,2,2,False,False,7.08,1.98,70.7,r,22.5,180,0.88,8.96
243,0,18,53.99,2,2,False,False,9.29,2.21,70.7,r,22.5,180,0.88,8.95
244,0,18,62.94,2,2,False,False,11.67,2.38,70.7,r,22.5,180,0.88,8.95
245,0,19,1.18,2,2,True,False,14.17,2.5,70.7,r,22.5,180,0.88,8.94
246,0,19,10.11,2,2,False,False,16.76,2.59,70.7,r,22.5,180,0.88,8.93
247,0,19,19.03,2,2,False,False,19.38,2.62,70.7,r,22.5,180,0.88,8.92
248,0,19,27.93,2,2,False,False,22.01,2.63,70.7,r,22.5,180,0.88,8.9
249,0,19,36.83,2,2,False,False,24.6,2.59,70.7,r,22.5,180,0.88,8.9
250,0,19,45.72,2,2,False,False,27.14,2.54,70.7,r,22.5,180,0.88,8.89
251,0,19,54.6,2,2,False,False,29.59,2.45,70.7,r,22.5,180,0.88,8.88
252,0,19,63.48,2,2,False,False,31.94,2.35,70.7,r,22.5,180,0.88,8.88
253,0,20,1.66,2,2,True,False,34.16,2.22,70.7,r,22.5,180,0.88,8.88
254,0,20,10.52,2,2,False,False,36.24,2.08,70.7,r,22.5,180,1.0,8.86
255,0,20,19.39,2,2,False,False,38.17,1.93,70.7,r,22.5,180,1.0,8.87
256,0,20,28.28,2,2,False,False,39.95,1.78,70.7,r,22.5,180,1.0,8.89
257,0,20,37.19,2,2,False,False,41.58,1.63,70.7,r,22.5,180,1.0,8.91
258,0,20,46.11,2,2,False,False,43.06,1.48,70.7,r,22.5,180,1.0,8.92
259,0,20,55.05,2,2,False,False,44.4,1.34,70.7,r,22.5,180,1.0,8.94
260,0,20,64.0,2,2,False,False,45.59,1.19,70.7,r,22.5,180,1.0,8.95
261,0,21,2.28,2,2,True,False,46.65,1.06,70.7,r,22.5,180,1.0,8.98
262,0,21,11.26,2,2,False,False,47.59,0.94,70.7,r,22.5,180,1.0,8.98
263,0,21,20.25,2,2,False,False,48.4,0.81,70.7,r,22.5,180,1.0,8.99
264,0,21,29.25,2,2,False,False,49.1,0.7,70.7,r,22.5,180,1.0,9.0
265,0,21,38.27,2,2,False,False,49.7,0.6,70.7,r,22.5,180,1.0,9.02
266,0,21,47.3,2,2,False,False,50.2,0.5,70.7,r,22.5,180,1.0,9.03
267,0,21,56.35,2,2,False,False,50.61,0.41,70.7,r,22.5,180,1.0,9.05
268,0,21,65.41,2,2,False,False,50.94,0.33,70.7,r,22.5,180,1.0,9.06
269,0,22,3.79,2,2,True,False,51.2,0.26,100.0,n,,,1.0,9.08
270,0,22,12.87,2,2,False,False,50.86,-0.34,100.0,n,,,1.0,9.08
271,0,22,21.96,2,2,False,False,49.97,-0.89,100.0,n,,,0.88,9.09
272,0,22,31.04,2,2,False,False,48.61,-1.36,100.0,n,,,0.88,9.08
273,0,22,40.11,2,2,False,False,46.83,-1.78,100.0,n,,,0.88,9.07
274,0,22,49.17,2,2,False,False,44.69,-2.14,100.0,n,,,0.88,9.06
275,0,22,58.21,2,2,False,False,42.27,-2.42,100.0,n,,,0.88,9.04
276,0,22,67.24,2,2,False,False,39.6,-2.67,100.0,n,,,0.88,9.03
277,0,22,76.26,2,2,False,False,36.76,-2.84,100.0,n,,,0.88,9.02
278,0,22,85.28,2,2,False,False,33.79,-2.97,100.0,n,,,0.88,9.02
279,0,22,94.28,2,2,False,False,30.73,-3.06,100.0,n,,,0.88,9.0
280,0,23,3.27,2,2,True,True,27.64,-3.09,100.0,n,,,0.88,8.99
281,0,23,12.25,2,2,False,True,24.54,-3.1,100.0,n,,,0.88,8.98
282,0,23,21.22,2,2,False,True,21.48,-3.06,100.0,n,,,0.88,8.97
283,0,23,30.17,2,2,False,True,18.48,-3.0,100.0,n,,,0.88,8.95
284,0,23,39.13,2,2,False,True,15.57,-2.91,100.0,n,,,0.88,8.96
285,0,23,48.07,2,2,False,True,12.79,-2.78,100.0,n,,,0.88,8.94
286,0,23,57.0,2,2,False,True,10.13,-2.66,100.0,n,,,0.88,8.93
287,0,23,65.92,2,2,False,True,7.63,-2.5,100.0,n,,,0.88,8.92
288,0,23,74.83,2,2,False,True,5.3,-2.33,100.0,n,,,0.88,8.91
289,0,23,83.74,2,2,False,True,3.14,-2.16,100.0,n,,,0.88,8.91
290,0,23,92.63,2,2,False,True,1.16,-1.98,100.0,n,,,0.88,8.89
291,0,24,1.52,2,2,True,False,0.64,-0.52,70.7,r,22.5,180,0.88,8.89
292,0,24,10.4,2,2,False,False,1.78,1.14,70.7,r,22.5,180,0.88,8.88
293,0,24,19.27,2,2,False,False,2.31,0.53,70.7,r,22.5,180,0.88,8.87
294,0,24,28.14,2,2,False,False,2.31,0.0,70.7,r,22.5,180,0.88,8.87
295,0,24,37.0,2,2,False,False,1.82,-0.49,70.7,r,22.5,180,0.88,8.86
296,0,24,45.84,2,2,False,False,0.9,-0.92,70.7,r,22.5,180,0.88,8.84
297,0,24,54.69,2,2,False,False,0.39,-0.51,70.7,r,22.5,180,0.88,8.85
298,0,24,63.52,2,2,False,False,2.0,1.61,70.7,r,22.5,180,0.88,8.83
299,0,25,1.66,2,2,True,False,3.87,1.87,70.7,r,22.5,180,0.88,8.84
300,0,25,10.48,2,2,False,False,5.96,2.09,70.7,r,22.5,180,0.88,8.82
301,0,25,19.3,2,2,False,False,8.22,2.26,70.7,r,22.5,180,0.88,8.82
302,0,25,28.1,2,2,False,False,10.6,2.38,70.7,r,22.5,180,0.88,8.8
303,0,25,36.9,2,2,False,False,13.06,2.46,70.7,r,22.5,180,0.88,8.8
304,0,25,45.7,2,2,False,False,15.57,2.51,70.7,r,22.5,180,0.88,8.8
305,0,25,54.49,2,2,False,False,18.09,2.52,70.7,r,22.5,180,0.88,8.79
306,0,25,63.27,2,2,False,False,20.59,2.5,70.7,r,22.5,180,0.88,8.78
307,0,26,1.36,2,2,True,False,23.04,2.45,70.7,r,22.5,180,0.88,8.79
308,0,26,10.13,2,2,False,False,25.41,2.37,70.7,r,22.5,180,1.0,8.77
309,0,26,18.91,2,2,False,False,27.7,2.29,70.7,r,22.5,180,1.0,8.78
310,0,26,27.72,2,2,False,False,29.88,2.18,70.7,r,22.5,180,1.0,8.81
311,0,26,36.54,2,2,False,False,31.95,2.07,70.7,r,22.5,180,1.0,8.82
312,0,26,45.38,2,2,False,False,33.9,1.95,70.7,r,22.5,180,1.0,8.84
313,0,26,54.24,2,2,False,False,35.74,1.84,70.7,r,22.5,180,1.0,8.86
314,0,26,63.11,2,2,False,False,37.45,1.71,70.7,r,22.5,180,1.0,8.87
315,0,27,1.31,2,2,True,False,39.04,1.59,70.7,r,22.5,180,1.0,8.9
316,0,27,10.22,2,2,False,False,40.5,1.46,70.7,r,22.5,180,1.0,8.91
317,0,27,19.14,2,2,False,False,41.85,1.35,70.7,r,22.5,180,1.0,8.92
318,0,27,28.07,2,2,False,False,43.08,1.23,70.7,r,22.5,180,1.0,8.93
319,0,27,37.02,2,2,False,False,44.19,1.11,70.7,r,22.5,180,1.0,8.95
320,0,27,45.98,2,2,False,False,45.19,1.0,70.7,r,22.5,180,1.0,8.96
321,0,27,54.96,2,2,False,False,46.08,0.89,70.7,r,22.5,180,1.0,8.98
322,0,27,63.95,2,2,False,False,46.88,0.8,70.7,r,22.5,180,1.0,8.99
323,0,28,2.26,2,2,True,False,47.58,0.7,100.0,n,,,1.0,9.01
324,0,28,11.28,2,2,False,False,47.67,0.09,100.0,n,,,1.0,9.02
325,0,28,20.31,2,2,False,False,47.22,-0.45,100.0,n,,,1.0,9.03
326,0,28,29.35,2,2,False,False,46.28,-0.94,100.0,n,,,1.0,9.04
327,0,28,38.41,2,2,False,False,44.91,-1.37,100.0,n,,,1.0,9.06
328,0,28,47.48,2,2,False,False,43.17,-1.74,100.0,n,,,1.0,9.07
329,0,28,56.55,2,2,False,False,41.12,-2.05,100.0,n,,,1.0,9.07
330,0,28,65.64,2,2,False,False,38.8,-2.32,100.0,n,,,1.0,9.09
331,0,28,74.75,2,2,False,False,36.27,-2.53,100.0,n,,,1.0,9.11
332,0,28,83.86,2,2,False,False,33.59,-2.68,100.0,n,,,1.0,9.11
333,0,28,92.98,2,2,False,False,30.79,-2.8,100.0,n,,,1.0,9.12
334,0,29,2.12,2,2,True,False,27.92,-2.87,100.0,n,,,1.0,9.14
335,0,29,11.26,2,2,False,False,25.01,-2.91,100.0,n,,,1.0,9.14
336,0,29,20.42,2,2,False,False,22.11,-2.9,100.0,n,,,1.0,9.16
337,0,29,29.58,2,2,False,False,19.25,-2.86,100.0,n,,,1.0,9.16
338,0,29,38.76,2,2,False,False,16.46,-2.79,100.0,n,,,1.0,9.18
339,0,29,47.94,2,2,False,False,13.75,-2.71,100.0,n,,,1.0,9.18
340,0,29,57.14,2,2,False,False,11.16,-2.59,100.0,n,,,1.0,9.2
341,0,29,66.34,2,2,False,False,8.7,-2.46,100.0,n,,,1.0,9.2
342,0,29,75.55,2,2,False,False,6.38,-2.32,100.0,n,,,1.0,9.21
343,0,29,84.77,2,2,False,False,4.22,-2.16,100.0,n,,,1.0,9.22
344,0,29,94.0,2,2,False,False,2.23,-1.99,100.0,n,,,1.0,9.23
345,0,30,3.24,2,2,True,False,0.42,-1.81,100.0,n,,,1.0,9.24
346,0,30,12.49,2,2,False,False,1.22,0.8,100.0,n,,,1.0,9.25
347,0,30,21.75,2,2,False,False,2.69,1.47,100.0,n,,,1.0,9.26
348,0,30,31.01,2,2,False,False,3.97,1.28,100.0,n,,,1.0,9.26
349,0,30,40.28,2,2,False,False,5.08,1.11,100.0,n,,,1.0,9.27
350,0,30,49.56,2,2,False,False,6.02,0.94,100.0,n,,,1.0,9.28
351,0,30,58.84,2,2,False,False,6.8,0.78,100.0,n,,,1.0,9.28
352,0,30,68.14,2,2,False,False,7.42,0.62,100.0,n,,,1.0,9.3
353,0,30,77.44,2,2,False,False,7.89,0.47,100.0,n,,,1.0,9.3
354,0,30,86.75,2,2,False,False,8.22,0.33,100.0,n,,,1.0,9.31
355,0,30,96.06,2,2,False,False,8.43,0.21,100.0,n,,,1.0,9.31
356,0,31,5.38,2,2,True,False,8.51,0.08,100.0,n,,,1.0,9.32
357,0,31,14.71,2,2,False,False,8.49,-0.02,100.0,n,,,1.0,9.33
358,0,31,24.05,2,2,False,False,8.37,-0.12,100.0,n,,,1.0,9.34
359,0,31,33.39,2,2,False,False,8.17,-0.2,100.0,n,,,1.0,9.34
360,0,31,42.74,2,2,False,False,7.89,-0.28,100.0,n,,,1.0,9.35
361,0,31,52.09,2,2,False,False,7.54,-0.35,100.0,n,,,1.0,9.35
362,0,31,61.45,2,2,False,False,7.14,-0.4,100.0,n,,,1.0,9.36
363,0,31,70.81,2,2,False,False,6.7,-0.44,100.0,n,,,1.0,9.36
364,0,31,80.19,2,2,False,False,6.23,-0.47,100.0,n,,,1.0,9.38
365,0,31,89.56,2,2,False,False,5.73,-0.5,100.0,n,,,1.0,9.37
366,0,31,98.95,2,2,False,False,5.21,-0.52,100.0,n,,,1.0,9.39
367,1,0,8.33,2,2,True,False,4.68,-0.53,100.0,n,,,1.0,9.38
368,1,0,17.73,2,2,False,False,4.15,-0.53,100.0,n,,,1.0,9.4
369,1,0,27.12,2,2,False,False,3.63,-0.52,100.0,n,,,0.88,9.39
370,1,0,36.5,2,2,False,False,3.11,-0.52,100.0,n,,,0.88,9.38
371,1,0,45.87,2,2,False,False,2.61,-0.5,100.0,n,,,0.88,9.37
372,1,0,55.21,2,2,False,False,2.13,-0.48,100.0,n,,,0.88,9.34
373,1,0,64.54,2,2,False,False,1.67,-0.46,100.0,n,,,0.88,9.33
374,1,0,73.84,2,2,False,False,1.24,-0.43,100.0,n,,,0.88,9.3
375,1,0,83.14,2,2,False,False,0.84,-0.4,100.0,n,,,0.88,9.3
376,1,0,92.41,2,2,False,False,0.47,-0.37,100.0,n,,,0.88,9.27
377,1,1,1.67,2,2,True,True,0.12,-0.35,100.0,n,,,0.88,9.26
378,1,1,10.92,2,2,False,True,0.18,0.06,100.0,n,,,0.88,9.25
379,1,1,20.15,2,2,False,True,0.46,0.28,100.0,n,,,0.88,9.23
380,1,1,29.36,2,2,False,True,0.7,0.24,100.0,n,,,0.88,9.21
381,1,1,38.56,2,2,False,True,0.91,0.21,100.0,n,,,0.88,9.2
382,1,1,47.74,2,2,False,True,1.09,0.18,100.0,n,,,0.88,9.18
383,1,1,56.91,2,2,False,True,1.24,0.15,100.0,n,,,0.88,9.17
384,1,1,66.07,2,2,False,True,1.35,0.11,100.0,n,,,0.88,9.16
385,1,1,75.21,2,2,False,True,1.45,0.1,100.0,n,,,0.88,9.14
386,1,1,84.34,2,2,False,True,1.51,0.06,100.0,n,,,0.88,9.13
387,1,1,93.45,2,2,False,True,1.55,0.04,100.0,n,,,0.88,9.11
388,1,2,2.56,2,2,True,False,1.57,0.02,70.7,r,22.5,180,0.88,9.11
389,1,2,11.65,2,2,False,False,2.13,0.56,70.7,r,22.5,180,0.88,9.09
390,1,2,20.73,2,2,False,False,3.17,1.04,70.7,r,22.5,180,0.88,9.08
391,1,2,29.79,2,2,False,False,4.61,1.44,70.7,r,22.5,180,0.88,9.06
392,1,2,38.85,2,2,False,False,6.4,1.79,70.7,r,22.5,180,0.88,9.06
393,1,2,47.89,2,2,False,False,8.47,2.07,70.7,r,22.5,180,0.88,9.04
394,1,2,56.92,2,2,False,False,10.78,2.31,70.7,r,22.5,180,0.88,9.03
395,1,2,65.94,2,2,False,False,13.27,2.49,70.7,r,22.5,180,0.88,9.02
396,1,3,4.27,2,2,True,False,15.87,2.6,70.7,r,22.5,180,0.88,9.03
397,1,3,13.27,2,2,False,False,18.56,2.69,70.7,r,22.5,180,0.88,9.0
398,1,3,22.25,2,2,False,False,21.29,2.73,70.7,r,22.5,180,0.88,8.98
399,1,3,31.23,2,2,False,False,24.02,2.73,70.7,r,22.5,180,0.88,8.98
400,1,3,40.2,2,2,False,False,26.71,2.69,70.7,r,22.5,180,0.88,8.97
401,1,3,49.16,2,2,False,False,29.34,2.63,70.7,r,22.5,180,0.88,8.96
402,1,3,58.11,2,2,False,False,31.87,2.53,70.7,r,22.5,180,0.88,8.95
403,1,3,67.05,2,2,False,False,34.29,2.42,70.7,r,22.5,180,0.88,8.94
404,1,4,5.29,2,2,True,False,36.57,2.28,70.7,r,22.5,180,0.88,8.94
405,1,4,14.21,2,2,False,False,38.71,2.14,70.7,r,22.5,180,1.0,8.92
406,1,4,23.15,2,2,False,False,40.68,1.97,70.7,r,22.5,180,1.0,8.94
407,1,4,32.1,2,2,False,False,42.49,1.81,70.7,r,22.5,180,1.0,8.95
408,1,4,41.06,2,2,False,False,44.14,1.65,70.7,r,22.5,180,1.0,8.96
409,1,4,50.04,2,2,False,False,45.63,1.49,70.7,r,22.5,180,1.0,8.98
410,1,4,59.04,2,2,False,False,46.97,1.34,70.7,r,22.5,180,1.0,9.0
411,1,4,68.04,2,2,False,False,48.16,1.19,70.7,r,22.5,180,1.0,9.0
412,1,5,6.38,2,2,True,False,49.2,1.04,70.7,r,22.5,180,1.0,9.04
413,1,5,15.41,2,2,False,False,50.11,0.91,70.7,r,22.5,180,1.0,9.03
414,1,5,24.45,2,2,False,False,50.9,0.79,70.7,r,22.5,180,1.0,9.04
415,1,5,33.51,2,2,False,False,51.56,0.66,70.7,r,22.5,180,1.0,9.06
416,1,5,42.58,2,2,False,False,52.11,0.55,70.7,r,22.5,180,1.0,9.07
417,1,5,51.66,2,2,False,False,52.56,0.45,70.7,r,22.5,180,1.0,9.08
418,1,5,60.75,2,2,False,False,52.92,0.36,70.7,r,22.5,180,1.0,9.09
419,1,5,69.85,2,2,False,False,53.2,0.28,70.7,r,22.5,180,1.0,9.1
420,1,6,8.28,2,2,True,False,53.4,0.2,100.0,n,,,1.0,9.13
421,1,6,17.41,2,2,False,False,52.98,-0.42,100.0,n,,,1.0,9.13
422,1,6,26.54,2,2,False,False,51.99,-0.99,100.0,n,,,0.88,9.13
423,1,6,35.67,2,2,False,False,50.51,-1.48,100.0,n,,,0.88,9.13
424,1,6,44.78,2,2,False,False,48.6,-1.91,100.0,n,,,0.88,9.11
425,1,6,53.87,2,2,False,False,46.32,-2.28,100.0,n,,,0.88,9.09
426,1,6,62.96,2,2,False,False,43.75,-2.57,100.0,n,,,0.88,9.09
427,1,6,72.03,2,2,False,False,40.94,-2.81,100.0,n,,,0.88,9.07
428,1,6,81.09,2,2,False,False,37.94,-3.0,100.0,n,,,0.88,9.06
429,1,6,90.14,2,2,False,False,34.82,-3.12,100.0,n,,,0.88,9.05
430,1,6,99.18,2,2,False,False,31.61,-3.21,100.0,n,,,0.88,9.04
431,1,7,8.21,2,2,True,True,28.37,-3.24,100.0,n,,,0.88,9.03
432,1,7,17.22,2,2,False,True,25.13,-3.24,100.0,n,,,0.88,9.01
433,1,7,26.23,2,2,False,True,21.93,-3.2,100.0,n,,,0.88,9.01
434,1,7,35.22,2,2,False,True,18.81,-3.12,100.0,n,,,0.88,8.99
435,1,7,44.2,2,2,False,True,15.78,-3.03,100.0,n,,,0.88,8.98
436,1,7,53.18,2,2,False,True,12.88,-2.9,100.0,n,,,0.88,8.98
437,1,7,62.14,2,2,False,True,10.13,-2.75,100.0,n,,,0.88,8.96
438,1,7,71.1,2,2,False,True,7.54,-2.59,100.0,n,,,0.88,8.96
439,1,7,80.04,2,2,False,True,5.12,-2.42,100.0,n,,,0.88,8.94
440,1,7,88.98,2,2,False,True,2.89,-2.23,100.0,n,,,0.88,8.94
441,1,7,97.9,2,2,False,True,0.85,-2.04,100.0,n,,,0.88,8.92
442,1,8,6.82,2,2,True,False,1.0,0.15,70.7,r,22.5,180,0.88,8.92
443,1,8,15.73,2,2,False,False,2.17,1.17,70.7,r,22.5,180,0.88,8.91
444,1,8,24.63,2,2,False,False,2.72,0.55,70.7,r,22.5,180,0.88,8.9
445,1,8,33.52,2,2,False,False,2.71,-0.01,70.7,r,22.5,180,0.88,8.89
446,1,8,42.4,2,2,False,False,2.2,-0.51,70.7,r,22.5,180,0.88,8.88
447,1,8,51.28,2,2,False,False,1.25,-0.95,70.7,r,22.5,180,0.88,8.88
448,1,8,60.15,2,2,False,False,0.09,-1.16,70.7,r,22.5,180,0.88,8.87
449,1,8,69.0,2,2,False,False,1.75,1.66,70.7,r,22.5,180,0.88,8.85
450,1,9,7.17,2,2,True,False,3.69,1.94,70.7,r,22.5,180,0.88,8.87
451,1,9,16.02,2,2,False,False,5.84,2.15,70.7,r,22.5,180,0.88,8.85
452,1,9,24.85,2,2,False,False,8.17,2.33,70.7,r,22.5,180,0.88,8.83
453,1,9,33.68,2,2,False,False,10.63,2.46,70.7,r,22.5,180,0.88,8.83
454,1,9,42.51,2,2,False,False,13.17,2.54,70.7,r,22.5,180,0.88,8.83
455,1,9,51.32,2,2,False,False,15.75,2.58,70.7,r,22.5,180,0.88,8.81
456,1,9,60.13,2,2,False,False,18.34,2.59,70.7,r,22.5,180,0.88,8.81
457,1,9,68.94,2,2,False,False,20.91,2.57,70.7,r,22.5,180,0.88,8.81
458,1,10,7.05,2,2,True,False,23.43,2.52,70.7,r,22.5,180,0.88,8.81
459,1,10,15.84,2,2,False,False,25.87,2.44,70.7,r,22.5,180,1.0,8.79
460,1,10,24.65,2,2,False,False,28.22,2.35,70.7,r,22.5,180,1.0,8.81
461,1,10,33.47,2,2,False,False,30.45,2.23,70.7,r,22.5,180,1.0,8.82
462,1,10,42.31,2,2,False,False,32.58,2.13,70.7,r,22.5,180,1.0,8.84
463,1,10,51.17,2,2,False,False,34.58,2.0,70.7,r,22.5,180,1.0,8.86
464,1,10,60.05,2,2,False,False,36.45,1.87,70.7,r,22.5,180,1.0,8.88
465,1,10,68.94,2,2,False,False,38.2,1.75,70.7,r,22.5,180,1.0,8.89
466,1,11,7.16,2,2,True,False,39.82,1.62,70.7,r,22.5,180,1.0,8.92
467,1,11,16.08,2,2,False,False,41.31,1.49,70.7,r,22.5,180,1.0,8.92
468,1,11,25.01,2,2,False,False,42.68,1.37,70.7,r,22.5,180,1.0,8.93
469,1,11,33.96,2,2,False,False,43.92,1.24,70.7,r,22.5,180,1.0,8.95
470,1,11,42.93,2,2,False,False,45.04,1.12,70.7,r,22.5,180,1.0,8.97
471,1,11,51.91,2,2,False,False,46.05,1.01,70.7,r,22.5,180,1.0,8.98
472,1,11,60.9,2,2,False,False,46.94,0.89,70.7,r,22.5,180,1.0,8.99
473,1,11,69.9,2,2,False,False,47.73,0.79,70.7,r,22.5,180,1.0,9.0
474,1,12,8.24,2,2,True,False,48.43,0.7,100.0,n,,,1.0,9.04
475,1,12,17.27,2,2,False,False,48.5,0.07,100.0,n,,,1.0,9.03
476,1,12,26.31,2,2,False,False,48.03,-0.47,100.0,n,,,1.0,9.04
477,1,12,35.37,2,2,False,False,47.05,-0.98,100.0,n,,,1.0,9.06
478,1,12,44.44,2,2,False,False,45.64,-1.41,100.0,n,,,1.0,9.07
479,1,12,53.52,2,2,False,False,43.86,-1.78,100.0,n,,,1.0,9.08
480,1,12,62.61,2,2,False,False,41.76,-2.1,100.0,n,,,1.0,9.09
481,1,12,71.71,2,2,False,False,39.39,-2.37,100.0,n,,,1.0,9.1
482,1,12,80.83,2,2,False,False,36.81,-2.58,100.0,n,,,1.0,9.12
483,1,12,89.95,2,2,False,False,34.07,-2.74,100.0,n,,,1.0,9.12
484,1,12,99.09,2,2,False,False,31.21,-2.86,100.0,n,,,1.0,9.14
485,1,13,8.24,2,2,True,False,28.28,-2.93,100.0,n,,,1.0,9.15
486,1,13,17.39,2,2,False,False,25.33,-2.95,100.0,n,,,1.0,9.15
487,1,13,26.56,2,2,False,False,22.38,-2.95,100.0,n,,,1.0,9.17
488,1,13,35.74,2,2,False,False,19.46,-2.92,100.0,n,,,1.0,9.18
489,1,13,44.92,2,2,False,False,16.62,-2.84,100.0,n,,,1.0,9.18
490,1,13,54.12,2,2,False,False,13.87,-2.75,100.0,n,,,1.0,9.2
491,1,13,63.32,2,2,False,False,11.23,-2.64,100.0,n,,,1.0,9.2
492,1,13,72.54,2,2,False,False,8.73,-2.5,100.0,n,,,1.0,9.22
493,1,13,81.76,2,2,False,False,6.38,-2.35,100.0,n,,,1.0,9.22
494,1,13,90.99,2,2,False,False,4.19,-2.19,100.0,n,,,1.0,9.23
495,1,14,0.23,2,2,True,False,2.17,-2.02,100.0,n,,,1.0,9.24
496,1,14,9.48,2,2,False,False,0.33,-1.84,100.0,n,,,1.0,9.25
497,1,14,18.73,2,2,False,False,1.33,1.0,100.0,n,,,1.0,9.25
498,1,14,28.0,2,2,False,False,2.81,1.48,100.0,n,,,1.0,9.27
499,1,14,37.27,2,2,False,False,4.11,1.3,100.0,n,,,1.0,9.27
500,1,14,46.55,2,2,False,False,5.24,1.13,100.0,n,,,1.0,9.28
501,1,14,55.84,2,2,False,False,6.18,0.94,100.0,n,,,1.0,9.29
502,1,14,65.13,2,2,False,False,6.97,0.79,100.0,n,,,1.0,9.29
503,1,14,74.44,2,2,False,False,7.59,0.62,100.0,n,,,1.0,9.31
504,1,14,83.74,2,2,False,False,8.06,0.47,100.0,n,,,1.0,9.3
505,1,14,93.06,2,2,False,False,8.39,0.33,100.0,n,,,1.0,9.32
506,1,15,2.38,2,2,True,False,8.6,0.21,100.0,n,,,1.0,9.32
507,1,15,11.71,2,2,False,False,8.68,0.08,100.0,n,,,1.0,9.33
508,1,15,21.05,2,2,False,False,8.65,-0.03,100.0,n,,,1.0,9.34
509,1,15,30.39,2,2,False,False,8.52,-0.13,100.0,n,,,1.0,9.34
510,1,15,39.74,2,2,False,False,8.31,-0.21,100.0,n,,,1.0,9.35
511,1,15,49.09,2,2,False,False,8.02,-0.29,100.0,n,,,1.0,9.35
512,1,15,58.45,2,2,False,False,7.66,-0.36,100.0,n,,,1.0,9.36
513,1,15,67.82,2,2,False,False,7.25,-0.41,100.0,n,,,1.0,9.37
514,1,15,77.19,2,2,False,False,6.8,-0.45,100.0,n,,,1.0,9.37
515,1,15,86.57,2,2,False,False,6.31,-0.49,100.0,n,,,1.0,9.38
516,1,15,95.95,2,2,False,False,5.8,-0.51,100.0,n,,,1.0,9.38
517,1,16,5.34,2,2,True,False,5.27,-0.53,100.0,n,,,1.0,9.39
518,1,16,14.74,2,2,False,False,4.74,-0.53,100.0,n,,,1.0,9.4
519,1,16,24.13,2,2,False,False,4.2,-0.54,100.0,n,,,0.88,9.39
520,1,16,33.51,2,2,False,False,3.66,-0.54,100.0,n,,,0.88,9.38
521,1,16,42.88,2,2,False,False,3.14,-0.52,100.0,n,,,0.88,9.37
522,1,16,52.22,2,2,False,False,2.63,-0.51,100.0,n,,,0.88,9.34
523,1,16,61.55,2,2,False,False,2.14,-0.49,100.0,n,,,0.88,9.33
524,1,16,70.86,2,2,False,False,1.67,-0.47,100.0,n,,,0.88,9.31
525,1,16,80.15,2,2,False,False,1.24,-0.43,100.0,n,,,0.88,9.29
526,1,16,89.43,2,2,False,False,0.83,-0.41,100.0,n,,,0.88,9.28
527,1,16,98.69,2,2,False,False,0.45,-0.38,100.0,n,,,0.88,9.26
528,1,17,7.93,2,2,True,True,0.11,-0.34,100.0,n,,,0.88,9.24
529,1,17,17.16,2,2,False,True,0.21,0.1,100.0,n,,,0.88,9.23
530,1,17,26.38,2,2,False,True,0.48,0.27,100.0,n,,,0.88,9.22
531,1,17,35.57,2,2,False,True,0.73,0.25,100.0,n,,,0.88,9.19
532,1,17,44.76,2,2,False,True,0.94,0.21,100.0,n,,,0.88,9.19
533,1,17,53.93,2,2,False,True,1.12,0.18,100.0,n,,,0.88,9.17
534,1,17,63.09,2,2,False,True,1.27,0.15,100.0,n,,,0.88,9.16
535,1,17,72.23,2,2,False,True,1.39,0.12,100.0,n,,,0.88,9.14
536,1,17,81.36,2,2,False,True,1.48,0.09,100.0,n,,,0.88,9.13
537,1,17,90.48,2,2,False,True,1.54,0.06,100.0,n,,,0.88,9.12
538,1,17,99.58,2,2,False,True,1.59,0.05,100.0,n,,,0.88,9.1
539,1,18,8.67,2,2,True,False,1.61,0.02,70.7,r,22.5,180,0.88,9.09
540,1,18,17.75,2,2,False,False,2.16,0.55,70.7,r,22.5,180,0.88,9.08
541,1,18,26.82,2,2,False,False,3.18,1.02,70.7,r,22.5,180,0.88,9.07
542,1,18,35.87,2,2,False,False,4.61,1.43,70.7,r,22.5,180,0.88,9.05
543,1,18,44.91,2,2,False,False,6.38,1.77,70.7,r,22.5,180,0.88,9.04
544,1,18,53.95,2,2,False,False,8.44,2.06,70.7,r,22.5,180,0.88,9.04
545,1,18,62.97,2,2,False,False,10.72,2.28,70.7,r,22.5,180,0.88,9.02
546,1,19,1.29,2,2,True,False,13.18,2.46,70.7,r,22.5,180,0.88,9.02
547,1,19,10.29,2,2,False,False,15.76,2.58,70.7,r,22.5,180,0.88,9.0
548,1,19,19.28,2,2,False,False,18.43,2.67,70.7,r,22.5,180,0.88,8.99
549,1,19,28.26,2,2,False,False,21.13,2.7,70.7,r,22.5,180,0.88,8.98
550,1,19,37.23,2,2,False,False,23.83,2.7,70.7,r,22.5,180,0.88,8.97
551,1,19,46.19,2,2,False,False,26.5,2.67,70.7,r,22.5,180,0.88,8.96
552,1,19,55.14,2,2,False,False,29.11,2.61,70.7,r,22.5,180,0.88,8.95
553,1,19,64.08,2,2,False,False,31.62,2.51,70.7,r,22.5,180,0.88,8.94
554,1,20,2.32,2,2,True,False,34.02,2.4,70.7,r,22.5,180,0.88,8.94
555,1,20,11.24,2,2,False,False,36.28,2.26,70.7,r,22.5,180,1.0,8.92
556,1,20,20.18,2,2,False,False,38.4,2.12,70.7,r,22.5,180,1.0,8.94
557,1,20,29.13,2,2,False,False,40.37,1.97,70.7,r,22.5,180,1.0,8.95
558,1,20,38.09,2,2,False,False,42.18,1.81,70.7,r,22.5,180,1.0,8.96
559,1,20,47.07,2,2,False,False,43.85,1.67,70.7,r,22.5,180,1.0,8.98
560,1,20,56.07,2,2,False,False,45.36,1.51,70.7,r,22.5,180,1.0,9.0
561,1,20,65.07,2,2,False,False,46.72,1.36,70.7,r,22.5,180,1.0,9.0
562,1,21,3.41,2,2,True,False,47.94,1.22,70.7,r,22.5,180,1.0,9.04
563,1,21,12.44,2,2,False,False,49.02,1.08,70.7,r,22.5,180,1.0,9.03
564,1,21,21.48,2,2,False,False,49.97,0.95,70.7,r,22.5,180,1.0,9.04
565,1,21,30.54,2,2,False,False,50.79,0.82,70.7,r,22.5,180,1.0,9.06
566,1,21,39.61,2,2,False,False,51.5,0.71,70.7,r,22.5,180,1.0,9.07
567,1,21,48.69,2,2,False,False,52.09,0.59,70.7,r,22.5,180,1.0,9.08
568,1,21,57.78,2,2,False,False,52.59,0.5,70.7,r,22.5,180,1.0,9.09
569,1,21,66.89,2,2,False,False,52.99,0.4,70.7,r,22.5,180,1.0,9.11
570,1,22,5.32,2,2,True,False,53.31,0.32,100.0,n,,,1.0,9.13
571,1,22,14.44,2,2,False,False,52.99,-0.32,100.0,n,,,1.0,9.12
572,1,22,23.58,2,2,False,False,52.09,-0.9,100.0,n,,,0.88,9.14
573,1,22,32.7,2,2,False,False,50.69,-1.4,100.0,n,,,0.88,9.12
574,1,22,41.81,2,2,False,False,48.86,-1.83,100.0,n,,,0.88,9.11
575,1,22,50.91,2,2,False,False,46.65,-2.21,100.0,n,,,0.88,9.1
576,1,22,59.99,2,2,False,False,44.13,-2.52,100.0,n,,,0.88,9.08
577,1,22,69.07,2,2,False,False,41.36,-2.77,100.0,n,,,0.88,9.08
578,1,22,78.13,2,2,False,False,38.4,-2.96,100.0,n,,,0.88,9.06
579,1,22,87.18,2,2,False,False,35.3,-3.1,100.0,n,,,0.88,9.05
580,1,22,96.22,2,2,False,False,32.11,-3.19,100.0,n,,,0.88,9.04
581,1,23,5.24,2,2,True,True,28.88,-3.23,100.0,n,,,0.88,9.02
582,1,23,14.26,2,2,False,True,25.64,-3.24,100.0,n,,,0.88,9.02
583,1,23,23.26,2,2,False,True,22.44,-3.2,100.0,n,,,0.88,9.0
584,1,23,32.26,2,2,False,True,19.31,-3.13,100.0,n,,,0.88,9.0
585,1,23,41.24,2,2,False,True,16.27,-3.04,100.0,n,,,0.88,8.98
586,1,23,50.21,2,2,False,True,13.35,-2.92,100.0,n,,,0.88,8.97
587,1,23,59.18,2,2,False,True,10.58,-2.77,100.0,n,,,0.88,8.97
588,1,23,68.13,2,2,False,True,7.97,-2.61,100.0,n,,,0.88,8.95
589,1,23,77.08,2,2,False,True,5.52,-2.45,100.0,n,,,0.88,8.95
590,1,23,86.01,2,2,False,True,3.26,-2.26,100.0,n,,,0.88,8.93
591,1,23,94.94,2,2,False,True,1.19,-2.07,100.0,n,,,0.88,8.93
592,1,24,3.86,2,2,True,False,0.69,-0.5,70.7,r,22.5,180,0.88,8.92
593,1,24,12.77,2,2,False,False,1.89,1.2,70.7,r,22.5,180,0.88,8.91
594,1,24,21.67,2,2,False,False,2.47,0.58,70.7,r,22.5,180,0.88,8.9
595,1,24,30.56,2,2,False,False,2.49,0.02,70.7,r,22.5,180,0.88,8.89
596,1,24,39.44,2,2,False,False,2.01,-0.48,70.7,r,22.5,180,0.88,8.88
597,1,24,48.32,2,2,False,False,1.08,-0.93,70.7,r,22.5,180,0.88,8.88
598,1,24,57.18,2,2,False,False,0.23,-0.85,70.7,r,22.5,180,0.88,8.86
599,1,24,66.04,2,2,False,False,1.86,1.63,70.7,r,22.5,180,0.88,8.86
600,1,25,4.21,2,2,True,False,3.77,1.91,70.7,r,22.5,180,0.88,8.87
601,1,25,13.05,2,2,False,False,5.9,2.13,70.7,r,22.5,180,0.88,8.84
602,1,25,21.89,2,2,False,False,8.21,2.31,70.7,r,22.5,180,0.88,8.84
603,1,25,30.72,2,2,False,False,10.65,2.44,70.7,r,22.5,180,0.88,8.83
604,1,25,39.55,2,2,False,False,13.17,2.52,70.7,r,22.5,180,0.88,8.83
605,1,25,48.36,2,2,False,False,15.73,2.56,70.7,r,22.5,180,0.88,8.81
606,1,25,57.17,2,2,False,False,18.31,2.58,70.7,r,22.5,180,0.88,8.81
607,1,25,65.98,2,2,False,False,20.87,2.56,70.7,r,22.5,180,0.88,8.81
608,1,26,4.09,2,2,True,False,23.38,2.51,70.7,r,22.5,180,0.88,8.81
609,1,26,12.88,2,2,False,False,25.81,2.43,70.7,r,22.5,180,1.0,8.79
610,1,26,21.69,2,2,False,False,28.15,2.34,70.7,r,22.5,180,1.0,8.81
611,1,26,30.51,2,2,False,False,30.38,2.23,70.7,r,22.5,180,1.0,8.82
612,1,26,39.35,2,2,False,False,32.5,2.12,70.7,r,22.5,180,1.0,8.84
613,1,26,48.21,2,2,False,False,34.49,1.99,70.7,r,22.5,180,1.0,8.86
614,1,26,57.09,2,2,False,False,36.37,1.88,70.7,r,22.5,180,1.0,8.88
615,1,26,65.98,2,2,False,False,38.12,1.75,70.7,r,22.5,180,1.0,8.89
616,1,27,4.2,2,2,True,False,39.74,1.62,70.7,r,22.5,180,1.0,8.92
617,1,27,13.12,2,2,False,False,41.23,1.49,70.7,r,22.5,180,1.0,8.92
618,1,27,22.05,2,2,False,False,42.6,1.37,70.7,r,22.5,180,1.0,8.93
619,1,27,31.0,2,2,False,False,43.84,1.24,70.7,r,22.5,180,1.0,8.95
620,1,27,39.97,2,2,False,False,44.97,1.13,70.7,r,22.5,180,1.0,8.97
621,1,27,48.95,2,2,False,False,45.98,1.01,70.7,r,22.5,180,1.0,8.98
622,1,27,57.94,2,2,False,False,46.88,0.9,70.7,r,22.5,180,1.0,8.99
623,1,27,66.95,2,2,False,False,47.67,0.79,70.7,r,22.5,180,1.0,9.01
624,1,28,5.28,2,2,True,False,48.37,0.7,100.0,n,,,1.0,9.03
625,1,28,14.31,2,2,False,False,48.45,0.08,100.0,n,,,1.0,9.03
626,1,28,23.35,2,2,False,False,47.98,-0.47,100.0,n,,,1.0,9.04
627,1,28,32.41,2,2,False,False,47.01,-0.97,100.0,n,,,1.0,9.06
628,1,28,41.48,2,2,False,False,45.61,-1.4,100.0,n,,,1.0,9.07
629,1,28,50.56,2,2,False,False,43.83,-1.78,100.0,n,,,1.0,9.08
630,1,28,59.65,2,2,False,False,41.73,-2.1,100.0,n,,,1.0,9.09
631,1,28,68.76,2,2,False,False,39.37,-2.36,100.0,n,,,1.0,9.11
632,1,28,77.87,2,2,False,False,36.79,-2.58,100.0,n,,,1.0,9.11
633,1,28,87.0,2,2,False,False,34.05,-2.74,100.0,n,,,1.0,9.13
634,1,28,96.13,2,2,False,False,31.2,-2.85,100.0,n,,,1.0,9.13
635,1,29,5.28,2,2,True,False,28.28,-2.92,100.0,n,,,1.0,9.15
636,1,29,14.43,2,2,False,False,25.33,-2.95,100.0,n,,,1.0,9.15
637,1,29,23.6,2,2,False,False,22.38,-2.95,100.0,n,,,1.0,9.17
638,1,29,32.78,2,2,False,False,19.47,-2.91,100.0,n,,,1.0,9.18
639,1,29,41.96,2,2,False,False,16.62,-2.85,100.0,n,,,1.0,9.18
640,1,29,51.16,2,2,False,False,13.88,-2.74,100.0,n,,,1.0,9.2
641,1,29,60.36,2,2,False,False,11.24,-2.64,100.0,n,,,1.0,9.2
642,1,29,69.58,2,2,False,False,8.74,-2.5,100.0,n,,,1.0,9.22
643,1,29,78.8,2,2,False,False,6.39,-2.35,100.0,n,,,1.0,9.22
644,1,29,88.03,2,2,False,False,4.2,-2.19,100.0,n,,,1.0,9.23
645,1,29,97.27,2,2,False,False,2.18,-2.02,100.0,n,,,1.0,9.24
646,1,30,6.52,2,2,True,False,0.34,-1.84,100.0,n,,,1.0,9.25
647,1,30,15.78,2,2,False,False,1.32,0.98,100.0,n,,,1.0,9.26
648,1,30,25.04,2,2,False,False,2.8,1.48,100.0,n,,,1.0,9.26
649,1,30,34.31,2,2,False,False,4.1,1.3,100.0,n,,,1.0,9.27
650,1,30,43.59,2,2,False,False,5.22,1.12,100.0,n,,,1.0,9.28
651,1,30,52.88,2,2,False,False,6.17,0.95,100.0,n,,,1.0,9.29
652,1,30,62.18,2,2,False,False,6.95,0.78,100.0,n,,,1.0,9.3
653,1,30,71.48,2,2,False,False,7.58,0.63,100.0,n,,,1.0,9.3
654,1,30,80.79,2,2,False,False,8.05,0.47,100.0,n,,,1.0,9.31
655,1,30,90.1,2,2,False,False,8.38,0.33,100.0,n,,,1.0,9.31
656,1,30,99.43,2,2,False,False,8.58,0.2,100.0,n,,,1.0,9.33
657,1,31,8.76,2,2,True,False,8.67,0.09,100.0,n,,,1.0,9.33
658,1,31,18.09,2,2,False,False,8.64,-0.03,100.0,n,,,1.0,9.33
659,1,31,27.43,2,2,False,False,8.51,-0.13,100.0,n,,,1.0,9.34
660,1,31,36.78,2,2,False,False,8.3,-0.21,100.0,n,,,1.0,9.35
661,1,31,46.14,2,2,False,False,8.01,-0.29,100.0,n,,,1.0,9.36
662,1,31,55.5,2,2,False,False,7.66,-0.35,100.0,n,,,1.0,9.36
663,1,31,64.86,2,2,False,False,7.25,-0.41,100.0,n,,,1.0,9.36
664,1,31,74.24,2,2,False,False,6.8,-0.45,100.0,n,,,1.0,9.38
665,1,31,83.61,2,2,False,False,6.31,-0.49,100.0,n,,,1.0,9.37
666,1,31,93.0,2,2,False,False,5.8,-0.51,100.0,n,,,1.0,9.39
667,2,0,2.39,2,2,True,False,5.27,-0.53,100.0,n,,,1.0,9.39
668,2,0,11.78,2,2,False,False,4.74,-0.53,100.0,n,,,1.0,9.39
669,2,0,21.18,2,2,False,False,4.2,-0.54,100.0,n,,,0.88,9.4
670,2,0,30.56,2,2,False,False,3.66,-0.54,100.0,n,,,0.88,9.38
671,2,0,39.92,2,2,False,False,3.14,-0.52,100.0,n,,,0.88,9.36
672,2,0,49.27,2,2,False,False,2.63,-0.51,100.0,n,,,0.88,9.35
673,2,0,58.59,2,2,False,False,2.14,-0.49,100.0,n,,,0.88,9.32
674,2,0,67.9,2,2,False,False,1.68,-0.46,100.0,n,,,0.88,9.31
675,2,0,77.19,2,2,False,False,1.24,-0.44,100.0,n,,,0.88,9.29
676,2,0,86.47,2,2,False,False,0.83,-0.41,100.0,n,,,0.88,9.28
677,2,0,95.73,2,2,False,False,0.45,-0.38,100.0,n,,,0.88,9.26
678,2,1,4.98,2,2,True,True,0.11,-0.34,100.0,n,,,0.88,9.25
679,2,1,14.21,2,2,False,True,0.2,0.09,100.0,n,,,0.88,9.23
680,2,1,23.42,2,2,False,True,0.48,0.28,100.0,n,,,0.88,9.21
681,2,1,32.62,2,2,False,True,0.72,0.24,100.0,n,,,0.88,9.2
682,2,1,41.8,2,2,False,True,0.94,0.22,100.0,n,,,0.88,9.18
683,2,1,50.97,2,2,False,True,1.12,0.18,100.0,n,,,0.88,9.17
684,2,1,60.13,2,2,False,True,1.27,0.15,100.0,n,,,0.88,9.16
685,2,1,69.27,2,2,False,True,1.39,0.12,100.0,n,,,0.88,9.14
686,2,1,78.4,2,2,False,True,1.48,0.09,100.0,n,,,0.88,9.13
687,2,1,87.52,2,2,False,True,1.54,0.06,100.0,n,,,0.88,9.12
688,2,1,96.62,2,2,False,True,1.58,0.04,100.0,n,,,0.88,9.1
689,2,2,5.71,2,2,True,False,1.6,0.02,70.7,r,22.5,180,0.88,9.09
690,2,2,14.79,2,2,False,False,2.16,0.56,70.7,r,22.5,180,0.88,9.08
691,2,2,23.86,2,2,False,False,3.18,1.02,70.7,r,22.5,180,0.88,9.07
692,2,2,32.92,2,2,False,False,4.61,1.43,70.7,r,22.5,180,0.88,9.06
693,2,2,41.96,2,2,False,False,6.38,1.77,70.7,r,22.5,180,0.88,9.04
694,2,2,50.99,2,2,False,False,8.43,2.05,70.7,r,22.5,180,0.88,9.03
695,2,2,60.01,2,2,False,False,10.72,2.29,70.7,r,22.5,180,0.88,9.02
696,2,2,69.02,2,2,False,False,13.18,2.46,70.7,r,22.5,180,0.88,9.01
697,2,3,7.34,2,2,True,False,15.76,2.58,70.7,r,22.5,180,0.88,9.02
698,2,3,16.32,2,2,False,False,18.43,2.67,70.7,r,22.5,180,0.88,8.98
699,2,3,25.3,2,2,False,False,21.13,2.7,70.7,r,22.5,180,0.88,8.98
700,2,3,34.27,2,2,False,False,23.84,2.71,70.7,r,22.5,180,0.88,8.97
701,2,3,43.23,2,2,False,False,26.5,2.66,70.7,r,22.5,180,0.88,8.96
702,2,3,52.18,2,2,False,False,29.11,2.61,70.7,r,22.5,180,0.88,8.95
703,2,3,61.12,2,2,False,False,31.62,2.51,70.7,r,22.5,180,0.88,8.94
704,2,3,70.05,2,2,False,False,34.02,2.4,70.7,r,22.5,180,0.88,8.93
705,2,4,8.29,2,2,True,False,36.28,2.26,70.7,r,22.5,180,0.88,8.94
706,2,4,17.2,2,2,False,False,38.4,2.12,70.7,r,22.5,180,1.0,8.91
707,2,4,26.13,2,2,False,False,40.36,1.96,70.7,r,22.5,180,1.0,8.93
708,2,4,35.07,2,2,False,False,42.16,1.8,70.7,r,22.5,180,1.0,8.94
709,2,4,44.03,2,2,False,False,43.8,1.64,70.7,r,22.5,180,1.0,8.96
710,2,4,53.0,2,2,False,False,45.28,1.48,70.7,r,22.5,180,1.0,8.97
711,2,4,61.98,2,2,False,False,46.62,1.34,70.7,r,22.5,180,1.0,8.98
712,2,5,0.3,2,2,True,False,47.8,1.18,70.7,r,22.5,180,1.0,9.02
713,2,5,9.31,2,2,False,False,48.84,1.04,70.7,r,22.5,180,1.0,9.01
714,2,5,18.33,2,2,False,False,49.75,0.91,70.7,r,22.5,180,1.0,9.02
715,2,5,27.37,2,2,False,False,50.54,0.79,70.7,r,22.5,180,1.0,9.04
716,2,5,36.42,2,2,False,False,51.2,0.66,70.7,r,22.5,180,1.0,9.05
717,2,5,45.48,2,2,False,False,51.76,0.56,70.7,r,22.5,180,1.0,9.06
718,2,5,54.55,2,2,False,False,52.22,0.46,70.7,r,22.5,180,1.0,9.07
719,2,5,63.64,2,2,False,False,52.58,0.36,70.7,r,22.5,180,1.0,9.09
720,2,6,2.05,2,2,True,False,52.86,0.28,100.0,n,,,1.0,9.11
721,2,6,11.16,2,2,False,False,52.52,-0.34,100.0,n,,,1.0,9.11
722,2,6,20.28,2,2,False,False,51.61,-0.91,100.0,n,,,0.88,9.12
723,2,6,29.39,2,2,False,False,50.2,-1.41,100.0,n,,,0.88,9.11
724,2,6,38.48,2,2,False,False,48.36,-1.84,100.0,n,,,0.88,9.09
725,2,6,47.56,2,2,False,False,46.16,-2.2,100.0,n,,,0.88,9.08
726,2,6,56.63,2,2,False,False,43.65,-2.51,100.0,n,,,0.88,9.07
727,2,6,65.69,2,2,False,False,40.9,-2.75,100.0,n,,,0.88,9.06
728,2,6,74.74,2,2,False,False,37.96,-2.94,100.0,n,,,0.88,9.05
729,2,6,83.77,2,2,False,False,34.89,-3.07,100.0,n,,,0.88,9.03
730,2,6,92.79,2,2,False,False,31.73,-3.16,100.0,n,,,0.88,9.02
731,2,7,1.81,2,2,True,True,28.52,-3.21,100.0,n,,,0.88,9.02
732,2,7,10.81,2,2,False,True,25.32,-3.2,100.0,n,,,0.88,9.0
733,2,7,19.8,2,2,False,True,22.15,-3.17,100.0,n,,,0.88,8.99
734,2,7,28.78,2,2,False,True,19.05,-3.1,100.0,n,,,0.88,8.98
735,2,7,37.75,2,2,False,True,16.05,-3.0,100.0,n,,,0.88,8.97
736,2,7,46.71,2,2,False,True,13.16,-2.89,100.0,n,,,0.88,8.96
737,2,7,55.66,2,2,False,True,10.42,-2.74,100.0,n,,,0.88,8.95
738,2,7,64.61,2,2,False,True,7.83,-2.59,100.0,n,,,0.88,8.95
739,2,7,73.54,2,2,False,True,5.42,-2.41,100.0,n,,,0.88,8.93
740,2,7,82.46,2,2,False,True,3.19,-2.23,100.0,n,,,0.88,8.92
741,2,7,91.38,2,2,False,True,1.14,-2.05,100.0,n,,,0.88,8.92
742,2,8,0.28,2,2,True,False,0.71,-0.43,70.7,r,22.5,180,0.88,8.9
743,2,8,9.18,2,2,False,False,1.9,1.19,70.7,r,22.5,180,0.88,8.9
744,2,8,18.07,2,2,False,False,2.47,0.57,70.7,r,22.5,180,0.88,8.89
745,2,8,26.95,2,2,False,False,2.48,0.01,70.7,r,22.5,180,0.88,8.88
746,2,8,35.82,2,2,False,False,2.0,-0.48,70.7,r,22.5,180,0.88,8.87
747,2,8,44.69,2,2,False,False,1.08,-0.92,70.7,r,22.5,180,0.88,8.87
748,2,8,53.55,2,2,False,False,0.22,-0.86,70.7,r,22.5,180,0.88,8.86
749,2,8,62.4,2,2,False,False,1.84,1.62,70.7,r,22.5,180,0.88,8.85
750,2,9,0.55,2,2,True,False,3.74,1.9,70.7,r,22.5,180,0.88,8.85
751,2,9,9.39,2,2,False,False,5.86,2.12,70.7,r,22.5,180,0.88,8.84
752,2,9,18.22,2,2,False,False,8.15,2.29,70.7,r,22.5,180,0.88,8.83
753,2,9,27.04,2,2,False,False,10.56,2.41,70.7,r,22.5,180,0.88,8.82
754,2,9,35.85,2,2,False,False,13.07,2.51,70.7,r,22.5,180,0.88,8.81
755,2,9,44.66,2,2,False,False,15.61,2.54,70.7,r,22.5,180,0.88,8.81
756,2,9,53.46,2,2,False,False,18.17,2.56,70.7,r,22.5,180,0.88,8.8
757,2,9,62.26,2,2,False,False,20.71,2.54,70.7,r,22.5,180,0.88,8.8
758,2,10,0.36,2,2,True,False,23.2,2.49,70.7,r,22.5,180,0.88,8.8
759,2,10,9.14,2,2,False,False,25.62,2.42,70.7,r,22.5,180,1.0,8.78
760,2,10,17.94,2,2,False,False,27.94,2.32,70.7,r,22.5,180,1.0,8.8
761,2,10,26.76,2,2,False,False,30.15,2.21,70.7,r,22.5,180,1.0,8.82
762,2,10,35.6,2,2,False,False,32.25,2.1,70.7,r,22.5,180,1.0,8.84
763,2,10,44.45,2,2,False,False,34.24,1.99,70.7,r,22.5,180,1.0,8.85
764,2,10,53.32,2,2,False,False,36.1,1.86,70.7,r,22.5,180,1.0,8.87
765,2,10,62.2,2,2,False,False,37.84,1.74,70.7,r,22.5,180,1.0,8.88
766,2,11,0.41,2,2,True,False,39.45,1.61,70.7,r,22.5,180,1.0,8.91
767,2,11,9.33,2,2,False,False,40.94,1.49,70.7,r,22.5,180,1.0,8.92
768,2,11,18.26,2,2,False,False,42.3,1.36,70.7,r,22.5,180,1.0,8.93
769,2,11,27.2,2,2,False,False,43.54,1.24,70.7,r,22.5,180,1.0,8.94
770,2,11,36.16,2,2,False,False,44.67,1.13,70.7,r,22.5,180,1.0,8.96
771,2,11,45.13,2,2,False,False,45.67,1.0,70.7,r,22.5,180,1.0,8.97
772,2,11,54.12,2,2,False,False,46.57,0.9,70.7,r,22.5,180,1.0,8.99
773,2,11,63.12,2,2,False,False,47.37,0.8,70.7,r,22.5,180,1.0,9.0
774,2,12,1.44,2,2,True,False,48.07,0.7,100.0,n,,,1.0,9.02
775,2,12,10.47,2,2,False,False,48.16,0.09,100.0,n,,,1.0,9.03
776,2,12,19.51,2,2,False,False,47.7,-0.46,100.0,n,,,1.0,9.04
777,2,12,28.56,2,2,False,False,46.74,-0.96,100.0,n,,,1.0,9.05
778,2,12,37.62,2,2,False,False,45.35,-1.39,100.0,n,,,1.0,9.06
779,2,12,46.7,2,2,False,False,43.59,-1.76,100.0,n,,,1.0,9.08
780,2,12,55.79,2,2,False,False,41.51,-2.08,100.0,n,,,1.0,9.09
781,2,12,64.88,2,2,False,False,39.16,-2.35,100.0,n,,,1.0,9.09
782,2,12,73.99,2,2,False,False,36.6,-2.56,100.0,n,,,1.0,9.11
783,2,12,83.11,2,2,False,False,33.89,-2.71,100.0,n,,,1.0,9.12
784,2,12,92.25,2,2,False,False,31.05,-2.84,100.0,n,,,1.0,9.14
785,2,13,1.39,2,2,True,False,28.15,-2.9,100.0,n,,,1.0,9.14
786,2,13,10.54,2,2,False,False,25.22,-2.93,100.0,n,,,1.0,9.15
787,2,13,19.7,2,2,False,False,22.29,-2.93,100.0,n,,,1.0,9.16
788,2,13,28.87,2,2,False,False,19.39,-2.9,100.0,n,,,1.0,9.17
789,2,13,38.06,2,2,False,False,16.57,-2.82,100.0,n,,,1.0,9.19
790,2,13,47.25,2,2,False,False,13.84,-2.73,100.0,n,,,1.0,9.19
791,2,13,56.45,2,2,False,False,11.22,-2.62,100.0,n,,,1.0,9.2
792,2,13,65.66,2,2,False,False,8.73,-2.49,100.0,n,,,1.0,9.21
793,2,13,74.88,2,2,False,False,6.4,-2.33,100.0,n,,,1.0,9.22
794,2,13,84.1,2,2,False,False,4.22,-2.18,100.0,n,,,1.0,9.22
795,2,13,93.34,2,2,False,False,2.21,-2.01,100.0,n,,,1.0,9.24
796,2,14,2.59,2,2,True,False,0.38,-1.83,100.0,n,,,1.0,9.25
797,2,14,11.84,2,2,False,False,1.28,0.9,100.0,n,,,1.0,9.25
798,2,14,21.1,2,2,False,False,2.75,1.47,100.0,n,,,1.0,9.26
799,2,14,30.37,2,2,False,False,4.05,1.3,100.0,n,,,1.0,9.27
800,2,14,39.64,2,2,False,False,5.17,1.12,100.0,n,,,1.0,9.27
801,2,14,48.93,2,2,False,False,6.11,0.94,100.0,n,,,1.0,9.29
802,2,14,58.22,2,2,False,False,6.89,0.78,100.0,n,,,1.0,9.29
803,2,14,67.52,2,2,False,False,7.52,0.63,100.0,n,,,1.0,9.3
804,2,14,76.83,2,2,False,False,7.99,0.47,100.0,n,,,1.0,9.31
805,2,14,86.14,2,2,False,False,8.32,0.33,100.0,n,,,1.0,9.31
806,2,14,95.46,2,2,False,False,8.52,0.2,100.0,n,,,1.0,9.32
807,2,15,4.78,2,2,True,False,8.61,0.09,100.0,n,,,1.0,9.32
808,2,15,14.12,2,2,False,False,8.58,-0.03,100.0,n,,,1.0,9.34
809,2,15,23.46,2,2,False,False,8.46,-0.12,100.0,n,,,1.0,9.34
810,2,15,32.8,2,2,False,False,8.25,-0.21,100.0,n,,,1.0,9.34
811,2,15,42.15,2,2,False,False,7.96,-0.29,100.0,n,,,1.0,9.35
812,2,15,51.51,2,2,False,False,7.62,-0.34,100.0,n,,,1.0,9.36
813,2,15,60.88,2,2,False,False,7.21,-0.41,100.0,n,,,1.0,9.37
814,2,15,70.25,2,2,False,False,6.76,-0.45,100.0,n,,,1.0,9.37
815,2,15,79.62,2,2,False,False,6.28,-0.48,100.0,n,,,1.0,9.37
816,2,15,89.0,2,2,False,False,5.77,-0.51,100.0,n,,,1.0,9.38
817,2,15,98.39,2,2,False,False,5.25,-0.52,100.0,n,,,1.0,9.39
818,2,16,7.78,2,2,True,False,4.72,-0.53,100.0,n,,,1.0,9.39
819,2,16,17.18,2,2,False,False,4.18,-0.54,100.0,n,,,1.0,9.4
820,2,16,26.58,2,2,False,False,3.65,-0.53,100.0,n,,,0.88,9.4
821,2,16,35.96,2,2,False,False,3.13,-0.52,100.0,n,,,0.88,9.38
822,2,16,45.33,2,2,False,False,2.62,-0.51,100.0,n,,,0.88,9.37
823,2,16,54.67,2,2,False,False,2.14,-0.48,100.0,n,,,0.88,9.34
824,2,16,64.0,2,2,False,False,1.67,-0.47,100.0,n,,,0.88,9.33
825,2,16,73.31,2,2,False,False,1.24,-0.43,100.0,n,,,0.88,9.31
826,2,16,82.61,2,2,False,False,0.83,-0.41,100.0,n,,,0.88,9.3
827,2,16,91.89,2,2,False,False,0.46,-0.37,100.0,n,,,0.88,9.28
828,2,17,1.15,2,2,True,True,0.11,-0.35,100.0,n,,,0.88,9.26
829,2,17,10.4,2,2,False,True,0.2,0.09,100.0,n,,,0.88,9.25
830,2,17,19.63,2,2,False,True,0.47,0.27,100.0,n,,,0.88,9.23
831,2,17,28.85,2,2,False,True,0.72,0.25,100.0,n,,,0.88,9.22
832,2,17,38.05,2,2,False,True,0.93,0.21,100.0,n,,,0.88,9.2
833,2,17,47.24,2,2,False,True,1.11,0.18,100.0,n,,,0.88,9.19
834,2,17,56.41,2,2,False,True,1.26,0.15,100.0,n,,,0.88,9.17
835,2,17,65.57,2,2,False,True,1.37,0.11,100.0,n,,,0.88,9.16
836,2,17,74.71,2,2,False,True,1.47,0.1,100.0,n,,,0.88,9.14
837,2,17,83.84,2,2,False,True,1.53,0.06,100.0,n,,,0.88,9.13
838,2,17,92.96,2,2,False,True,1.57,0.04,100.0,n,,,0.88,9.12
839,2,18,2.07,2,2,True,False,1.59,0.02,70.7,r,22.5,180,0.88,9.11
840,2,18,11.16,2,2,False,False,2.15,0.56,70.7,r,22.5,180,0.88,9.09
841,2,18,20.24,2,2,False,False,3.19,1.04,70.7,r,22.5,180,0.88,9.08
842,2,18,29.31,2,2,False,False,4.63,1.44,70.7,r,22.5,180,0.88,9.07
843,2,18,38.37,2,2,False,False,6.42,1.79,70.7,r,22.5,180,0.88,9.06
844,2,18,47.41,2,2,False,False,8.5,2.08,70.7,r,22.5,180,0.88,9.04
845,2,18,56.44,2,2,False,False,10.81,2.31,70.7,r,22.5,180,0.88,9.03
846,2,18,65.47,2,2,False,False,13.3,2.49,70.7,r,22.5,180,0.88,9.03
847,2,19,3.79,2,2,True,False,15.91,2.61,70.7,r,22.5,180,0.88,9.02
848,2,19,12.79,2,2,False,False,18.6,2.69,70.7,r,22.5,180,0.88,9.0
849,2,19,21.78,2,2,False,False,21.34,2.74,70.7,r,22.5,180,0.88,8.99
850,2,19,30.77,2,2,False,False,24.07,2.73,70.7,r,22.5,180,0.88,8.99
851,2,19,39.74,2,2,False,False,26.76,2.69,70.7,r,22.5,180,0.88,8.97
852,2,19,48.7,2,2,False,False,29.39,2.63,70.7,r,22.5,180,0.88,8.96
853,2,19,57.65,2,2,False,False,31.93,2.54,70.7,r,22.5,180,0.88,8.95
854,2,19,66.59,2,2,False,False,34.35,2.42,70.7,r,22.5,180,0.88,8.94
855,2,20,4.83,2,2,True,False,36.63,2.28,70.7,r,22.5,180,0.88,8.94
856,2,20,13.76,2,2,False,False,38.77,2.14,70.7,r,22.5,180,1.0,8.93
857,2,20,22.69,2,2,False,False,40.74,1.97,70.7,r,22.5,180,1.0,8.93
858,2,20,31.65,2,2,False,False,42.56,1.82,70.7,r,22.5,180,1.0,8.96
859,2,20,40.61,2,2,False,False,44.21,1.65,70.7,r,22.5,180,1.0,8.96
860,2,20,49.59,2,2,False,False,45.7,1.49,70.7,r,22.5,180,1.0,8.98
861,2,20,58.59,2,2,False,False,47.04,1.34,70.7,r,22.5,180,1.0,9.0
862,2,20,67.6,2,2,False,False,48.23,1.19,70.7,r,22.5,180,1.0,9.01
863,2,21,5.93,2,2,True,False,49.27,1.04,70.7,r,22.5,180,1.0,9.03
864,2,21,14.96,2,2,False,False,50.18,0.91,70.7,r,22.5,180,1.0,9.03
865,2,21,24.01,2,2,False,False,50.97,0.79,70.7,r,22.5,180,1.0,9.05
866,2,21,33.07,2,2,False,False,51.63,0.66,70.7,r,22.5,180,1.0,9.06
867,2,21,42.14,2,2,False,False,52.18,0.55,70.7,r,22.5,180,1.0,9.07
868,2,21,51.22,2,2,False,False,52.63,0.45,70.7,r,22.5,180,1.0,9.08
869,2,21,60.31,2,2,False,False,52.99,0.36,70.7,r,22.5,180,1.0,9.09
870,2,21,69.42,2,2,False,False,53.26,0.27,70.7,r,22.5,180,1.0,9.11
871,2,22,7.85,2,2,True,False,53.46,0.2,100.0,n,,,1.0,9.13
872,2,22,16.98,2,2,False,False,53.04,-0.42,100.0,n,,,1.0,9.13
873,2,22,26.11,2,2,False,False,52.05,-0.99,100.0,n,,,0.88,9.13
874,2,22,35.24,2,2,False,False,50.56,-1.49,100.0,n,,,0.88,9.13
875,2,22,44.35,2,2,False,False,48.65,-1.91,100.0,n,,,0.88,9.11
876,2,22,53.45,2,2,False,False,46.37,-2.28,100.0,n,,,0.88,9.1
877,2,22,62.53,2,2,False,False,43.79,-2.58,100.0,n,,,0.88,9.08
878,2,22,71.61,2,2,False,False,40.98,-2.81,100.0,n,,,0.88,9.08
879,2,22,80.67,2,2,False,False,37.98,-3.0,100.0,n,,,0.88,9.06
880,2,22,89.72,2,2,False,False,34.85,-3.13,100.0,n,,,0.88,9.05
881,2,22,98.76,2,2,False,False,31.64,-3.21,100.0,n,,,0.88,9.04
882,2,23,7.78,2,2,True,True,28.39,-3.25,100.0,n,,,0.88,9.02
883,2,23,16.8,2,2,False,True,25.15,-3.24,100.0,n,,,0.88,9.02
884,2,23,25.81,2,2,False,True,21.95,-3.2,100.0,n,,,0.88,9.01
885,2,23,34.8,2,2,False,True,18.82,-3.13,100.0,n,,,0.88,8.99
886,2,23,43.79,2,2,False,True,15.79,-3.03,100.0,n,,,0.88,8.99
887,2,23,52.76,2,2,False,True,12.89,-2.9,100.0,n,,,0.88,8.97
888,2,23,61.73,2,2,False,True,10.13,-2.76,100.0,n,,,0.88,8.97
889,2,23,70.68,2,2,False,True,7.54,-2.59,100.0,n,,,0.88,8.95
890,2,23,79.63,2,2,False,True,5.12,-2.42,100.0,n,,,0.88,8.95
891,2,23,88.56,2,2,False,True,2.88,-2.24,100.0,n,,,0.88,8.93
892,2,23,97.49,2,2,False,True,0.84,-2.04,100.0,n,,,0.88,8.93
893,2,24,6.41,2,2,True,False,1.01,0.17,70.7,r,22.5,180,0.88,8.92
894,2,24,15.32,2,2,False,False,2.18,1.17,70.7,r,22.5,180,0.88,8.91
895,2,24,24.22,2,2,False,False,2.73,0.55,70.7,r,22.5,180,0.88,8.9
896,2,24,33.11,2,2,False,False,2.72,-0.01,70.7,r,22.5,180,0.88,8.89
897,2,24,41.99,2,2,False,False,2.21,-0.51,70.7,r,22.5,180,0.88,8.88
898,2,24,50.87,2,2,False,False,1.26,-0.95,70.7,r,22.5,180,0.88,8.88
899,2,24,59.74,2,2,False,False,0.08,-1.18,70.7,r,22.5,180,0.88,8.87
900,2,24,68.6,2,2,False,False,1.75,1.67,70.7,r,22.5,180,0.88,8.86
901,2,25,6.76,2,2,True,False,3.68,1.93,70.7,r,22.5,180,0.88,8.86
902,2,25,15.61,2,2,False,False,5.84,2.16,70.7,r,22.5,180,0.88,8.85
903,2,25,24.45,2,2,False,False,8.17,2.33,70.7,r,22.5,180,0.88,8.84
904,2,25,33.28,2,2,False,False,10.63,2.46,70.7,r,22.5,180,0.88,8.83
905,2,25,42.1,2,2,False,False,13.17,2.54,70.7,r,22.5,180,0.88,8.82
906,2,25,50.92,2,2,False,False,15.75,2.58,70.7,r,22.5,180,0.88,8.82
907,2,25,59.73,2,2,False,False,18.35,2.6,70.7,r,22.5,180,0.88,8.81
908,2,25,68.53,2,2,False,False,20.92,2.57,70.7,r,22.5,180,0.88,8.8
909,2,26,6.65,2,2,True,False,23.44,2.52,70.7,r,22.5,180,0.88,8.82
910,2,26,15.44,2,2,False,False,25.88,2.44,70.7,r,22.5,180,1.0,8.79
911,2,26,24.24,2,2,False,False,28.23,2.35,70.7,r,22.5,180,1.0,8.8
912,2,26,33.07,2,2,False,False,30.47,2.24,70.7,r,22.5,180,1.0,8.83
913,2,26,41.91,2,2,False,False,32.59,2.12,70.7,r,22.5,180,1.0,8.84
914,2,26,50.77,2,2,False,False,34.59,2.0,70.7,r,22.5,180,1.0,8.86
915,2,26,59.65,2,2,False,False,36.47,1.88,70.7,r,22.5,180,1.0,8.88
916,2,26,68.54,2,2,False,False,38.22,1.75,70.7,r,22.5,180,1.0,8.89
917,2,27,6.76,2,2,True,False,39.84,1.62,70.7,r,22.5,180,1.0,8.92
918,2,27,15.68,2,2,False,False,41.34,1.5,70.7,r,22.5,180,1.0,8.92
919,2,27,24.62,2,2,False,False,42.7,1.36,70.7,r,22.5,180,1.0,8.94
920,2,27,33.96,2,2,False,False,43.94,1.24,70.7,r,22.5,180,1.0,9.34
921,2,27,43.71,2,2,False,False,45.21,1.27,70.7,r,22.5,180,1.0,9.75
922,2,27,53.85,2,2,False,False,46.65,1.44,70.7,r,22.5,180,1.0,10.14
923,2,27,64.37,2,2,False,False,48.39,1.74,70.7,r,22.5,180,1.0,10.52
924,2,28,4.58,2,2,True,False,50.56,2.17,100.0,n,,,1.0,10.91
925,2,28,15.85,2,2,False,False,51.83,1.27,100.0,n,,,1.0,11.27
926,2,28,27.48,2,2,False,False,52.24,0.41,100.0,n,,,1.0,11.63
927,2,28,39.47,2,2,False,False,51.85,-0.39,100.0,n,,,1.0,11.99
928,2,28,51.8,2,2,False,False,50.72,-1.13,100.0,n,,,1.0,12.33
929,2,28,64.47,2,2,False,False,48.92,-1.8,100.0,n,,,1.0,12.67
930,2,28,77.47,2,2,False,False,46.53,-2.39,100.0,n,,,1.0,13.0
931,2,28,90.8,2,2,False,False,43.62,-2.91,100.0,n,,,1.0,13.33
932,2,29,4.45,2,2,True,False,40.27,-3.35,100.0,n,,,1.0,13.65
933,2,29,18.41,2,2,False,False,36.57,-3.7,100.0,n,,,1.0,13.96
934,2,29,32.68,2,2,False,False,32.61,-3.96,100.0,n,,,1.0,14.27
935,2,29,47.25,2,2,False,False,28.45,-4.16,100.0,n,,,1.0,14.57
936,2,29,62.11,2,2,False,False,24.2,-4.25,100.0,n,,,1.0,14.86
937,2,29,77.26,2,2,False,False,19.92,-4.28,100.0,n,,,1.0,15.15
938,2,29,92.7,2,2,False,False,15.69,-4.23,100.0,n,,,1.0,15.44
939,2,30,8.4,2,2,True,False,11.59,-4.1,100.0,n,,,1.0,15.7
940,2,30,24.38,2,2,False,False,7.66,-3.93,100.0,n,,,1.0,15.98
941,2,30,40.63,2,2,False,False,3.98,-3.68,100.0,n,,,1.0,16.25
942,2,30,57.13,2,2,False,False,0.58,-3.4,100.0,n,,,1.0,16.5
943,2,30,73.89,2,2,False,False,2.49,1.91,100.0,n,,,1.0,16.76
944,2,30,90.9,2,2,False,False,5.2,2.71,100.0,n,,,1.0,17.01
945,2,31,8.15,2,2,True,False,7.53,2.33,100.0,n,,,1.0,17.25
946,2,31,25.64,2,2,False,False,9.46,1.93,100.0,n,,,1.0,17.49
947,2,31,43.36,2,2,False,False,11.0,1.54,100.0,n,,,1.0,17.72
948,2,31,61.32,2,2,False,False,12.13,1.13,100.0,n,,,1.0,17.96
949,2,31,79.5,2,2,False,False,12.88,0.75,100.0,n,,,1.0,18.18
950,2,31,97.9,2,2,False,False,13.27,0.39,100.0,n,,,1.0,18.4
0,3,0,16.12,2,2,True,False,13.31,0.04,100.0,n,,,1.0,18.22
