gameTick,lap,pieceIndex,inPieceDistance,laneStart,laneEnd,pieceChange,switch,carAngle,angleDelta,length,curve,angle,radius,throttle,velocity
0,0,0,0.0,0,0,False,False,0.0,0,100.0,n,,,0.0,0
1,0,0,0.0,0,0,False,False,0.0,0.0,100.0,n,,,0.881,0.0
2,0,0,0.0,0,0,False,False,0.0,0.0,100.0,n,,,0.881,0.0
3,0,0,0.17,0,0,False,False,0.0,0.0,100.0,n,,,0.881,0.17
4,0,0,0.5,0,0,False,False,0.0,0.0,100.0,n,,,0.881,0.33
5,0,0,1.0,0,0,False,False,0.0,0.0,100.0,n,,,0.881,0.5
6,0,0,1.65,0,0,False,False,0.0,0.0,100.0,n,,,0.881,0.65
7,0,0,2.46,0,0,False,False,0.0,0.0,100.0,n,,,0.881,0.81
8,0,0,3.42,0,0,False,False,0.0,0.0,100.0,n,,,0.881,0.96
9,0,0,4.53,0,0,False,False,0.0,0.0,100.0,n,,,0.881,1.11
10,0,0,5.79,0,0,False,False,0.0,0.0,100.0,n,,,0.881,1.26
11,0,0,7.19,0,0,False,False,0.0,0.0,100.0,n,,,0.881,1.4
12,0,0,8.73,0,0,False,False,0.0,0.0,100.0,n,,,0.881,1.54
13,0,0,10.4,0,0,False,False,0.0,0.0,100.0,n,,,0.881,1.67
14,0,0,12.21,0,0,False,False,0.0,0.0,100.0,n,,,0.881,1.81
15,0,0,14.15,0,0,False,False,0.0,0.0,100.0,n,,,0.881,1.94
16,0,0,16.23,0,0,False,False,0.0,0.0,100.0,n,,,0.881,2.08
17,0,0,18.42,0,0,False,False,0.0,0.0,100.0,n,,,0.881,2.19
18,0,0,20.74,0,0,False,False,0.0,0.0,100.0,n,,,0.881,2.32
19,0,0,23.18,0,0,False,False,0.0,0.0,100.0,n,,,0.881,2.44
20,0,0,25.75,0,0,False,False,0.0,0.0,100.0,n,,,0.881,2.57
21,0,0,28.42,0,0,False,False,0.0,0.0,100.0,n,,,0.881,2.67
22,0,0,31.21,0,0,False,False,0.0,0.0,100.0,n,,,0.881,2.79
23,0,0,34.11,0,0,False,False,0.0,0.0,100.0,n,,,0.881,2.9
24,0,0,37.13,0,0,False,False,0.0,0.0,100.0,n,,,0.881,3.02
25,0,0,40.24,0,0,False,False,0.0,0.0,100.0,n,,,0.881,3.11
26,0,0,43.47,0,0,False,False,0.0,0.0,100.0,n,,,0.881,3.23
27,0,0,46.79,0,0,False,False,0.0,0.0,100.0,n,,,0.881,3.32
28,0,0,50.22,0,0,False,False,0.0,0.0,100.0,n,,,0.881,3.43
29,0,0,53.74,0,0,False,False,0.0,0.0,100.0,n,,,0.881,3.52
30,0,0,57.36,0,0,False,False,0.0,0.0,100.0,n,,,0.881,3.62
31,0,0,61.08,0,0,False,False,0.0,0.0,100.0,n,,,0.881,3.72
32,0,0,64.89,0,0,False,False,0.0,0.0,100.0,n,,,0.881,3.81
33,0,0,68.79,0,0,False,False,0.0,0.0,100.0,n,,,0.881,3.9
34,0,0,72.78,0,0,False,False,0.0,0.0,100.0,n,,,0.881,3.99
35,0,0,76.85,0,0,False,False,0.0,0.0,100.0,n,,,0.881,4.07
36,0,0,81.01,0,0,False,False,0.0,0.0,100.0,n,,,0.881,4.16
37,0,0,85.25,0,0,False,False,0.0,0.0,100.0,n,,,0.881,4.24
38,0,0,89.58,0,0,False,False,0.0,0.0,100.0,n,,,0.881,4.33
39,0,0,93.98,0,0,False,False,0.0,0.0,100.0,n,,,0.881,4.4
40,0,0,98.47,0,0,False,False,0.0,0.0,100.0,n,,,0.881,4.49
41,0,1,3.03,0,0,True,True,0.0,0.0,100.0,n,,,0.881,4.56
42,0,1,7.67,0,0,False,True,0.0,0.0,100.0,n,,,0.881,4.64
43,0,1,12.38,0,0,False,True,0.0,0.0,100.0,n,,,0.881,4.71
44,0,1,17.16,0,0,False,True,0.0,0.0,100.0,n,,,0.881,4.78
45,0,1,22.01,0,0,False,True,0.0,0.0,100.0,n,,,0.881,4.85
46,0,1,26.93,0,0,False,True,0.0,0.0,100.0,n,,,0.881,4.92
47,0,1,31.92,0,0,False,True,0.0,0.0,100.0,n,,,0.881,4.99
48,0,1,36.98,0,0,False,True,0.0,0.0,100.0,n,,,0.881,5.06
49,0,1,42.1,0,0,False,True,0.0,0.0,100.0,n,,,0.881,5.12
50,0,1,47.29,0,0,False,True,0.0,0.0,100.0,n,,,0.881,5.19
51,0,1,52.53,0,0,False,True,0.0,0.0,100.0,n,,,0.881,5.24
52,0,1,57.84,0,0,False,True,0.0,0.0,100.0,n,,,0.881,5.31
53,0,1,63.21,0,0,False,True,0.0,0.0,100.0,n,,,0.881,5.37
54,0,1,68.64,0,0,False,True,0.0,0.0,100.0,n,,,0.881,5.43
55,0,1,74.13,0,0,False,True,0.0,0.0,100.0,n,,,0.881,5.49
56,0,1,79.67,0,0,False,True,0.0,0.0,100.0,n,,,0.881,5.54
57,0,1,85.27,0,0,False,True,0.0,0.0,100.0,n,,,0.881,5.6
58,0,1,90.92,0,0,False,True,0.0,0.0,100.0,n,,,0.881,5.65
59,0,1,96.62,0,0,False,True,0.0,0.0,100.0,n,,,0.881,5.7
60,0,2,2.38,0,0,True,False,0.0,0.0,86.4,r,22.5,220,0.881,5.76
61,0,2,8.18,0,0,False,False,0.0,0.0,86.4,r,22.5,220,0.881,5.8
62,0,2,14.04,0,0,False,False,0.0,0.0,86.4,r,22.5,220,0.881,5.86
63,0,2,19.95,0,0,False,False,0.0,0.0,86.4,r,22.5,220,0.881,5.91
64,0,2,25.9,0,0,False,False,0.0,0.0,86.4,r,22.5,220,0.881,5.95
65,0,2,31.9,0,0,False,False,0.0,0.0,86.4,r,22.5,220,0.881,6.0
66,0,2,37.95,0,0,False,False,0.0,0.0,86.4,r,22.5,220,0.881,6.05
67,0,2,44.04,0,0,False,False,0.0,0.0,86.4,r,22.5,220,0.881,6.09
68,0,2,50.17,0,0,False,False,0.0,0.0,86.4,r,22.5,220,0.881,6.13
69,0,2,56.35,0,0,False,False,0.0,0.0,86.4,r,22.5,220,0.881,6.18
70,0,2,62.57,0,0,False,False,0.0,0.0,86.4,r,22.5,220,0.881,6.22
71,0,2,68.83,0,0,False,False,0.0,0.0,86.4,r,22.5,220,0.881,6.26
72,0,2,75.13,0,0,False,False,0.0,0.0,86.4,r,22.5,220,0.881,6.3
73,0,2,81.47,0,0,False,False,0.0,0.0,86.4,r,22.5,220,0.881,6.34
74,0,3,1.46,0,0,True,False,0.0,0.0,86.4,r,22.5,220,0.881,6.39
75,0,3,7.88,0,0,False,False,0.0,0.0,86.4,r,22.5,220,0.881,6.42
76,0,3,14.34,0,0,False,False,0.0,0.0,86.4,r,22.5,220,0.881,6.46
77,0,3,20.83,0,0,False,False,0.0,0.0,86.4,r,22.5,220,0.881,6.49
78,0,3,27.36,0,0,False,False,0.0,0.0,86.4,r,22.5,220,0.881,6.53
79,0,3,33.92,0,0,False,False,0.0,0.0,86.4,r,22.5,220,0.881,6.56
80,0,3,40.52,0,0,False,False,0.0,0.0,86.4,r,22.5,220,0.881,6.6
81,0,3,47.15,0,0,False,False,0.0,0.0,86.4,r,22.5,220,0.881,6.63
82,0,3,53.81,0,0,False,False,0.0,0.0,86.4,r,22.5,220,0.881,6.66
83,0,3,60.51,0,0,False,False,0.0,0.0,86.4,r,22.5,220,0.881,6.7
84,0,3,67.24,0,0,False,False,0.0,0.0,86.4,r,22.5,220,0.881,6.73
85,0,3,74.0,0,0,False,False,0.0,0.0,86.4,r,22.5,220,0.881,6.76
86,0,3,80.78,0,0,False,False,0.0,0.0,86.4,r,22.5,220,0.881,6.78
87,0,4,1.21,0,0,True,False,0.0,0.0,86.4,r,22.5,220,0.881,6.83
88,0,4,8.06,0,0,False,False,0.0,0.0,86.4,r,22.5,220,1.0,6.85
89,0,4,14.96,0,0,False,False,0.0,0.0,86.4,r,22.5,220,1.0,6.9
90,0,4,21.91,0,0,False,False,0.0,0.0,86.4,r,22.5,220,1.0,6.95
91,0,4,28.91,0,0,False,False,0.0,0.0,86.4,r,22.5,220,1.0,7.0
92,0,4,35.95,0,0,False,False,0.0,0.0,86.4,r,22.5,220,1.0,7.04
93,0,4,43.05,0,0,False,False,0.0,0.0,86.4,r,22.5,220,1.0,7.1
94,0,4,50.19,0,0,False,False,0.0,0.0,86.4,r,22.5,220,1.0,7.14
95,0,4,57.37,0,0,False,False,0.0,0.0,86.4,r,22.5,220,1.0,7.18
96,0,4,64.6,0,0,False,False,0.0,0.0,86.4,r,22.5,220,1.0,7.23
97,0,4,71.88,0,0,False,False,0.0,0.0,86.4,r,22.5,220,1.0,7.28
98,0,4,79.19,0,0,False,False,0.0,0.0,86.4,r,22.5,220,1.0,7.31
99,0,5,0.16,0,0,True,False,0.0,0.0,86.4,r,22.5,220,1.0,7.37
100,0,5,7.55,0,0,False,False,0.0,0.0,86.4,r,22.5,220,1.0,7.39
101,0,5,14.99,0,0,False,False,0.0,0.0,86.4,r,22.5,220,1.0,7.44
102,0,5,22.47,0,0,False,False,0.0,0.0,86.4,r,22.5,220,1.0,7.48
103,0,5,29.99,0,0,False,False,0.0,0.0,86.4,r,22.5,220,1.0,7.52
104,0,5,37.54,0,0,False,False,0.0,0.0,86.4,r,22.5,220,1.0,7.55
105,0,5,45.13,0,0,False,False,0.0,0.0,86.4,r,22.5,220,1.0,7.59
106,0,5,52.76,0,0,False,False,0.0,0.0,86.4,r,22.5,220,1.0,7.63
107,0,5,60.42,0,0,False,False,0.0,0.0,86.4,r,22.5,220,1.0,7.66
108,0,5,68.12,0,0,False,False,0.0,0.0,86.4,r,22.5,220,1.0,7.7
109,0,5,75.85,0,0,False,False,0.0,0.0,86.4,r,22.5,220,1.0,7.73
110,0,5,83.61,0,0,False,False,0.0,0.0,86.4,r,22.5,220,1.0,7.76
111,0,6,5.01,0,0,True,False,0.0,0.0,100.0,n,,,1.0,7.8
112,0,6,12.84,0,0,False,False,0.0,0.0,100.0,n,,,1.0,7.83
113,0,6,20.7,0,0,False,False,0.0,0.0,100.0,n,,,0.881,7.86
114,0,6,28.57,0,0,False,False,0.0,0.0,100.0,n,,,0.881,7.87
115,0,6,36.44,0,0,False,False,0.0,0.0,100.0,n,,,0.881,7.87
116,0,6,44.33,0,0,False,False,0.0,0.0,100.0,n,,,0.881,7.89
117,0,6,52.22,0,0,False,False,0.0,0.0,100.0,n,,,0.881,7.89
118,0,6,60.11,0,0,False,False,0.0,0.0,100.0,n,,,0.881,7.89
119,0,6,68.02,0,0,False,False,0.0,0.0,100.0,n,,,0.881,7.91
120,0,6,75.93,0,0,False,False,0.0,0.0,100.0,n,,,0.881,7.91
121,0,6,83.84,0,0,False,False,0.0,0.0,100.0,n,,,0.881,7.91
122,0,6,91.77,0,0,False,False,0.0,0.0,100.0,n,,,0.881,7.93
123,0,6,99.7,0,0,False,False,0.0,0.0,100.0,n,,,0.881,7.93
124,0,7,7.64,0,1,True,True,0.0,0.0,100.0,n,,,0.881,7.94
125,0,7,15.58,0,1,False,True,0.0,0.0,100.0,n,,,0.881,7.94
126,0,7,23.53,0,1,False,True,0.0,0.0,100.0,n,,,0.881,7.95
127,0,7,31.48,0,1,False,True,0.0,0.0,100.0,n,,,0.881,7.95
128,0,7,39.45,0,1,False,True,0.0,0.0,100.0,n,,,0.881,7.97
129,0,7,47.41,0,1,False,True,0.0,0.0,100.0,n,,,0.881,7.96
130,0,7,55.39,0,1,False,True,0.0,0.0,100.0,n,,,0.881,7.98
131,0,7,63.36,0,1,False,True,0.0,0.0,100.0,n,,,0.881,7.97
132,0,7,71.35,0,1,False,True,0.0,0.0,100.0,n,,,0.881,7.99
133,0,7,79.34,0,1,False,True,0.0,0.0,100.0,n,,,0.881,7.99
134,0,7,87.33,0,1,False,True,0.0,0.0,100.0,n,,,0.881,7.99
135,0,7,95.33,0,1,False,True,0.0,0.0,100.0,n,,,0.881,8.0
136,0,8,1.27,1,1,True,False,0.0,0.0,78.5,r,22.5,200,0.881,5.94
137,0,8,9.28,1,1,False,False,0.0,0.0,78.5,r,22.5,200,0.881,8.01
138,0,8,17.29,1,1,False,False,0.01,0.01,78.5,r,22.5,200,0.881,8.01
139,0,8,25.31,1,1,False,False,0.03,0.02,78.5,r,22.5,200,0.881,8.02
140,0,8,33.33,1,1,False,False,0.05,0.02,78.5,r,22.5,200,0.881,8.02
141,0,8,41.36,1,1,False,False,0.08,0.03,78.5,r,22.5,200,0.881,8.03
142,0,8,49.39,1,1,False,False,0.11,0.03,78.5,r,22.5,200,0.881,8.03
143,0,8,57.43,1,1,False,False,0.15,0.04,78.5,r,22.5,200,0.881,8.04
144,0,8,65.47,1,1,False,False,0.2,0.05,78.5,r,22.5,200,0.881,8.04
145,0,8,73.51,1,1,False,False,0.26,0.06,78.5,r,22.5,200,0.881,8.04
146,0,9,3.02,1,1,True,False,0.33,0.07,78.5,r,22.5,200,0.881,8.01
147,0,9,11.07,1,1,False,False,0.4,0.07,78.5,r,22.5,200,0.881,8.05
148,0,9,19.13,1,1,False,False,0.48,0.08,78.5,r,22.5,200,0.881,8.06
149,0,9,27.19,1,1,False,False,0.57,0.09,78.5,r,22.5,200,0.881,8.06
150,0,9,35.25,1,1,False,False,0.66,0.09,78.5,r,22.5,200,0.881,8.06
151,0,9,43.32,1,1,False,False,0.76,0.1,78.5,r,22.5,200,0.881,8.07
152,0,9,51.39,1,1,False,False,0.86,0.1,78.5,r,22.5,200,0.881,8.07
153,0,9,59.46,1,1,False,False,0.97,0.11,78.5,r,22.5,200,0.881,8.07
154,0,9,67.54,1,1,False,False,1.09,0.12,78.5,r,22.5,200,0.881,8.08
155,0,9,75.62,1,1,False,False,1.21,0.12,78.5,r,22.5,200,0.881,8.08
156,0,10,5.17,1,1,True,False,1.33,0.12,78.5,r,22.5,200,0.881,8.05
157,0,10,13.25,1,1,False,False,1.45,0.12,78.5,r,22.5,200,1.0,8.08
158,0,10,21.37,1,1,False,False,1.58,0.13,78.5,r,22.5,200,1.0,8.12
159,0,10,29.51,1,1,False,False,1.71,0.13,78.5,r,22.5,200,1.0,8.14
160,0,10,37.67,1,1,False,False,1.86,0.15,78.5,r,22.5,200,1.0,8.16
161,0,10,45.86,1,1,False,False,2.03,0.17,78.5,r,22.5,200,1.0,8.19
162,0,10,54.07,1,1,False,False,2.22,0.19,78.5,r,22.5,200,1.0,8.21
163,0,10,62.31,1,1,False,False,2.43,0.21,78.5,r,22.5,200,1.0,8.24
164,0,10,70.56,1,1,False,False,2.68,0.25,78.5,r,22.5,200,1.0,8.25
165,0,11,0.3,1,1,True,False,2.96,0.28,78.5,r,22.5,200,1.0,8.24
166,0,11,8.61,1,1,False,False,3.26,0.3,78.5,r,22.5,200,1.0,8.31
167,0,11,16.93,1,1,False,False,3.6,0.34,78.5,r,22.5,200,1.0,8.32
168,0,11,25.28,1,1,False,False,3.98,0.38,78.5,r,22.5,200,1.0,8.35
169,0,11,33.64,1,1,False,False,4.38,0.4,78.5,r,22.5,200,1.0,8.36
170,0,11,42.03,1,1,False,False,4.82,0.44,78.5,r,22.5,200,1.0,8.39
171,0,11,50.43,1,1,False,False,5.29,0.47,78.5,r,22.5,200,1.0,8.4
172,0,11,58.86,1,1,False,False,5.78,0.49,78.5,r,22.5,200,1.0,8.43
173,0,11,67.3,1,1,False,False,6.3,0.52,78.5,r,22.5,200,1.0,8.44
174,0,11,75.76,1,1,False,False,6.85,0.55,78.5,r,22.5,200,1.0,8.46
175,0,12,5.71,1,1,True,False,7.42,0.57,100.0,n,,,1.0,8.45
176,0,12,14.2,1,1,False,False,7.85,0.43,100.0,n,,,1.0,8.49
177,0,12,22.72,1,1,False,False,8.16,0.31,100.0,n,,,1.0,8.52
178,0,12,31.25,1,1,False,False,8.35,0.19,100.0,n,,,1.0,8.53
179,0,12,39.8,1,1,False,False,8.43,0.08,100.0,n,,,1.0,8.55
180,0,12,48.37,1,1,False,False,8.41,-0.02,100.0,n,,,1.0,8.57
181,0,12,56.95,1,1,False,False,8.31,-0.1,100.0,n,,,1.0,8.58
182,0,12,65.55,1,1,False,False,8.12,-0.19,100.0,n,,,1.0,8.6
183,0,12,74.17,1,1,False,False,7.87,-0.25,100.0,n,,,1.0,8.62
184,0,12,82.8,1,1,False,False,7.56,-0.31,100.0,n,,,1.0,8.63
185,0,12,91.44,1,1,False,False,7.2,-0.36,100.0,n,,,1.0,8.64
186,0,13,0.1,1,1,True,False,6.79,-0.41,100.0,n,,,1.0,8.66
187,0,13,8.77,1,1,False,False,6.36,-0.43,100.0,n,,,1.0,8.67
188,0,13,17.46,1,1,False,False,5.89,-0.47,100.0,n,,,1.0,8.69
189,0,13,26.16,1,1,False,False,5.41,-0.48,100.0,n,,,1.0,8.7
190,0,13,34.87,1,1,False,False,4.92,-0.49,100.0,n,,,1.0,8.71
191,0,13,43.6,1,1,False,False,4.43,-0.49,100.0,n,,,1.0,8.73
192,0,13,52.34,1,1,False,False,3.93,-0.5,100.0,n,,,1.0,8.74
193,0,13,61.09,1,1,False,False,3.45,-0.48,100.0,n,,,1.0,8.75
194,0,13,69.86,1,1,False,False,2.97,-0.48,100.0,n,,,1.0,8.77
195,0,13,78.63,1,1,False,False,2.51,-0.46,100.0,n,,,1.0,8.77
196,0,13,87.42,1,1,False,False,2.06,-0.45,100.0,n,,,1.0,8.79
197,0,13,96.22,1,1,False,False,1.64,-0.42,100.0,n,,,1.0,8.8
198,0,14,5.03,1,1,True,False,1.25,-0.39,100.0,n,,,1.0,8.81
199,0,14,13.86,1,1,False,False,0.87,-0.38,100.0,n,,,1.0,8.83
200,0,14,22.69,1,1,False,False,0.53,-0.34,100.0,n,,,1.0,8.83
201,0,14,31.53,1,1,False,False,0.22,-0.31,100.0,n,,,1.0,8.84
202,0,14,40.39,1,1,False,False,0.07,-0.15,100.0,n,,,1.0,8.86
203,0,14,49.25,1,1,False,False,0.33,0.26,100.0,n,,,1.0,8.86
204,0,14,58.13,1,1,False,False,0.55,0.22,100.0,n,,,1.0,8.88
205,0,14,67.01,1,1,False,False,0.75,0.2,100.0,n,,,1.0,8.88
206,0,14,75.91,1,1,False,False,0.92,0.17,100.0,n,,,1.0,8.9
207,0,14,84.81,1,1,False,False,1.07,0.15,100.0,n,,,1.0,8.9
208,0,14,93.72,1,1,False,False,1.18,0.11,100.0,n,,,1.0,8.91
209,0,15,2.64,1,1,True,False,1.28,0.1,100.0,n,,,1.0,8.92
210,0,15,11.57,1,1,False,False,1.34,0.06,100.0,n,,,1.0,8.93
211,0,15,20.51,1,1,False,False,1.39,0.05,100.0,n,,,1.0,8.94
212,0,15,29.46,1,1,False,False,1.42,0.03,100.0,n,,,1.0,8.95
213,0,15,38.42,1,1,False,False,1.43,0.01,100.0,n,,,1.0,8.96
214,0,15,47.38,1,1,False,False,1.42,-0.01,100.0,n,,,1.0,8.96
215,0,15,56.35,1,1,False,False,1.39,-0.03,100.0,n,,,1.0,8.97
216,0,15,65.33,1,1,False,False,1.36,-0.03,100.0,n,,,1.0,8.98
217,0,15,74.32,1,1,False,False,1.31,-0.05,100.0,n,,,1.0,8.99
218,0,15,83.32,1,1,False,False,1.25,-0.06,100.0,n,,,1.0,9.0
219,0,15,92.32,1,1,False,False,1.18,-0.07,100.0,n,,,1.0,9.0
220,0,16,1.33,1,1,True,False,1.11,-0.07,100.0,n,,,1.0,9.01
221,0,16,10.35,1,1,False,False,1.03,-0.08,100.0,n,,,1.0,9.02
222,0,16,19.37,1,1,False,False,0.95,-0.08,100.0,n,,,0.881,9.02
223,0,16,28.38,1,1,False,False,0.86,-0.09,100.0,n,,,0.881,9.01
224,0,16,37.37,1,1,False,False,0.78,-0.08,100.0,n,,,0.881,8.99
225,0,16,46.35,1,1,False,False,0.69,-0.09,100.0,n,,,0.881,8.98
226,0,16,55.31,1,1,False,False,0.61,-0.08,100.0,n,,,0.881,8.96
227,0,16,64.26,1,1,False,False,0.52,-0.09,100.0,n,,,0.881,8.95
228,0,16,73.19,1,1,False,False,0.44,-0.08,100.0,n,,,0.881,8.93
229,0,16,82.11,1,1,False,False,0.36,-0.08,100.0,n,,,0.881,8.92
230,0,16,91.01,1,1,False,False,0.29,-0.07,100.0,n,,,0.881,8.9
231,0,16,99.9,1,1,False,False,0.22,-0.07,100.0,n,,,0.881,8.89
232,0,17,8.78,1,2,True,True,0.15,-0.07,100.0,n,,,0.881,8.88
233,0,17,17.64,1,2,False,True,0.09,-0.06,100.0,n,,,0.881,8.86
234,0,17,26.5,1,2,False,True,0.04,-0.05,100.0,n,,,0.881,8.86
235,0,17,35.33,1,2,False,True,0.01,-0.03,100.0,n,,,0.881,8.83
236,0,17,44.16,1,2,False,True,0.06,0.05,100.0,n,,,0.881,8.83
237,0,17,52.98,1,2,False,True,0.1,0.04,100.0,n,,,0.881,8.82
238,0,17,61.78,1,2,False,True,0.13,0.03,100.0,n,,,0.881,8.8
239,0,17,70.57,1,2,False,True,0.16,0.03,100.0,n,,,0.881,8.79
240,0,17,79.35,1,2,False,True,0.19,0.03,100.0,n,,,0.881,8.78
241,0,17,88.12,1,2,False,True,0.21,0.02,100.0,n,,,0.881,8.77
242,0,17,96.88,1,2,False,True,0.22,0.01,100.0,n,,,0.881,8.76
243,0,18,3.57,2,2,True,False,0.24,0.02,70.7,r,22.5,180,0.881,6.69
244,0,18,12.31,2,2,False,False,0.65,0.41,70.7,r,22.5,180,0.881,8.74
245,0,18,21.03,2,2,False,False,1.41,0.76,70.7,r,22.5,180,0.881,8.72
246,0,18,29.75,2,2,False,False,2.48,1.07,70.7,r,22.5,180,0.881,8.72
247,0,18,38.46,2,2,False,False,3.81,1.33,70.7,r,22.5,180,0.881,8.71
248,0,18,47.16,2,2,False,False,5.35,1.54,70.7,r,22.5,180,0.881,8.7
249,0,18,55.85,2,2,False,False,7.06,1.71,70.7,r,22.5,180,0.881,8.69
250,0,18,64.53,2,2,False,False,8.91,1.85,70.7,r,22.5,180,0.881,8.68
251,0,19,2.51,2,2,True,False,10.85,1.94,70.7,r,22.5,180,0.881,8.68
252,0,19,11.17,2,2,False,False,12.85,2.0,70.7,r,22.5,180,0.881,8.66
253,0,19,19.83,2,2,False,False,14.89,2.04,70.7,r,22.5,180,0.881,8.66
254,0,19,28.47,2,2,False,False,16.93,2.04,70.7,r,22.5,180,0.881,8.64
255,0,19,37.11,2,2,False,False,18.94,2.01,70.7,r,22.5,180,0.881,8.64
256,0,19,45.74,2,2,False,False,20.91,1.97,70.7,r,22.5,180,0.881,8.63
257,0,19,54.36,2,2,False,False,22.82,1.91,70.7,r,22.5,180,0.881,8.62
258,0,19,62.97,2,2,False,False,24.64,1.82,70.7,r,22.5,180,0.881,8.61
259,0,20,0.89,2,2,True,False,26.37,1.73,70.7,r,22.5,180,0.881,8.62
260,0,20,9.49,2,2,False,False,27.99,1.62,70.7,r,22.5,180,1.0,8.6
261,0,20,18.1,2,2,False,False,29.49,1.5,70.7,r,22.5,180,1.0,8.61
262,0,20,26.73,2,2,False,False,30.88,1.39,70.7,r,22.5,180,1.0,8.63
263,0,20,35.37,2,2,False,False,32.15,1.27,70.7,r,22.5,180,1.0,8.64
264,0,20,44.03,2,2,False,False,33.31,1.16,70.7,r,22.5,180,1.0,8.66
265,0,20,52.7,2,2,False,False,34.37,1.06,70.7,r,22.5,180,1.0,8.67
266,0,20,61.39,2,2,False,False,35.32,0.95,70.7,r,22.5,180,1.0,8.69
267,0,20,70.09,2,2,False,False,36.17,0.85,70.7,r,22.5,180,1.0,8.7
268,0,21,8.12,2,2,True,False,36.93,0.76,70.7,r,22.5,180,1.0,8.73
269,0,21,16.84,2,2,False,False,37.6,0.67,70.7,r,22.5,180,1.0,8.72
270,0,21,25.58,2,2,False,False,38.19,0.59,70.7,r,22.5,180,1.0,8.74
271,0,21,34.33,2,2,False,False,38.7,0.51,70.7,r,22.5,180,1.0,8.75
272,0,21,43.1,2,2,False,False,39.15,0.45,70.7,r,22.5,180,1.0,8.77
273,0,21,51.87,2,2,False,False,39.53,0.38,70.7,r,22.5,180,1.0,8.77
274,0,21,60.66,2,2,False,False,39.85,0.32,70.7,r,22.5,180,1.0,8.79
275,0,21,69.46,2,2,False,False,40.13,0.28,70.7,r,22.5,180,1.0,8.8
276,0,22,7.59,2,2,True,False,40.36,0.23,100.0,n,,,1.0,8.83
277,0,22,16.41,2,2,False,False,40.12,-0.24,100.0,n,,,1.0,8.82
278,0,22,25.24,2,2,False,False,39.46,-0.66,100.0,n,,,0.881,8.83
279,0,22,34.06,2,2,False,False,38.43,-1.03,100.0,n,,,0.881,8.82
280,0,22,42.87,2,2,False,False,37.09,-1.34,100.0,n,,,0.881,8.81
281,0,22,51.67,2,2,False,False,35.47,-1.62,100.0,n,,,0.881,8.8
282,0,22,60.46,2,2,False,False,33.62,-1.85,100.0,n,,,0.881,8.79
283,0,22,69.23,2,2,False,False,31.58,-2.04,100.0,n,,,0.881,8.77
284,0,22,77.99,2,2,False,False,29.41,-2.17,100.0,n,,,0.881,8.76
285,0,22,86.75,2,2,False,False,27.13,-2.28,100.0,n,,,0.881,8.76
286,0,22,95.49,2,2,False,False,24.78,-2.35,100.0,n,,,0.881,8.74
287,0,23,4.22,2,2,True,True,22.39,-2.39,100.0,n,,,0.881,8.73
288,0,23,12.94,2,2,False,True,20.0,-2.39,100.0,n,,,0.881,8.72
289,0,23,21.66,2,2,False,True,17.63,-2.37,100.0,n,,,0.881,8.72
290,0,23,30.36,2,2,False,True,15.3,-2.33,100.0,n,,,0.881,8.7
291,0,23,39.05,2,2,False,True,13.04,-2.26,100.0,n,,,0.881,8.69
292,0,23,47.74,2,2,False,True,10.87,-2.17,100.0,n,,,0.881,8.69
293,0,23,56.41,2,2,False,True,8.79,-2.08,100.0,n,,,0.881,8.67
294,0,23,65.08,2,2,False,True,6.83,-1.96,100.0,n,,,0.881,8.67
295,0,23,73.74,2,2,False,True,4.99,-1.84,100.0,n,,,0.881,8.66
296,0,23,82.39,2,2,False,True,3.28,-1.71,100.0,n,,,0.881,8.65
297,0,23,91.03,2,2,False,True,1.7,-1.58,100.0,n,,,0.881,8.64
298,0,23,99.66,2,2,False,True,0.27,-1.43,100.0,n,,,0.881,8.63
299,0,24,8.28,2,2,True,False,1.03,0.76,70.7,r,22.5,180,0.881,8.62
300,0,24,16.9,2,2,False,False,1.83,0.8,70.7,r,22.5,180,0.881,8.62
301,0,24,25.51,2,2,False,False,2.17,0.34,70.7,r,22.5,180,0.881,8.61
302,0,24,34.11,2,2,False,False,2.11,-0.06,70.7,r,22.5,180,0.881,8.6
303,0,24,42.7,2,2,False,False,1.68,-0.43,70.7,r,22.5,180,0.881,8.59
304,0,24,51.29,2,2,False,False,0.94,-0.74,70.7,r,22.5,180,0.881,8.59
305,0,24,59.87,2,2,False,False,0.09,-0.85,70.7,r,22.5,180,0.881,8.58
306,0,24,68.44,2,2,False,False,1.34,1.25,70.7,r,22.5,180,0.881,8.57
307,0,25,6.32,2,2,True,False,2.8,1.46,70.7,r,22.5,180,0.881,8.58
308,0,25,14.88,2,2,False,False,4.41,1.61,70.7,r,22.5,180,0.881,8.56
309,0,25,23.44,2,2,False,False,6.15,1.74,70.7,r,22.5,180,0.881,8.56
310,0,25,31.98,2,2,False,False,7.98,1.83,70.7,r,22.5,180,0.881,8.54
311,0,25,40.52,2,2,False,False,9.86,1.88,70.7,r,22.5,180,0.881,8.54
312,0,25,49.06,2,2,False,False,11.78,1.92,70.7,r,22.5,180,0.881,8.54
313,0,25,57.59,2,2,False,False,13.7,1.92,70.7,r,22.5,180,0.881,8.53
314,0,25,66.11,2,2,False,False,15.6,1.9,70.7,r,22.5,180,0.881,8.52
315,0,26,3.94,2,2,True,False,17.46,1.86,70.7,r,22.5,180,0.881,8.53
316,0,26,12.45,2,2,False,False,19.27,1.81,70.7,r,22.5,180,1.0,8.51
317,0,26,20.98,2,2,False,False,21.0,1.73,70.7,r,22.5,180,1.0,8.53
318,0,26,29.52,2,2,False,False,22.66,1.66,70.7,r,22.5,180,1.0,8.54
319,0,26,38.08,2,2,False,False,24.23,1.57,70.7,r,22.5,180,1.0,8.56
320,0,26,46.66,2,2,False,False,25.72,1.49,70.7,r,22.5,180,1.0,8.58
321,0,26,55.26,2,2,False,False,27.12,1.4,70.7,r,22.5,180,1.0,8.6
322,0,26,63.87,2,2,False,False,28.44,1.32,70.7,r,22.5,180,1.0,8.61
323,0,27,1.8,2,2,True,False,29.67,1.23,70.7,r,22.5,180,1.0,8.63
324,0,27,10.44,2,2,False,False,30.81,1.14,70.7,r,22.5,180,1.0,8.64
325,0,27,19.1,2,2,False,False,31.87,1.06,70.7,r,22.5,180,1.0,8.66
326,0,27,27.77,2,2,False,False,32.84,0.97,70.7,r,22.5,180,1.0,8.67
327,0,27,36.45,2,2,False,False,33.74,0.9,70.7,r,22.5,180,1.0,8.68
328,0,27,45.14,2,2,False,False,34.55,0.81,70.7,r,22.5,180,1.0,8.69
329,0,27,53.85,2,2,False,False,35.3,0.75,70.7,r,22.5,180,1.0,8.71
330,0,27,62.58,2,2,False,False,35.97,0.67,70.7,r,22.5,180,1.0,8.73
331,0,28,0.63,2,2,True,False,36.58,0.61,100.0,n,,,1.0,8.75
332,0,28,9.38,2,2,False,False,36.72,0.14,100.0,n,,,1.0,8.75
333,0,28,18.14,2,2,False,False,36.46,-0.26,100.0,n,,,1.0,8.76
334,0,28,26.91,2,2,False,False,35.82,-0.64,100.0,n,,,1.0,8.77
335,0,28,35.69,2,2,False,False,34.85,-0.97,100.0,n,,,1.0,8.78
336,0,28,44.49,2,2,False,False,33.59,-1.26,100.0,n,,,1.0,8.8
337,0,28,53.3,2,2,False,False,32.09,-1.5,100.0,n,,,1.0,8.81
338,0,28,62.12,2,2,False,False,30.39,-1.7,100.0,n,,,1.0,8.82
339,0,28,70.95,2,2,False,False,28.52,-1.87,100.0,n,,,1.0,8.83
340,0,28,79.79,2,2,False,False,26.53,-1.99,100.0,n,,,1.0,8.84
341,0,28,88.64,2,2,False,False,24.44,-2.09,100.0,n,,,1.0,8.85
342,0,28,97.5,2,2,False,False,22.29,-2.15,100.0,n,,,1.0,8.86
343,0,29,6.37,2,2,True,False,20.11,-2.18,100.0,n,,,1.0,8.87
344,0,29,15.25,2,2,False,False,17.92,-2.19,100.0,n,,,1.0,8.88
345,0,29,24.14,2,2,False,False,15.75,-2.17,100.0,n,,,1.0,8.89
346,0,29,33.05,2,2,False,False,13.63,-2.12,100.0,n,,,1.0,8.91
347,0,29,41.96,2,2,False,False,11.56,-2.07,100.0,n,,,1.0,8.91
348,0,29,50.87,2,2,False,False,9.57,-1.99,100.0,n,,,1.0,8.91
349,0,29,59.8,2,2,False,False,7.68,-1.89,100.0,n,,,1.0,8.93
350,0,29,68.74,2,2,False,False,5.89,-1.79,100.0,n,,,1.0,8.94
351,0,29,77.68,2,2,False,False,4.21,-1.68,100.0,n,,,1.0,8.94
352,0,29,86.64,2,2,False,False,2.65,-1.56,100.0,n,,,1.0,8.96
353,0,29,95.6,2,2,False,False,1.22,-1.43,100.0,n,,,1.0,8.96
354,0,30,4.57,2,2,True,False,0.08,-1.14,100.0,n,,,1.0,8.97
355,0,30,13.55,2,2,False,False,1.25,1.17,100.0,n,,,1.0,8.98
356,0,30,22.53,2,2,False,False,2.29,1.04,100.0,n,,,1.0,8.98
357,0,30,31.53,2,2,False,False,3.2,0.91,100.0,n,,,1.0,9.0
358,0,30,40.53,2,2,False,False,3.98,0.78,100.0,n,,,1.0,9.0
359,0,30,49.53,2,2,False,False,4.64,0.66,100.0,n,,,1.0,9.0
360,0,30,58.55,2,2,False,False,5.18,0.54,100.0,n,,,1.0,9.02
361,0,30,67.57,2,2,False,False,5.61,0.43,100.0,n,,,1.0,9.02
362,0,30,76.6,2,2,False,False,5.94,0.33,100.0,n,,,1.0,9.03
363,0,30,85.63,2,2,False,False,6.16,0.22,100.0,n,,,1.0,9.03
364,0,30,94.67,2,2,False,False,6.29,0.13,100.0,n,,,1.0,9.04
365,0,31,3.72,2,2,True,False,6.34,0.05,100.0,n,,,1.0,9.05
366,0,31,12.78,2,2,False,False,6.31,-0.03,100.0,n,,,1.0,9.06
367,0,31,21.84,2,2,False,False,6.21,-0.1,100.0,n,,,1.0,9.06
368,0,31,30.9,2,2,False,False,6.05,-0.16,100.0,n,,,1.0,9.06
369,0,31,39.98,2,2,False,False,5.84,-0.21,100.0,n,,,1.0,9.08
370,0,31,49.05,2,2,False,False,5.59,-0.25,100.0,n,,,1.0,9.07
371,0,31,58.14,2,2,False,False,5.29,-0.3,100.0,n,,,1.0,9.09
372,0,31,67.23,2,2,False,False,4.97,-0.32,100.0,n,,,1.0,9.09
373,0,31,76.32,2,2,False,False,4.62,-0.35,100.0,n,,,1.0,9.09
374,0,31,85.42,2,2,False,False,4.25,-0.37,100.0,n,,,1.0,9.1
375,0,31,94.53,2,2,False,False,3.88,-0.37,100.0,n,,,1.0,9.11
376,1,0,3.64,2,2,True,False,3.49,-0.39,100.0,n,,,1.0,9.11
377,1,0,12.75,2,2,False,False,3.11,-0.38,100.0,n,,,1.0,9.11
378,1,0,21.87,2,2,False,False,2.72,-0.39,100.0,n,,,0.881,9.12
379,1,0,30.97,2,2,False,False,2.35,-0.37,100.0,n,,,0.881,9.1
380,1,0,40.06,2,2,False,False,1.98,-0.37,100.0,n,,,0.881,9.09
381,1,0,49.13,2,2,False,False,1.63,-0.35,100.0,n,,,0.881,9.07
382,1,0,58.18,2,2,False,False,1.3,-0.33,100.0,n,,,0.881,9.05
383,1,0,67.21,2,2,False,False,0.98,-0.32,100.0,n,,,0.881,9.03
384,1,0,76.23,2,2,False,False,0.69,-0.29,100.0,n,,,0.881,9.02
385,1,0,85.23,2,2,False,False,0.42,-0.27,100.0,n,,,0.881,9.0
386,1,0,94.22,2,2,False,False,0.17,-0.25,100.0,n,,,0.881,8.99
387,1,1,3.19,2,2,True,True,0.06,-0.11,100.0,n,,,0.881,8.97
388,1,1,12.14,2,2,False,True,0.27,0.21,100.0,n,,,0.881,8.95
389,1,1,21.08,2,2,False,True,0.45,0.18,100.0,n,,,0.881,8.94
390,1,1,30.01,2,2,False,True,0.6,0.15,100.0,n,,,0.881,8.93
391,1,1,38.92,2,2,False,True,0.74,0.14,100.0,n,,,0.881,8.91
392,1,1,47.82,2,2,False,True,0.85,0.11,100.0,n,,,0.881,8.9
393,1,1,56.71,2,2,False,True,0.94,0.09,100.0,n,,,0.881,8.89
394,1,1,65.58,2,2,False,True,1.02,0.08,100.0,n,,,0.881,8.87
395,1,1,74.44,2,2,False,True,1.07,0.05,100.0,n,,,0.881,8.86
396,1,1,83.29,2,2,False,True,1.11,0.04,100.0,n,,,0.881,8.85
397,1,1,92.12,2,2,False,True,1.13,0.02,100.0,n,,,0.881,8.83
398,1,2,0.95,2,2,True,False,1.14,0.01,70.7,r,22.5,180,0.881,8.83
399,1,2,9.76,2,2,False,False,1.56,0.42,70.7,r,22.5,180,0.881,8.81
400,1,2,18.55,2,2,False,False,2.36,0.8,70.7,r,22.5,180,0.881,8.79
401,1,2,27.34,2,2,False,False,3.47,1.11,70.7,r,22.5,180,0.881,8.79
402,1,2,36.12,2,2,False,False,4.86,1.39,70.7,r,22.5,180,0.881,8.78
403,1,2,44.88,2,2,False,False,6.46,1.6,70.7,r,22.5,180,0.881,8.76
404,1,2,53.64,2,2,False,False,8.25,1.79,70.7,r,22.5,180,0.881,8.76
405,1,2,62.38,2,2,False,False,10.17,1.92,70.7,r,22.5,180,0.881,8.74
406,1,3,0.43,2,2,True,False,12.2,2.03,70.7,r,22.5,180,0.881,8.75
407,1,3,9.15,2,2,False,False,14.28,2.08,70.7,r,22.5,180,0.881,8.72
408,1,3,17.87,2,2,False,False,16.4,2.12,70.7,r,22.5,180,0.881,8.72
409,1,3,26.57,2,2,False,False,18.52,2.12,70.7,r,22.5,180,0.881,8.7
410,1,3,35.27,2,2,False,False,20.61,2.09,70.7,r,22.5,180,0.881,8.7
411,1,3,43.95,2,2,False,False,22.65,2.04,70.7,r,22.5,180,0.881,8.68
412,1,3,52.63,2,2,False,False,24.62,1.97,70.7,r,22.5,180,0.881,8.68
413,1,3,61.3,2,2,False,False,26.5,1.88,70.7,r,22.5,180,0.881,8.67
414,1,3,69.96,2,2,False,False,28.28,1.78,70.7,r,22.5,180,0.881,8.66
415,1,4,7.92,2,2,True,False,29.95,1.67,70.7,r,22.5,180,0.881,8.66
416,1,4,16.56,2,2,False,False,31.49,1.54,70.7,r,22.5,180,1.0,8.64
417,1,4,25.22,2,2,False,False,32.9,1.41,70.7,r,22.5,180,1.0,8.66
418,1,4,33.89,2,2,False,False,34.18,1.28,70.7,r,22.5,180,1.0,8.67
419,1,4,42.57,2,2,False,False,35.33,1.15,70.7,r,22.5,180,1.0,8.68
420,1,4,51.27,2,2,False,False,36.37,1.04,70.7,r,22.5,180,1.0,8.7
421,1,4,59.98,2,2,False,False,37.29,0.92,70.7,r,22.5,180,1.0,8.71
422,1,4,68.71,2,2,False,False,38.1,0.81,70.7,r,22.5,180,1.0,8.73
423,1,5,6.76,2,2,True,False,38.82,0.72,70.7,r,22.5,180,1.0,8.75
424,1,5,15.51,2,2,False,False,39.43,0.61,70.7,r,22.5,180,1.0,8.75
425,1,5,24.27,2,2,False,False,39.96,0.53,70.7,r,22.5,180,1.0,8.76
426,1,5,33.05,2,2,False,False,40.41,0.45,70.7,r,22.5,180,1.0,8.78
427,1,5,41.84,2,2,False,False,40.78,0.37,70.7,r,22.5,180,1.0,8.79
428,1,5,50.63,2,2,False,False,41.09,0.31,70.7,r,22.5,180,1.0,8.79
429,1,5,59.44,2,2,False,False,41.34,0.25,70.7,r,22.5,180,1.0,8.81
430,1,5,68.27,2,2,False,False,41.54,0.2,70.7,r,22.5,180,1.0,8.83
431,1,6,6.41,2,2,True,False,41.69,0.15,100.0,n,,,1.0,8.84
432,1,6,15.25,2,2,False,False,41.37,-0.32,100.0,n,,,1.0,8.84
433,1,6,24.11,2,2,False,False,40.62,-0.75,100.0,n,,,0.881,8.86
434,1,6,32.95,2,2,False,False,39.5,-1.12,100.0,n,,,0.881,8.84
435,1,6,41.78,2,2,False,False,38.05,-1.45,100.0,n,,,0.881,8.83
436,1,6,50.59,2,2,False,False,36.33,-1.72,100.0,n,,,0.881,8.81
437,1,6,59.4,2,2,False,False,34.38,-1.95,100.0,n,,,0.881,8.81
438,1,6,68.19,2,2,False,False,32.24,-2.14,100.0,n,,,0.881,8.79
439,1,6,76.97,2,2,False,False,29.97,-2.27,100.0,n,,,0.881,8.78
440,1,6,85.74,2,2,False,False,27.59,-2.38,100.0,n,,,0.881,8.77
441,1,6,94.5,2,2,False,False,25.15,-2.44,100.0,n,,,0.881,8.76
442,1,7,3.25,2,2,True,True,22.68,-2.47,100.0,n,,,0.881,8.75
443,1,7,11.99,2,2,False,True,20.21,-2.47,100.0,n,,,0.881,8.74
444,1,7,20.72,2,2,False,True,17.76,-2.45,100.0,n,,,0.881,8.73
445,1,7,29.44,2,2,False,True,15.36,-2.4,100.0,n,,,0.881,8.72
446,1,7,38.14,2,2,False,True,13.04,-2.32,100.0,n,,,0.881,8.7
447,1,7,46.84,2,2,False,True,10.81,-2.23,100.0,n,,,0.881,8.7
448,1,7,55.53,2,2,False,True,8.68,-2.13,100.0,n,,,0.881,8.69
449,1,7,64.21,2,2,False,True,6.67,-2.01,100.0,n,,,0.881,8.68
450,1,7,72.89,2,2,False,True,4.79,-1.88,100.0,n,,,0.881,8.68
451,1,7,81.55,2,2,False,True,3.05,-1.74,100.0,n,,,0.881,8.66
452,1,7,90.2,2,2,False,True,1.44,-1.61,100.0,n,,,0.881,8.65
453,1,7,98.85,2,2,False,True,0.01,-1.43,100.0,n,,,0.881,8.65
454,1,8,7.49,2,2,True,False,1.33,1.32,70.7,r,22.5,180,0.881,8.64
455,1,8,16.12,2,2,False,False,2.13,0.8,70.7,r,22.5,180,0.881,8.63
456,1,8,24.74,2,2,False,False,2.48,0.35,70.7,r,22.5,180,0.881,8.62
457,1,8,33.35,2,2,False,False,2.4,-0.08,70.7,r,22.5,180,0.881,8.61
458,1,8,41.96,2,2,False,False,1.96,-0.44,70.7,r,22.5,180,0.881,8.61
459,1,8,50.55,2,2,False,False,1.19,-0.77,70.7,r,22.5,180,0.881,8.59
460,1,8,59.15,2,2,False,False,0.14,-1.05,70.7,r,22.5,180,0.881,8.6
461,1,8,67.73,2,2,False,False,1.15,1.01,70.7,r,22.5,180,0.881,8.58
462,1,9,5.62,2,2,True,False,2.64,1.49,70.7,r,22.5,180,0.881,8.59
463,1,9,14.19,2,2,False,False,4.29,1.65,70.7,r,22.5,180,0.881,8.57
464,1,9,22.76,2,2,False,False,6.07,1.78,70.7,r,22.5,180,0.881,8.57
465,1,9,31.31,2,2,False,False,7.93,1.86,70.7,r,22.5,180,0.881,8.55
466,1,9,39.86,2,2,False,False,9.86,1.93,70.7,r,22.5,180,0.881,8.55
467,1,9,48.41,2,2,False,False,11.81,1.95,70.7,r,22.5,180,0.881,8.55
468,1,9,56.94,2,2,False,False,13.77,1.96,70.7,r,22.5,180,0.881,8.53
469,1,9,65.48,2,2,False,False,15.71,1.94,70.7,r,22.5,180,0.881,8.54
470,1,10,3.32,2,2,True,False,17.61,1.9,70.7,r,22.5,180,0.881,8.54
471,1,10,11.84,2,2,False,False,19.45,1.84,70.7,r,22.5,180,1.0,8.52
472,1,10,20.37,2,2,False,False,21.21,1.76,70.7,r,22.5,180,1.0,8.53
473,1,10,28.93,2,2,False,False,22.9,1.69,70.7,r,22.5,180,1.0,8.56
474,1,10,37.5,2,2,False,False,24.5,1.6,70.7,r,22.5,180,1.0,8.57
475,1,10,46.08,2,2,False,False,26.02,1.52,70.7,r,22.5,180,1.0,8.58
476,1,10,54.69,2,2,False,False,27.44,1.42,70.7,r,22.5,180,1.0,8.61
477,1,10,63.3,2,2,False,False,28.78,1.34,70.7,r,22.5,180,1.0,8.61
478,1,11,1.25,2,2,True,False,30.02,1.24,70.7,r,22.5,180,1.0,8.65
479,1,11,9.9,2,2,False,False,31.18,1.16,70.7,r,22.5,180,1.0,8.65
480,1,11,18.56,2,2,False,False,32.24,1.06,70.7,r,22.5,180,1.0,8.66
481,1,11,27.23,2,2,False,False,33.23,0.99,70.7,r,22.5,180,1.0,8.67
482,1,11,35.92,2,2,False,False,34.13,0.9,70.7,r,22.5,180,1.0,8.69
483,1,11,44.63,2,2,False,False,34.95,0.82,70.7,r,22.5,180,1.0,8.71
484,1,11,53.34,2,2,False,False,35.69,0.74,70.7,r,22.5,180,1.0,8.71
485,1,11,62.07,2,2,False,False,36.37,0.68,70.7,r,22.5,180,1.0,8.73
486,1,12,0.13,2,2,True,False,36.97,0.6,100.0,n,,,1.0,8.76
487,1,12,8.89,2,2,False,False,37.11,0.14,100.0,n,,,1.0,8.76
488,1,12,17.65,2,2,False,False,36.83,-0.28,100.0,n,,,1.0,8.76
489,1,12,26.43,2,2,False,False,36.18,-0.65,100.0,n,,,1.0,8.78
490,1,12,35.22,2,2,False,False,35.19,-0.99,100.0,n,,,1.0,8.79
491,1,12,44.03,2,2,False,False,33.92,-1.27,100.0,n,,,1.0,8.81
492,1,12,52.84,2,2,False,False,32.4,-1.52,100.0,n,,,1.0,8.81
493,1,12,61.66,2,2,False,False,30.67,-1.73,100.0,n,,,1.0,8.82
494,1,12,70.5,2,2,False,False,28.78,-1.89,100.0,n,,,1.0,8.84
495,1,12,79.35,2,2,False,False,26.76,-2.02,100.0,n,,,1.0,8.85
496,1,12,88.2,2,2,False,False,24.65,-2.11,100.0,n,,,1.0,8.85
497,1,12,97.07,2,2,False,False,22.47,-2.18,100.0,n,,,1.0,8.87
498,1,13,5.95,2,2,True,False,20.27,-2.2,100.0,n,,,1.0,8.88
499,1,13,14.83,2,2,False,False,18.05,-2.22,100.0,n,,,1.0,8.88
500,1,13,23.73,2,2,False,False,15.86,-2.19,100.0,n,,,1.0,8.9
501,1,13,32.63,2,2,False,False,13.72,-2.14,100.0,n,,,1.0,8.9
502,1,13,41.55,2,2,False,False,11.63,-2.09,100.0,n,,,1.0,8.92
503,1,13,50.47,2,2,False,False,9.62,-2.01,100.0,n,,,1.0,8.92
504,1,13,59.41,2,2,False,False,7.71,-1.91,100.0,n,,,1.0,8.94
505,1,13,68.35,2,2,False,False,5.9,-1.81,100.0,n,,,1.0,8.94
506,1,13,77.3,2,2,False,False,4.21,-1.69,100.0,n,,,1.0,8.95
507,1,13,86.25,2,2,False,False,2.64,-1.57,100.0,n,,,1.0,8.95
508,1,13,95.22,2,2,False,False,1.19,-1.45,100.0,n,,,1.0,8.97
509,1,14,4.19,2,2,True,False,0.12,-1.07,100.0,n,,,1.0,8.97
510,1,14,13.18,2,2,False,False,1.3,1.18,100.0,n,,,1.0,8.99
511,1,14,22.17,2,2,False,False,2.35,1.05,100.0,n,,,1.0,8.99
512,1,14,31.16,2,2,False,False,3.26,0.91,100.0,n,,,1.0,8.99
513,1,14,40.17,2,2,False,False,4.05,0.79,100.0,n,,,1.0,9.01
514,1,14,49.18,2,2,False,False,4.71,0.66,100.0,n,,,1.0,9.01
515,1,14,58.2,2,2,False,False,5.26,0.55,100.0,n,,,1.0,9.02
516,1,14,67.22,2,2,False,False,5.69,0.43,100.0,n,,,1.0,9.02
517,1,14,76.25,2,2,False,False,6.01,0.32,100.0,n,,,1.0,9.03
518,1,14,85.29,2,2,False,False,6.23,0.22,100.0,n,,,1.0,9.04
519,1,14,94.34,2,2,False,False,6.36,0.13,100.0,n,,,1.0,9.05
520,1,15,3.39,2,2,True,False,6.41,0.05,100.0,n,,,1.0,9.05
521,1,15,12.45,2,2,False,False,6.38,-0.03,100.0,n,,,1.0,9.06
522,1,15,21.51,2,2,False,False,6.28,-0.1,100.0,n,,,1.0,9.06
523,1,15,30.58,2,2,False,False,6.12,-0.16,100.0,n,,,1.0,9.07
524,1,15,39.65,2,2,False,False,5.9,-0.22,100.0,n,,,1.0,9.07
525,1,15,48.73,2,2,False,False,5.64,-0.26,100.0,n,,,1.0,9.08
526,1,15,57.82,2,2,False,False,5.34,-0.3,100.0,n,,,1.0,9.09
527,1,15,66.91,2,2,False,False,5.01,-0.33,100.0,n,,,1.0,9.09
528,1,15,76.01,2,2,False,False,4.66,-0.35,100.0,n,,,1.0,9.1
529,1,15,85.11,2,2,False,False,4.29,-0.37,100.0,n,,,1.0,9.1
530,1,15,94.22,2,2,False,False,3.91,-0.38,100.0,n,,,1.0,9.11
531,1,16,3.33,2,2,True,False,3.52,-0.39,100.0,n,,,1.0,9.11
532,1,16,12.45,2,2,False,False,3.13,-0.39,100.0,n,,,1.0,9.12
533,1,16,21.57,2,2,False,False,2.74,-0.39,100.0,n,,,0.881,9.12
534,1,16,30.68,2,2,False,False,2.36,-0.38,100.0,n,,,0.881,9.11
535,1,16,39.77,2,2,False,False,1.99,-0.37,100.0,n,,,0.881,9.09
536,1,16,48.84,2,2,False,False,1.64,-0.35,100.0,n,,,0.881,9.07
537,1,16,57.89,2,2,False,False,1.3,-0.34,100.0,n,,,0.881,9.05
538,1,16,66.93,2,2,False,False,0.98,-0.32,100.0,n,,,0.881,9.04
539,1,16,75.94,2,2,False,False,0.69,-0.29,100.0,n,,,0.881,9.01
540,1,16,84.95,2,2,False,False,0.41,-0.28,100.0,n,,,0.881,9.01
541,1,16,93.94,2,2,False,False,0.16,-0.25,100.0,n,,,0.881,8.99
542,1,17,2.91,2,2,True,True,0.07,-0.09,100.0,n,,,0.881,8.97
543,1,17,11.87,2,2,False,True,0.28,0.21,100.0,n,,,0.881,8.96
544,1,17,20.81,2,2,False,True,0.46,0.18,100.0,n,,,0.881,8.94
545,1,17,29.74,2,2,False,True,0.62,0.16,100.0,n,,,0.881,8.93
546,1,17,38.66,2,2,False,True,0.75,0.13,100.0,n,,,0.881,8.92
547,1,17,47.56,2,2,False,True,0.87,0.12,100.0,n,,,0.881,8.9
548,1,17,56.44,2,2,False,True,0.96,0.09,100.0,n,,,0.881,8.88
549,1,17,65.32,2,2,False,True,1.03,0.07,100.0,n,,,0.881,8.88
550,1,17,74.18,2,2,False,True,1.09,0.06,100.0,n,,,0.881,8.86
551,1,17,83.03,2,2,False,True,1.12,0.03,100.0,n,,,0.881,8.85
552,1,17,91.87,2,2,False,True,1.14,0.02,100.0,n,,,0.881,8.84
553,1,18,0.69,2,2,True,False,1.15,0.01,70.7,r,22.5,180,0.881,8.82
554,1,18,9.5,2,2,False,False,1.58,0.43,70.7,r,22.5,180,0.881,8.81
555,1,18,18.3,2,2,False,False,2.37,0.79,70.7,r,22.5,180,0.881,8.8
556,1,18,27.09,2,2,False,False,3.49,1.12,70.7,r,22.5,180,0.881,8.79
557,1,18,35.87,2,2,False,False,4.87,1.38,70.7,r,22.5,180,0.881,8.78
558,1,18,44.64,2,2,False,False,6.48,1.61,70.7,r,22.5,180,0.881,8.77
559,1,18,53.39,2,2,False,False,8.27,1.79,70.7,r,22.5,180,0.881,8.75
560,1,18,62.14,2,2,False,False,10.2,1.93,70.7,r,22.5,180,0.881,8.75
561,1,19,0.19,2,2,True,False,12.22,2.02,70.7,r,22.5,180,0.881,8.75
562,1,19,8.91,2,2,False,False,14.31,2.09,70.7,r,22.5,180,0.881,8.72
563,1,19,17.63,2,2,False,False,16.43,2.12,70.7,r,22.5,180,0.881,8.72
564,1,19,26.33,2,2,False,False,18.55,2.12,70.7,r,22.5,180,0.881,8.7
565,1,19,35.03,2,2,False,False,20.64,2.09,70.7,r,22.5,180,0.881,8.7
566,1,19,43.72,2,2,False,False,22.68,2.04,70.7,r,22.5,180,0.881,8.69
567,1,19,52.39,2,2,False,False,24.66,1.98,70.7,r,22.5,180,0.881,8.67
568,1,19,61.06,2,2,False,False,26.54,1.88,70.7,r,22.5,180,0.881,8.67
569,1,19,69.72,2,2,False,False,28.32,1.78,70.7,r,22.5,180,0.881,8.66
570,1,20,7.69,2,2,True,False,29.99,1.67,70.7,r,22.5,180,0.881,8.67
571,1,20,16.35,2,2,False,False,31.53,1.54,70.7,r,22.5,180,1.0,8.66
572,1,20,25.03,2,2,False,False,32.95,1.42,70.7,r,22.5,180,1.0,8.68
573,1,20,33.73,2,2,False,False,34.24,1.29,70.7,r,22.5,180,1.0,8.7
574,1,20,42.44,2,2,False,False,35.42,1.18,70.7,r,22.5,180,1.0,8.71
575,1,20,51.16,2,2,False,False,36.48,1.06,70.7,r,22.5,180,1.0,8.72
576,1,20,59.89,2,2,False,False,37.43,0.95,70.7,r,22.5,180,1.0,8.73
577,1,20,68.64,2,2,False,False,38.28,0.85,70.7,r,22.5,180,1.0,8.75
578,1,21,6.71,2,2,True,False,39.03,0.75,70.7,r,22.5,180,1.0,8.77
579,1,21,15.48,2,2,False,False,39.68,0.65,70.7,r,22.5,180,1.0,8.77
580,1,21,24.26,2,2,False,False,40.24,0.56,70.7,r,22.5,180,1.0,8.78
581,1,21,33.06,2,2,False,False,40.73,0.49,70.7,r,22.5,180,1.0,8.8
582,1,21,41.86,2,2,False,False,41.14,0.41,70.7,r,22.5,180,1.0,8.8
583,1,21,50.68,2,2,False,False,41.48,0.34,70.7,r,22.5,180,1.0,8.82
584,1,21,59.51,2,2,False,False,41.76,0.28,70.7,r,22.5,180,1.0,8.83
585,1,21,68.35,2,2,False,False,41.99,0.23,70.7,r,22.5,180,1.0,8.84
586,1,22,6.51,2,2,True,False,42.18,0.19,100.0,n,,,1.0,8.86
587,1,22,15.37,2,2,False,False,41.87,-0.31,100.0,n,,,1.0,8.86
588,1,22,24.22,2,2,False,False,41.14,-0.73,100.0,n,,,0.881,8.85
589,1,22,33.05,2,2,False,False,40.02,-1.12,100.0,n,,,0.881,8.83
590,1,22,41.87,2,2,False,False,38.57,-1.45,100.0,n,,,0.881,8.82
591,1,22,50.68,2,2,False,False,36.85,-1.72,100.0,n,,,0.881,8.81
592,1,22,59.48,2,2,False,False,34.88,-1.97,100.0,n,,,0.881,8.8
593,1,22,68.27,2,2,False,False,32.74,-2.14,100.0,n,,,0.881,8.79
594,1,22,77.05,2,2,False,False,30.44,-2.3,100.0,n,,,0.881,8.78
595,1,22,85.81,2,2,False,False,28.04,-2.4,100.0,n,,,0.881,8.76
596,1,22,94.57,2,2,False,False,25.58,-2.46,100.0,n,,,0.881,8.76
597,1,23,3.31,2,2,True,True,23.08,-2.5,100.0,n,,,0.881,8.74
598,1,23,12.04,2,2,False,True,20.58,-2.5,100.0,n,,,0.881,8.73
599,1,23,20.77,2,2,False,True,18.1,-2.48,100.0,n,,,0.881,8.73
600,1,23,29.48,2,2,False,True,15.68,-2.42,100.0,n,,,0.881,8.71
601,1,23,38.19,2,2,False,True,13.32,-2.36,100.0,n,,,0.881,8.71
602,1,23,46.88,2,2,False,True,11.06,-2.26,100.0,n,,,0.881,8.69
603,1,23,55.57,2,2,False,True,8.9,-2.16,100.0,n,,,0.881,8.69
604,1,23,64.24,2,2,False,True,6.87,-2.03,100.0,n,,,0.881,8.67
605,1,23,72.91,2,2,False,True,4.96,-1.91,100.0,n,,,0.881,8.67
606,1,23,81.57,2,2,False,True,3.18,-1.78,100.0,n,,,0.881,8.66
607,1,23,90.22,2,2,False,True,1.56,-1.62,100.0,n,,,0.881,8.65
608,1,23,98.86,2,2,False,True,0.07,-1.49,100.0,n,,,0.881,8.64
609,1,24,7.49,2,2,True,False,1.26,1.19,70.7,r,22.5,180,0.881,8.63
610,1,24,16.12,2,2,False,False,2.09,0.83,70.7,r,22.5,180,0.881,8.63
611,1,24,24.74,2,2,False,False,2.46,0.37,70.7,r,22.5,180,0.881,8.62
612,1,24,33.35,2,2,False,False,2.41,-0.05,70.7,r,22.5,180,0.881,8.61
613,1,24,41.95,2,2,False,False,1.99,-0.42,70.7,r,22.5,180,0.881,8.6
614,1,24,50.55,2,2,False,False,1.24,-0.75,70.7,r,22.5,180,0.881,8.6
615,1,24,59.13,2,2,False,False,0.21,-1.03,70.7,r,22.5,180,0.881,8.58
616,1,24,67.71,2,2,False,False,1.07,0.86,70.7,r,22.5,180,0.881,8.58
617,1,25,5.6,2,2,True,False,2.54,1.47,70.7,r,22.5,180,0.881,8.59
618,1,25,14.17,2,2,False,False,4.18,1.64,70.7,r,22.5,180,0.881,8.57
619,1,25,22.73,2,2,False,False,5.94,1.76,70.7,r,22.5,180,0.881,8.56
620,1,25,31.28,2,2,False,False,7.79,1.85,70.7,r,22.5,180,0.881,8.55
621,1,25,39.83,2,2,False,False,9.71,1.92,70.7,r,22.5,180,0.881,8.55
622,1,25,48.37,2,2,False,False,11.65,1.94,70.7,r,22.5,180,0.881,8.54
623,1,25,56.91,2,2,False,False,13.61,1.96,70.7,r,22.5,180,0.881,8.54
624,1,25,65.44,2,2,False,False,15.54,1.93,70.7,r,22.5,180,0.881,8.53
625,1,26,3.27,2,2,True,False,17.43,1.89,70.7,r,22.5,180,0.881,8.53
626,1,26,11.79,2,2,False,False,19.27,1.84,70.7,r,22.5,180,1.0,8.52
627,1,26,20.33,2,2,False,False,21.03,1.76,70.7,r,22.5,180,1.0,8.54
628,1,26,28.88,2,2,False,False,22.72,1.69,70.7,r,22.5,180,1.0,8.55
629,1,26,37.44,2,2,False,False,24.32,1.6,70.7,r,22.5,180,1.0,8.56
630,1,26,46.03,2,2,False,False,25.84,1.52,70.7,r,22.5,180,1.0,8.59
631,1,26,54.63,2,2,False,False,27.26,1.42,70.7,r,22.5,180,1.0,8.6
632,1,26,63.24,2,2,False,False,28.6,1.34,70.7,r,22.5,180,1.0,8.61
633,1,27,1.19,2,2,True,False,29.85,1.25,70.7,r,22.5,180,1.0,8.65
634,1,27,9.83,2,2,False,False,31.01,1.16,70.7,r,22.5,180,1.0,8.64
635,1,27,18.49,2,2,False,False,32.09,1.08,70.7,r,22.5,180,1.0,8.66
636,1,27,27.16,2,2,False,False,33.07,0.98,70.7,r,22.5,180,1.0,8.67
637,1,27,35.85,2,2,False,False,33.98,0.91,70.7,r,22.5,180,1.0,8.69
638,1,27,44.55,2,2,False,False,34.81,0.83,70.7,r,22.5,180,1.0,8.7
639,1,27,53.27,2,2,False,False,35.56,0.75,70.7,r,22.5,180,1.0,8.72
640,1,27,62.0,2,2,False,False,36.24,0.68,70.7,r,22.5,180,1.0,8.73
641,1,28,0.05,2,2,True,False,36.85,0.61,100.0,n,,,1.0,8.75
642,1,28,8.8,2,2,False,False,37.0,0.15,100.0,n,,,1.0,8.75
643,1,28,17.57,2,2,False,False,36.73,-0.27,100.0,n,,,1.0,8.77
644,1,28,26.35,2,2,False,False,36.08,-0.65,100.0,n,,,1.0,8.78
645,1,28,35.13,2,2,False,False,35.1,-0.98,100.0,n,,,1.0,8.78
646,1,28,43.94,2,2,False,False,33.84,-1.26,100.0,n,,,1.0,8.81
647,1,28,52.75,2,2,False,False,32.32,-1.52,100.0,n,,,1.0,8.81
648,1,28,61.57,2,2,False,False,30.61,-1.71,100.0,n,,,1.0,8.82
649,1,28,70.4,2,2,False,False,28.73,-1.88,100.0,n,,,1.0,8.83
650,1,28,79.25,2,2,False,False,26.72,-2.01,100.0,n,,,1.0,8.85
651,1,28,88.1,2,2,False,False,24.61,-2.11,100.0,n,,,1.0,8.85
652,1,28,96.97,2,2,False,False,22.44,-2.17,100.0,n,,,1.0,8.87
653,1,29,5.85,2,2,True,False,20.24,-2.2,100.0,n,,,1.0,8.88
654,1,29,14.73,2,2,False,False,18.04,-2.2,100.0,n,,,1.0,8.88
655,1,29,23.62,2,2,False,False,15.86,-2.18,100.0,n,,,1.0,8.89
656,1,29,32.53,2,2,False,False,13.71,-2.15,100.0,n,,,1.0,8.91
657,1,29,41.44,2,2,False,False,11.63,-2.08,100.0,n,,,1.0,8.91
658,1,29,50.36,2,2,False,False,9.63,-2.0,100.0,n,,,1.0,8.92
659,1,29,59.3,2,2,False,False,7.72,-1.91,100.0,n,,,1.0,8.94
660,1,29,68.24,2,2,False,False,5.92,-1.8,100.0,n,,,1.0,8.94
661,1,29,77.18,2,2,False,False,4.23,-1.69,100.0,n,,,1.0,8.94
662,1,29,86.14,2,2,False,False,2.66,-1.57,100.0,n,,,1.0,8.96
663,1,29,95.11,2,2,False,False,1.22,-1.44,100.0,n,,,1.0,8.97
664,1,30,4.08,2,2,True,False,0.09,-1.13,100.0,n,,,1.0,8.97
665,1,30,13.06,2,2,False,False,1.27,1.18,100.0,n,,,1.0,8.98
666,1,30,22.05,2,2,False,False,2.32,1.05,100.0,n,,,1.0,8.99
667,1,30,31.04,2,2,False,False,3.23,0.91,100.0,n,,,1.0,8.99
668,1,30,40.05,2,2,False,False,4.02,0.79,100.0,n,,,1.0,9.01
669,1,30,49.06,2,2,False,False,4.69,0.67,100.0,n,,,1.0,9.01
670,1,30,58.07,2,2,False,False,5.23,0.54,100.0,n,,,1.0,9.01
671,1,30,67.1,2,2,False,False,5.66,0.43,100.0,n,,,1.0,9.03
672,1,30,76.13,2,2,False,False,5.99,0.33,100.0,n,,,1.0,9.03
673,1,30,85.17,2,2,False,False,6.21,0.22,100.0,n,,,1.0,9.04
674,1,30,94.21,2,2,False,False,6.34,0.13,100.0,n,,,1.0,9.04
675,1,31,3.26,2,2,True,False,6.39,0.05,100.0,n,,,1.0,9.05
676,1,31,12.32,2,2,False,False,6.36,-0.03,100.0,n,,,1.0,9.06
677,1,31,21.38,2,2,False,False,6.26,-0.1,100.0,n,,,1.0,9.06
678,1,31,30.45,2,2,False,False,6.1,-0.16,100.0,n,,,1.0,9.07
679,1,31,39.52,2,2,False,False,5.89,-0.21,100.0,n,,,1.0,9.07
680,1,31,48.6,2,2,False,False,5.63,-0.26,100.0,n,,,1.0,9.08
681,1,31,57.69,2,2,False,False,5.33,-0.3,100.0,n,,,1.0,9.09
682,1,31,66.78,2,2,False,False,5.0,-0.33,100.0,n,,,1.0,9.09
683,1,31,75.88,2,2,False,False,4.65,-0.35,100.0,n,,,1.0,9.1
684,1,31,84.98,2,2,False,False,4.28,-0.37,100.0,n,,,1.0,9.1
685,1,31,94.08,2,2,False,False,3.9,-0.38,100.0,n,,,1.0,9.1
686,2,0,3.2,2,2,True,False,3.51,-0.39,100.0,n,,,1.0,9.12
687,2,0,12.31,2,2,False,False,3.12,-0.39,100.0,n,,,1.0,9.11
688,2,0,21.44,2,2,False,False,2.74,-0.38,100.0,n,,,0.881,9.13
689,2,0,30.54,2,2,False,False,2.36,-0.38,100.0,n,,,0.881,9.1
690,2,0,39.63,2,2,False,False,1.99,-0.37,100.0,n,,,0.881,9.09
691,2,0,48.69,2,2,False,False,1.64,-0.35,100.0,n,,,0.881,9.06
692,2,0,57.75,2,2,False,False,1.3,-0.34,100.0,n,,,0.881,9.06
693,2,0,66.78,2,2,False,False,0.99,-0.31,100.0,n,,,0.881,9.03
694,2,0,75.8,2,2,False,False,0.69,-0.3,100.0,n,,,0.881,9.02
695,2,0,84.8,2,2,False,False,0.42,-0.27,100.0,n,,,0.881,9.0
696,2,0,93.79,2,2,False,False,0.16,-0.26,100.0,n,,,0.881,8.99
697,2,1,2.76,2,2,True,True,0.07,-0.09,100.0,n,,,0.881,8.97
698,2,1,11.72,2,2,False,True,0.27,0.2,100.0,n,,,0.881,8.96
699,2,1,20.66,2,2,False,True,0.45,0.18,100.0,n,,,0.881,8.94
700,2,1,29.59,2,2,False,True,0.61,0.16,100.0,n,,,0.881,8.93
701,2,1,38.51,2,2,False,True,0.75,0.14,100.0,n,,,0.881,8.92
702,2,1,47.41,2,2,False,True,0.86,0.11,100.0,n,,,0.881,8.9
703,2,1,56.3,2,2,False,True,0.95,0.09,100.0,n,,,0.881,8.89
704,2,1,65.17,2,2,False,True,1.03,0.08,100.0,n,,,0.881,8.87
705,2,1,74.03,2,2,False,True,1.08,0.05,100.0,n,,,0.881,8.86
706,2,1,82.88,2,2,False,True,1.12,0.04,100.0,n,,,0.881,8.85
707,2,1,91.71,2,2,False,True,1.14,0.02,100.0,n,,,0.881,8.83
708,2,2,0.54,2,2,True,False,1.14,0.0,70.7,r,22.5,180,0.881,8.83
709,2,2,9.35,2,2,False,False,1.57,0.43,70.7,r,22.5,180,0.881,8.81
710,2,2,18.15,2,2,False,False,2.37,0.8,70.7,r,22.5,180,0.881,8.8
711,2,2,26.94,2,2,False,False,3.48,1.11,70.7,r,22.5,180,0.881,8.79
712,2,2,35.72,2,2,False,False,4.87,1.39,70.7,r,22.5,180,0.881,8.78
713,2,2,44.48,2,2,False,False,6.48,1.61,70.7,r,22.5,180,0.881,8.76
714,2,2,53.24,2,2,False,False,8.26,1.78,70.7,r,22.5,180,0.881,8.76
715,2,2,61.98,2,2,False,False,10.19,1.93,70.7,r,22.5,180,0.881,8.74
716,2,3,0.03,2,2,True,False,12.22,2.03,70.7,r,22.5,180,0.881,8.75
717,2,3,8.76,2,2,False,False,14.3,2.08,70.7,r,22.5,180,0.881,8.73
718,2,3,17.47,2,2,False,False,16.42,2.12,70.7,r,22.5,180,0.881,8.71
719,2,3,26.18,2,2,False,False,18.54,2.12,70.7,r,22.5,180,0.881,8.71
720,2,3,34.87,2,2,False,False,20.63,2.09,70.7,r,22.5,180,0.881,8.69
721,2,3,43.56,2,2,False,False,22.67,2.04,70.7,r,22.5,180,0.881,8.69
722,2,3,52.24,2,2,False,False,24.65,1.98,70.7,r,22.5,180,0.881,8.68
723,2,3,60.91,2,2,False,False,26.53,1.88,70.7,r,22.5,180,0.881,8.67
724,2,3,69.56,2,2,False,False,28.31,1.78,70.7,r,22.5,180,0.881,8.65
725,2,4,7.53,2,2,True,False,29.98,1.67,70.7,r,22.5,180,0.881,8.67
726,2,4,16.17,2,2,False,False,31.52,1.54,70.7,r,22.5,180,1.0,8.64
727,2,4,24.83,2,2,False,False,32.93,1.41,70.7,r,22.5,180,1.0,8.66
728,2,4,33.5,2,2,False,False,34.21,1.28,70.7,r,22.5,180,1.0,8.67
729,2,4,42.19,2,2,False,False,35.36,1.15,70.7,r,22.5,180,1.0,8.69
730,2,4,50.89,2,2,False,False,36.4,1.04,70.7,r,22.5,180,1.0,8.7
731,2,4,59.6,2,2,False,False,37.32,0.92,70.7,r,22.5,180,1.0,8.71
732,2,4,68.32,2,2,False,False,38.14,0.82,70.7,r,22.5,180,1.0,8.72
733,2,5,6.38,2,2,True,False,38.85,0.71,70.7,r,22.5,180,1.0,8.76
734,2,5,15.13,2,2,False,False,39.46,0.61,70.7,r,22.5,180,1.0,8.75
735,2,5,23.89,2,2,False,False,39.99,0.53,70.7,r,22.5,180,1.0,8.76
736,2,5,32.67,2,2,False,False,40.44,0.45,70.7,r,22.5,180,1.0,8.78
737,2,5,41.45,2,2,False,False,40.81,0.37,70.7,r,22.5,180,1.0,8.78
738,2,5,50.25,2,2,False,False,41.12,0.31,70.7,r,22.5,180,1.0,8.8
739,2,5,59.06,2,2,False,False,41.37,0.25,70.7,r,22.5,180,1.0,8.81
740,2,5,67.89,2,2,False,False,41.57,0.2,70.7,r,22.5,180,1.0,8.83
741,2,6,6.03,2,2,True,False,41.72,0.15,100.0,n,,,1.0,8.84
742,2,6,14.87,2,2,False,False,41.39,-0.33,100.0,n,,,1.0,8.84
743,2,6,23.73,2,2,False,False,40.64,-0.75,100.0,n,,,0.881,8.86
744,2,6,32.57,2,2,False,False,39.52,-1.12,100.0,n,,,0.881,8.84
745,2,6,41.4,2,2,False,False,38.07,-1.45,100.0,n,,,0.881,8.83
746,2,6,50.21,2,2,False,False,36.35,-1.72,100.0,n,,,0.881,8.81
747,2,6,59.02,2,2,False,False,34.4,-1.95,100.0,n,,,0.881,8.81
748,2,6,67.81,2,2,False,False,32.26,-2.14,100.0,n,,,0.881,8.79
749,2,6,76.6,2,2,False,False,29.98,-2.28,100.0,n,,,0.881,8.79
750,2,6,85.37,2,2,False,False,27.61,-2.37,100.0,n,,,0.881,8.77
751,2,6,94.13,2,2,False,False,25.16,-2.45,100.0,n,,,0.881,8.76
752,2,7,2.88,2,2,True,True,22.69,-2.47,100.0,n,,,0.881,8.75
753,2,7,11.62,2,2,False,True,20.22,-2.47,100.0,n,,,0.881,8.74
754,2,7,20.34,2,2,False,True,17.77,-2.45,100.0,n,,,0.881,8.72
755,2,7,29.06,2,2,False,True,15.37,-2.4,100.0,n,,,0.881,8.72
756,2,7,37.77,2,2,False,True,13.04,-2.33,100.0,n,,,0.881,8.71
757,2,7,46.47,2,2,False,True,10.81,-2.23,100.0,n,,,0.881,8.7
758,2,7,55.16,2,2,False,True,8.68,-2.13,100.0,n,,,0.881,8.69
759,2,7,63.84,2,2,False,True,6.67,-2.01,100.0,n,,,0.881,8.68
760,2,7,72.52,2,2,False,True,4.79,-1.88,100.0,n,,,0.881,8.68
761,2,7,81.18,2,2,False,True,3.04,-1.75,100.0,n,,,0.881,8.66
762,2,7,89.83,2,2,False,True,1.44,-1.6,100.0,n,,,0.881,8.65
763,2,7,98.48,2,2,False,True,0.02,-1.42,100.0,n,,,0.881,8.65
764,2,8,7.12,2,2,True,False,1.33,1.31,70.7,r,22.5,180,0.881,8.64
765,2,8,15.75,2,2,False,False,2.14,0.81,70.7,r,22.5,180,0.881,8.63
766,2,8,24.37,2,2,False,False,2.48,0.34,70.7,r,22.5,180,0.881,8.62
767,2,8,32.98,2,2,False,False,2.41,-0.07,70.7,r,22.5,180,0.881,8.61
768,2,8,41.59,2,2,False,False,1.97,-0.44,70.7,r,22.5,180,0.881,8.61
769,2,8,50.19,2,2,False,False,1.2,-0.77,70.7,r,22.5,180,0.881,8.6
770,2,8,58.78,2,2,False,False,0.15,-1.05,70.7,r,22.5,180,0.881,8.59
771,2,8,67.36,2,2,False,False,1.15,1.0,70.7,r,22.5,180,0.881,8.58
772,2,9,5.26,2,2,True,False,2.64,1.49,70.7,r,22.5,180,0.881,8.6
773,2,9,13.83,2,2,False,False,4.29,1.65,70.7,r,22.5,180,0.881,8.57
774,2,9,22.39,2,2,False,False,6.06,1.77,70.7,r,22.5,180,0.881,8.56
775,2,9,30.95,2,2,False,False,7.93,1.87,70.7,r,22.5,180,0.881,8.56
776,2,9,39.5,2,2,False,False,9.86,1.93,70.7,r,22.5,180,0.881,8.55
777,2,9,48.04,2,2,False,False,11.81,1.95,70.7,r,22.5,180,0.881,8.54
778,2,9,56.58,2,2,False,False,13.77,1.96,70.7,r,22.5,180,0.881,8.54
779,2,9,65.11,2,2,False,False,15.71,1.94,70.7,r,22.5,180,0.881,8.53
780,2,10,2.95,2,2,True,False,17.61,1.9,70.7,r,22.5,180,0.881,8.54
781,2,10,11.47,2,2,False,False,19.45,1.84,70.7,r,22.5,180,1.0,8.52
782,2,10,20.01,2,2,False,False,21.22,1.77,70.7,r,22.5,180,1.0,8.54
783,2,10,28.56,2,2,False,False,22.91,1.69,70.7,r,22.5,180,1.0,8.55
784,2,10,37.14,2,2,False,False,24.51,1.6,70.7,r,22.5,180,1.0,8.58
785,2,10,45.72,2,2,False,False,26.02,1.51,70.7,r,22.5,180,1.0,8.58
786,2,10,54.32,2,2,False,False,27.45,1.43,70.7,r,22.5,180,1.0,8.6
787,2,10,62.94,2,2,False,False,28.78,1.33,70.7,r,22.5,180,1.0,8.62
788,2,11,0.89,2,2,True,False,30.03,1.25,70.7,r,22.5,180,1.0,8.65
789,2,11,9.54,2,2,False,False,31.19,1.16,70.7,r,22.5,180,1.0,8.65
790,2,11,18.2,2,2,False,False,32.25,1.06,70.7,r,22.5,180,1.0,8.66
791,2,11,26.87,2,2,False,False,33.24,0.99,70.7,r,22.5,180,1.0,8.67
792,2,11,35.56,2,2,False,False,34.14,0.9,70.7,r,22.5,180,1.0,8.69
793,2,11,44.27,2,2,False,False,34.96,0.82,70.7,r,22.5,180,1.0,8.71
794,2,11,52.98,2,2,False,False,35.7,0.74,70.7,r,22.5,180,1.0,8.71
795,2,11,61.71,2,2,False,False,36.38,0.68,70.7,r,22.5,180,1.0,8.73
796,2,11,70.46,2,2,False,False,36.98,0.6,70.7,r,22.5,180,1.0,8.75
797,2,12,8.53,2,2,True,False,37.52,0.54,100.0,n,,,1.0,8.77
798,2,12,17.29,2,2,False,False,37.6,0.08,100.0,n,,,1.0,8.76
799,2,12,26.07,2,2,False,False,37.26,-0.34,100.0,n,,,1.0,8.78
800,2,12,34.86,2,2,False,False,36.54,-0.72,100.0,n,,,1.0,8.79
801,2,12,43.67,2,2,False,False,35.5,-1.04,100.0,n,,,1.0,8.81
802,2,12,52.48,2,2,False,False,34.16,-1.34,100.0,n,,,1.0,8.81
803,2,12,61.31,2,2,False,False,32.59,-1.57,100.0,n,,,1.0,8.83
804,2,12,70.14,2,2,False,False,30.81,-1.78,100.0,n,,,1.0,8.83
805,2,12,78.99,2,2,False,False,28.87,-1.94,100.0,n,,,1.0,8.85
806,2,12,87.84,2,2,False,False,26.81,-2.06,100.0,n,,,1.0,8.85
807,2,12,96.71,2,2,False,False,24.65,-2.16,100.0,n,,,1.0,8.87
808,2,13,5.59,2,2,True,False,22.44,-2.21,100.0,n,,,1.0,8.88
809,2,13,14.48,2,2,False,False,20.2,-2.24,100.0,n,,,1.0,8.89
810,2,13,23.37,2,2,False,False,17.95,-2.25,100.0,n,,,1.0,8.89
811,2,13,32.28,2,2,False,False,15.74,-2.21,100.0,n,,,1.0,8.91
812,2,13,41.19,2,2,False,False,13.57,-2.17,100.0,n,,,1.0,8.91
813,2,13,50.12,2,2,False,False,11.46,-2.11,100.0,n,,,1.0,8.93
814,2,13,59.05,2,2,False,False,9.44,-2.02,100.0,n,,,1.0,8.93
815,2,13,67.99,2,2,False,False,7.52,-1.92,100.0,n,,,1.0,8.94
816,2,13,76.94,2,2,False,False,5.7,-1.82,100.0,n,,,1.0,8.95
817,2,13,85.9,2,2,False,False,4.0,-1.7,100.0,n,,,1.0,8.96
818,2,13,94.86,2,2,False,False,2.43,-1.57,100.0,n,,,1.0,8.96
819,2,14,3.84,2,2,True,False,0.98,-1.45,100.0,n,,,1.0,8.98
820,2,14,12.82,2,2,False,False,0.33,-0.65,100.0,n,,,1.0,8.98
821,2,14,21.81,2,2,False,False,1.5,1.17,100.0,n,,,1.0,8.99
822,2,14,30.81,2,2,False,False,2.54,1.04,100.0,n,,,1.0,9.0
823,2,14,39.81,2,2,False,False,3.45,0.91,100.0,n,,,1.0,9.0
824,2,14,48.82,2,2,False,False,4.23,0.78,100.0,n,,,1.0,9.01
825,2,14,57.84,2,2,False,False,4.88,0.65,100.0,n,,,1.0,9.02
826,2,14,66.87,2,2,False,False,5.42,0.54,100.0,n,,,1.0,9.03
827,2,14,75.9,2,2,False,False,5.83,0.41,100.0,n,,,1.0,9.03
828,2,14,84.94,2,2,False,False,6.14,0.31,100.0,n,,,1.0,9.04
829,2,14,93.98,2,2,False,False,6.36,0.22,100.0,n,,,1.0,9.04
830,2,15,3.03,2,2,True,False,6.47,0.11,100.0,n,,,1.0,9.05
831,2,15,12.09,2,2,False,False,6.5,0.03,100.0,n,,,1.0,9.06
832,2,15,21.15,2,2,False,False,6.46,-0.04,100.0,n,,,1.0,9.06
833,2,15,30.22,2,2,False,False,6.35,-0.11,100.0,n,,,1.0,9.07
834,2,15,39.3,2,2,False,False,6.17,-0.18,100.0,n,,,1.0,9.08
835,2,15,48.38,2,2,False,False,5.95,-0.22,100.0,n,,,1.0,9.08
836,2,15,57.47,2,2,False,False,5.68,-0.27,100.0,n,,,1.0,9.09
837,2,15,66.56,2,2,False,False,5.37,-0.31,100.0,n,,,1.0,9.09
838,2,15,75.66,2,2,False,False,5.03,-0.34,100.0,n,,,1.0,9.1
839,2,15,84.76,2,2,False,False,4.67,-0.36,100.0,n,,,1.0,9.1
840,2,15,93.87,2,2,False,False,4.29,-0.38,100.0,n,,,1.0,9.11
841,2,16,2.98,2,2,True,False,3.9,-0.39,100.0,n,,,1.0,9.11
842,2,16,12.1,2,2,False,False,3.5,-0.4,100.0,n,,,1.0,9.12
843,2,16,21.22,2,2,False,False,3.11,-0.39,100.0,n,,,0.881,9.12
844,2,16,30.33,2,2,False,False,2.71,-0.4,100.0,n,,,0.881,9.11
845,2,16,39.41,2,2,False,False,2.33,-0.38,100.0,n,,,0.881,9.08
846,2,16,48.48,2,2,False,False,1.96,-0.37,100.0,n,,,0.881,9.07
847,2,16,57.53,2,2,False,False,1.6,-0.36,100.0,n,,,0.881,9.05
848,2,16,66.57,2,2,False,False,1.26,-0.34,100.0,n,,,0.881,9.04
849,2,16,75.59,2,2,False,False,0.94,-0.32,100.0,n,,,0.881,9.02
850,2,16,84.59,2,2,False,False,0.65,-0.29,100.0,n,,,0.881,9.0
851,2,16,93.58,2,2,False,False,0.37,-0.28,100.0,n,,,0.881,8.99
852,2,17,2.56,2,2,True,True,0.12,-0.25,100.0,n,,,0.881,8.98
853,2,17,11.51,2,2,False,True,0.11,-0.01,100.0,n,,,0.881,8.95
854,2,17,20.46,2,2,False,True,0.31,0.2,100.0,n,,,0.881,8.95
855,2,17,29.39,2,2,False,True,0.49,0.18,100.0,n,,,0.881,8.93
856,2,17,38.3,2,2,False,True,0.65,0.16,100.0,n,,,0.881,8.91
857,2,17,47.2,2,2,False,True,0.78,0.13,100.0,n,,,0.881,8.9
858,2,17,56.09,2,2,False,True,0.9,0.12,100.0,n,,,0.881,8.89
859,2,17,64.97,2,2,False,True,0.99,0.09,100.0,n,,,0.881,8.88
860,2,17,73.83,2,2,False,True,1.06,0.07,100.0,n,,,0.881,8.86
861,2,17,82.68,2,2,False,True,1.11,0.05,100.0,n,,,0.881,8.85
862,2,17,91.51,2,2,False,True,1.14,0.03,100.0,n,,,0.881,8.83
863,2,18,0.34,2,2,True,False,1.16,0.02,70.7,r,22.5,180,0.881,8.83
864,2,18,9.15,2,2,False,False,1.6,0.44,70.7,r,22.5,180,0.881,8.81
865,2,18,17.95,2,2,False,False,2.41,0.81,70.7,r,22.5,180,0.881,8.8
866,2,18,26.74,2,2,False,False,3.53,1.12,70.7,r,22.5,180,0.881,8.79
867,2,18,35.52,2,2,False,False,4.92,1.39,70.7,r,22.5,180,0.881,8.78
868,2,18,44.28,2,2,False,False,6.54,1.62,70.7,r,22.5,180,0.881,8.76
869,2,18,53.04,2,2,False,False,8.33,1.79,70.7,r,22.5,180,0.881,8.76
870,2,18,61.79,2,2,False,False,10.26,1.93,70.7,r,22.5,180,0.881,8.75
871,2,18,70.52,2,2,False,False,12.29,2.03,70.7,r,22.5,180,0.881,8.73
872,2,19,8.56,2,2,True,False,14.38,2.09,70.7,r,22.5,180,0.881,8.74
873,2,19,17.28,2,2,False,False,16.5,2.12,70.7,r,22.5,180,0.881,8.72
874,2,19,25.98,2,2,False,False,18.62,2.12,70.7,r,22.5,180,0.881,8.7
875,2,19,34.68,2,2,False,False,20.71,2.09,70.7,r,22.5,180,0.881,8.7
876,2,19,43.36,2,2,False,False,22.75,2.04,70.7,r,22.5,180,0.881,8.68
877,2,19,52.04,2,2,False,False,24.72,1.97,70.7,r,22.5,180,0.881,8.68
878,2,19,60.71,2,2,False,False,26.6,1.88,70.7,r,22.5,180,0.881,8.67
879,2,19,69.37,2,2,False,False,28.38,1.78,70.7,r,22.5,180,0.881,8.66
880,2,20,7.34,2,2,True,False,30.04,1.66,70.7,r,22.5,180,0.881,8.67
881,2,20,15.98,2,2,False,False,31.58,1.54,70.7,r,22.5,180,1.0,8.64
882,2,20,24.64,2,2,False,False,32.99,1.41,70.7,r,22.5,180,1.0,8.66
883,2,20,33.31,2,2,False,False,34.26,1.27,70.7,r,22.5,180,1.0,8.67
884,2,20,41.99,2,2,False,False,35.42,1.16,70.7,r,22.5,180,1.0,8.68
885,2,20,50.69,2,2,False,False,36.45,1.03,70.7,r,22.5,180,1.0,8.7
886,2,20,59.41,2,2,False,False,37.37,0.92,70.7,r,22.5,180,1.0,8.72
887,2,20,68.13,2,2,False,False,38.18,0.81,70.7,r,22.5,180,1.0,8.72
888,2,21,6.19,2,2,True,False,38.89,0.71,70.7,r,22.5,180,1.0,8.76
889,2,21,14.94,2,2,False,False,39.5,0.61,70.7,r,22.5,180,1.0,8.75
890,2,21,23.7,2,2,False,False,40.02,0.52,70.7,r,22.5,180,1.0,8.76
891,2,21,32.48,2,2,False,False,40.47,0.45,70.7,r,22.5,180,1.0,8.78
892,2,21,41.26,2,2,False,False,40.84,0.37,70.7,r,22.5,180,1.0,8.78
893,2,21,50.06,2,2,False,False,41.14,0.3,70.7,r,22.5,180,1.0,8.8
894,2,21,58.87,2,2,False,False,41.39,0.25,70.7,r,22.5,180,1.0,8.81
895,2,21,67.7,2,2,False,False,41.58,0.19,70.7,r,22.5,180,1.0,8.83
896,2,22,5.84,2,2,True,False,41.73,0.15,100.0,n,,,1.0,8.84
897,2,22,14.69,2,2,False,False,41.4,-0.33,100.0,n,,,1.0,8.85
898,2,22,23.54,2,2,False,False,40.65,-0.75,100.0,n,,,0.881,8.85
899,2,22,32.38,2,2,False,False,39.53,-1.12,100.0,n,,,0.881,8.84
900,2,22,41.21,2,2,False,False,38.08,-1.45,100.0,n,,,0.881,8.83
901,2,22,50.03,2,2,False,False,36.35,-1.73,100.0,n,,,0.881,8.82
902,2,22,58.83,2,2,False,False,34.4,-1.95,100.0,n,,,0.881,8.8
903,2,22,67.63,2,2,False,False,32.26,-2.14,100.0,n,,,0.881,8.8
904,2,22,76.41,2,2,False,False,29.98,-2.28,100.0,n,,,0.881,8.78
905,2,22,85.18,2,2,False,False,27.6,-2.38,100.0,n,,,0.881,8.77
906,2,22,93.94,2,2,False,False,25.16,-2.44,100.0,n,,,0.881,8.76
907,2,23,2.69,2,2,True,True,22.68,-2.48,100.0,n,,,0.881,8.75
908,2,23,11.43,2,2,False,True,20.21,-2.47,100.0,n,,,0.881,8.74
909,2,23,20.16,2,2,False,True,17.76,-2.45,100.0,n,,,0.881,8.73
910,2,23,28.88,2,2,False,True,15.36,-2.4,100.0,n,,,0.881,8.72
911,2,23,37.59,2,2,False,True,13.04,-2.32,100.0,n,,,0.881,8.71
912,2,23,46.29,2,2,False,True,10.8,-2.24,100.0,n,,,0.881,8.7
913,2,23,54.98,2,2,False,True,8.67,-2.13,100.0,n,,,0.881,8.69
914,2,23,63.66,2,2,False,True,6.66,-2.01,100.0,n,,,0.881,8.68
915,2,23,72.33,2,2,False,True,4.78,-1.88,100.0,n,,,0.881,8.67
916,2,23,80.99,2,2,False,True,3.04,-1.74,100.0,n,,,0.881,8.66
917,2,23,89.65,2,2,False,True,1.43,-1.61,100.0,n,,,0.881,8.66
918,2,23,98.3,2,2,False,True,0.03,-1.4,100.0,n,,,0.881,8.65
919,2,24,6.93,2,2,True,False,1.34,1.31,70.7,r,22.5,180,0.881,8.63
920,2,24,15.56,2,2,False,False,2.14,0.8,70.7,r,22.5,180,0.881,8.63
921,2,24,24.19,2,2,False,False,2.49,0.35,70.7,r,22.5,180,0.881,8.63
922,2,24,32.8,2,2,False,False,2.41,-0.08,70.7,r,22.5,180,0.881,8.61
923,2,24,41.41,2,2,False,False,1.97,-0.44,70.7,r,22.5,180,0.881,8.61
924,2,24,50.01,2,2,False,False,1.2,-0.77,70.7,r,22.5,180,0.881,8.6
925,2,24,58.6,2,2,False,False,0.15,-1.05,70.7,r,22.5,180,0.881,8.59
926,2,24,67.18,2,2,False,False,1.14,0.99,70.7,r,22.5,180,0.881,8.58
927,2,25,5.07,2,2,True,False,2.63,1.49,70.7,r,22.5,180,0.881,8.59
928,2,25,13.64,2,2,False,False,4.29,1.66,70.7,r,22.5,180,0.881,8.57
929,2,25,22.21,2,2,False,False,6.06,1.77,70.7,r,22.5,180,0.881,8.57
930,2,25,30.77,2,2,False,False,7.93,1.87,70.7,r,22.5,180,0.881,8.56
931,2,25,39.32,2,2,False,False,9.86,1.93,70.7,r,22.5,180,0.881,8.55
932,2,25,47.86,2,2,False,False,11.81,1.95,70.7,r,22.5,180,0.881,8.54
933,2,25,56.4,2,2,False,False,13.77,1.96,70.7,r,22.5,180,0.881,8.54
934,2,25,64.93,2,2,False,False,15.72,1.95,70.7,r,22.5,180,0.881,8.53
935,2,26,2.77,2,2,True,False,17.62,1.9,70.7,r,22.5,180,0.881,8.54
936,2,26,11.29,2,2,False,False,19.46,1.84,70.7,r,22.5,180,1.0,8.52
937,2,26,19.83,2,2,False,False,21.22,1.76,70.7,r,22.5,180,1.0,8.54
938,2,26,28.38,2,2,False,False,22.91,1.69,70.7,r,22.5,180,1.0,8.55
939,2,26,36.95,2,2,False,False,24.51,1.6,70.7,r,22.5,180,1.0,8.57
940,2,26,45.54,2,2,False,False,26.03,1.52,70.7,r,22.5,180,1.0,8.59
941,2,26,54.14,2,2,False,False,27.45,1.42,70.7,r,22.5,180,1.0,8.6
942,2,26,62.76,2,2,False,False,28.79,1.34,70.7,r,22.5,180,1.0,8.62
943,2,27,0.71,2,2,True,False,30.04,1.25,70.7,r,22.5,180,1.0,8.65
944,2,27,9.36,2,2,False,False,31.19,1.15,70.7,r,22.5,180,1.0,8.65
945,2,27,18.02,2,2,False,False,32.26,1.07,70.7,r,22.5,180,1.0,8.66
946,2,27,27.08,2,2,False,False,33.24,0.98,70.7,r,22.5,180,1.0,9.06
947,2,27,36.52,2,2,False,False,34.28,1.04,70.7,r,22.5,180,1.0,9.44
948,2,27,46.35,2,2,False,False,35.51,1.23,70.7,r,22.5,180,1.0,9.83
949,2,27,56.55,2,2,False,False,37.05,1.54,70.7,r,22.5,180,1.0,10.2
950,2,27,67.12,2,2,False,False,39.02,1.97,70.7,r,22.5,180,1.0,10.57
951,2,28,7.36,2,2,True,False,41.53,2.51,100.0,n,,,1.0,10.94
952,2,28,18.64,2,2,False,False,43.22,1.69,100.0,n,,,1.0,11.28
953,2,28,30.25,2,2,False,False,44.14,0.92,100.0,n,,,1.0,11.61
954,2,28,42.21,2,2,False,False,44.32,0.18,100.0,n,,,1.0,11.96
955,2,28,54.49,2,2,False,False,43.82,-0.5,100.0,n,,,1.0,12.28
956,2,28,67.1,2,2,False,False,42.7,-1.12,100.0,n,,,1.0,12.61
957,2,28,80.03,2,2,False,False,41.01,-1.69,100.0,n,,,1.0,12.93
958,2,28,93.26,2,2,False,False,38.83,-2.18,100.0,n,,,1.0,13.23
959,2,29,6.8,2,2,True,False,36.23,-2.6,100.0,n,,,1.0,13.54
960,2,29,20.63,2,2,False,False,33.28,-2.95,100.0,n,,,1.0,13.83
961,2,29,34.76,2,2,False,False,30.04,-3.24,100.0,n,,,1.0,14.13
962,2,29,49.17,2,2,False,False,26.6,-3.44,100.0,n,,,1.0,14.41
963,2,29,63.86,2,2,False,False,23.02,-3.58,100.0,n,,,1.0,14.69
964,2,29,78.82,2,2,False,False,19.38,-3.64,100.0,n,,,1.0,14.96
965,2,29,94.05,2,2,False,False,15.74,-3.64,100.0,n,,,1.0,15.23
966,2,30,9.54,2,2,True,False,12.17,-3.57,100.0,n,,,1.0,15.49
967,2,30,25.29,2,2,False,False,8.71,-3.46,100.0,n,,,1.0,15.75
968,2,30,41.3,2,2,False,False,5.43,-3.28,100.0,n,,,1.0,16.01
969,2,30,57.55,2,2,False,False,2.37,-3.06,100.0,n,,,1.0,16.25
970,2,30,74.04,2,2,False,False,0.43,-1.94,100.0,n,,,1.0,16.49
971,2,30,90.76,2,2,False,False,2.95,2.52,100.0,n,,,1.0,16.72
972,2,31,7.72,2,2,True,False,5.15,2.2,100.0,n,,,1.0,16.96
973,2,31,24.91,2,2,False,False,7.02,1.87,100.0,n,,,1.0,17.19
974,2,31,42.32,2,2,False,False,8.55,1.53,100.0,n,,,1.0,17.41
975,2,31,59.95,2,2,False,False,9.75,1.2,100.0,n,,,1.0,17.63
976,2,31,77.79,2,2,False,False,10.61,0.86,100.0,n,,,1.0,17.84
977,2,31,95.46,2,2,False,False,11.14,0.53,100.0,n,,,1.0,17.67
0,3,0,12.95,2,2,True,False,11.38,0.24,100.0,n,,,1.0,17.49
